@relation _net_files.cis.ksu.edu_exports_home_h_hongminli_1120disaterData_consistent_q5_Sandy

@attribute text string
@attribute @@class@@ {yes_class,no_class}

@data

'A bit of a chilly day in   but at least we arent bracing for a hurricane   ',yes_class
'Aaaah fortifying penthouse in preparation of disaster storm   ',no_class
'a hard rains a gonna fall   to continue with the hokey storm metaphors ',yes_class
'Aarons mom just told me the rally against Central Mountain HS has been postponed because of Hurricane Sandy  No new date yet ',no_class
'Aint no hurricane gonna keep me from gettin faded this weekend',yes_class
'about to walk in the hurricane to go see someone',no_class
'Alot of doubters   I will laugh if sandy tears us a new one ',yes_class
'ACCC like encourages students to go to class during a hurricane',no_class
'Am I the only one whos actually excited for hurricane sandy to hit us ',yes_class
'actually I can tell yoy first hand after losing everything in katrina and now living here here were sandy hit the damage    ',no_class
'And Sandy is bitch',yes_class
'after   days the     is moving north and the weather here is getting better  had the chance to have a little swim session',no_class
'   and who exactly thought is was a good idea to have a hurricane   At least I dont have to rake leaves this weekend ',yes_class
'Aftermath of storm   Nassau Community College',no_class
'another hurricane  im moving out of Virginia',yes_class
'A hurricane in Oct    Is this a joke ',no_class
'Another reason   is a slut   She is taking away Halloween      ',yes_class
'A hurricane   noreaster combination is why   is going to be so dangerous for those in the northeast ',no_class
'Are you at a loss of expletives to describe Hurricane Sandy  So is this meteorologist ',yes_class
'A      hurricane was so powerful it washed away Hog Island in Queens  What islands will we lose in',no_class
'at hurricane Sandy  Last time there was a hurricane warning    It rained     For    minutes ',yes_class
'A Hurricane   welcome mat     style     Stay safe stay dry stay home ',no_class
'At least if Hurricane   goes   it will be holiday appropriate ',yes_class
'Aint no party like a storm party',no_class
'Beer fridge is stocked with     n   So if this storm is the end of the world Ill go out in style ',yes_class
'All these talks about Hurricane Sandy is making me antsy ',no_class
'Best storm in    years  Fuck yeah ',yes_class
'almost had me forgetting about the    Better get a light jog in tomorrow',no_class
'Call Keeanu the    year storm is coming',yes_class
'Already tired of these hurricane tweets     ',no_class
'Call Me Hurricane Sandy  ',yes_class
'Also shouldn t poo poo their paranoid reaction to the storm     ',no_class
'Cant wait for this hurricane    I have a paper and test on Monday as would love for that class to be cancelled',yes_class
'Amarillo girl survives Superstorm Sandy  ConnectAmarillo com powered by KVII',no_class
'Come On Irene was a much better hurricane song than Sandy from Grease ',yes_class
'Amazing day of rescue diving during hurricane Sandy  I freaking love diving     Turtle Cove Marina',no_class
'Day    A leaf dies  I was told this would happen but added to a cocktail of caffeine and hurricane dread it stings ',yes_class
'Am I the only person terrified about the storm coming through ',no_class
'Dear   please feel free to unleash whatever fury you may have left on us   I am sure we could all use a day or two off ',yes_class
'And apparently this hurricane on Monday is predicted to be the worst memorable storm   ',no_class
'Dressing up as George Bush tonight so yall dont expect anything from me when this hurricane hits',yes_class
'And now I got my Hurricane wine     Trader Joes Wine Shop w    others ',no_class
'during    let a tree fall through my house',yes_class
'And now my parents arent going out tonight because they need to prepare for the storm     ',no_class
'Everyone is calling and saying theres a perfect storm coming to turn us all into zombies or something  Nice knowin ya  ',yes_class
'And the Nardone clan groupies arrive    Hurricane hide away partay',no_class
'everyone needs to stop being a vagina over this storm',yes_class
'And this is whY I hate Basil Dean  Dis must be hurricane Patrick now     ',no_class
'everyone panic   Theres a hurricane coming   ',yes_class
'And   went out to the lake in the middle of a huge storm and CAUGHT A FISH WITH HIS BAREHANDS ',no_class
'Every time I see the words Hurricane Sandy I imagine John Travolta saying it to me ',yes_class
'Another one     Anxiety high as super storm Sandy draws near East Coast     via',no_class
'Excited for this storm     Bottles on deckkkk',yes_class
'any decisions on east coast travel waivers for Mon Tues due to Hurricane Sandy ',no_class
'Four day weekend muhfuckaaass thanks hurricane sandy',yes_class
'Anyone else notice that when the local news makes a huge hype of a storm its not usually as bad as they make it out to be ',no_class
'Fuck work tomorrow sandy needa damage my work place',yes_class
'Any shows during your visit  You should come out to Rockaway Beach in Queens in time for the hurricane ',no_class
'Fuck you',yes_class
'Anything for a charge   Downtown meets uptown       The Breslin Bar   Dining Room',no_class
'Getting a stash of lotion',yes_class
'anything put out for this hurricane regarding work Monday ',no_class
'going as hurricane sandy I would like one billion dollars please',yes_class
'apps to get you through Sandy    lets fight hurricanes w technology this generation is so smart ',no_class
'Going to commit a deadly sin this weekend     gonna be a total sloth all weekend especially if this hurricane comes ill be indoors ',yes_class
'A quiet moment in   a couple hours after',no_class
'Good question  MT   Why are hurricanes never named ethnic names  Where is hurricane Keisha or Salma ',yes_class
'Are all the east coasters ready for Sandy  ',no_class
'here I come in almost    hrs  Have fun with the   remnants Toronto   ',yes_class
'Arent you worried about storm damage from that finish line sign ',no_class
'Here we go with big Halloween weekend    big storm supposed to be headed for Boston   the perfect storm  Zombie apocalypse ',yes_class
'Are we really getting hit by a hurricane ',no_class
'He think im joking about this hurricane    lol',yes_class
'Are you prepared and ready for this hurricane storm thats coming our way ',no_class
'Hopefully the storm will keep east coast Libs from voting ',yes_class
'A Storm Tomorrowwww           ',no_class
'Hope you brought your swimsuit to work',yes_class
'As you prepare for Sandy maybe revisit   hurricane preparation advice ',no_class
'Hope you had fun at the party  Stash still intact    Bring it on     ',yes_class
'At a Cracker Barrel and all I can think of is the comedy bit   does about it ',no_class
'how about Jim Cantore   in the middle of a tropical storm warning   hes talking to a pretty woman ',yes_class
'Athens forecast tonight  Cat    hurricane with high winds good chance of blackouts   ',no_class
'How we handle Sandy  Blue crabs beer and good times ',yes_class
'At JFK  Getting out of dodge ahead of Hurricane Sandy  If youre looking for me Ill be in Boston ',no_class
'hurricane coming haha',yes_class
'At the beach during a tropical storm  No biggie     Sawgrass Beach Club   pic  ',no_class
'Hurricane Dat Ass',yes_class
'At the of the storm theres a golden sky   Youll Never Walk Alone  YNWA ',no_class
'Hurricane FoodStamps',yes_class
'Authorities investigating homicide in Wilson  abc   com',no_class
'Hurricane Gangnam Style',yes_class
'Awaiting the storm of     years here    Cameras at the ready   ',no_class
'Hurricane JerrySpringerayy',yes_class
'Awating Sandy',no_class
'Hurricane n Halloween gonna   scary weekend    ',yes_class
'a word of warning if  i find  attacking messages       towards me about posting  repeat information on sandy  i will block you',no_class
'Hurricane parrrty this weekend  too bad Sandy wont close bob evans ',yes_class
'Back home baby  Ready for another derecho sandy thing     Ronald Reagan Washington National Airport  DCA  ',no_class
'Hurricane party ',yes_class
'Ba da dum tssss     OH re  Hurricane Sandy  This storm will literally hit The Day After Tomorrow   ',no_class
'Hurricane party in DC Saturday   ',yes_class
'BBC  now   Natural World  A Wolf Called Storm',no_class
'hurricane party plans underway  BYOP ',yes_class
'Because of Hurricane SandyI am officially canceling Halloween  Enuff said ',no_class
'Hurricane party this weekend ',yes_class
'be safe in this upcoming hurricane brah',no_class
'Hurricane preparedness seems to mean everyone head to the liquor store   I better join them',yes_class
'Bestfriend you hear about this girl name Sandy  ',no_class
'       Hurricane   Pussy that gets wetter than Hurricane Sandy  ',yes_class
'Best thing on tv tonite  It has dramasuspense gorecomedy the lot A wolf called Storm you cant make up stories like that ',no_class
'Hurricane ready ',yes_class
'   between the bands     ',no_class
'Hurricane Reese    Crushes Anything In Its Way   haha',yes_class
'Bloomberg a voice of calm on storm  trying to be balanced and not too early worry  but get ready just in case ',no_class
'Hurricane Sandy  Bring it on bitch ',yes_class
'BOA is not messing around handing out hurricane survival guides',no_class
'Hurricane sandy comin and bitches be likecuddling weather',yes_class
'Boston trip cancelled   looks like me and Sandy are going to have a hurricane standoff here in NYC after all',no_class
'Hurricane Sandy im not built for hurricanes      ',yes_class
'Bout to make some fries i wanna summ',no_class
'Hurricane Sandy is about to be like dont mind me Im just gonna come through and straight wreck some places',yes_class
'Boy looking at this pictures Sandy did some serious damage to Nassau ',no_class
'Hurricane Sandy is a hoax ',yes_class
'Breaking   Chris Christie to yell at people tomorrow',no_class
'Hurricane Sandy is a Lil bitch bring it    shows no fear ',yes_class
'Buoy located    NM East of Cape Canaveral reading winds at     kts and gusting at     kys  Waves      ft ',no_class
'Hurricane Sandy is bringing cold wet weather  Oh how I love the East Coast ',yes_class
'But I would be so upset if Hurricane Sandy wont let me drive to work tomorrow  Stay safe everyone and lets pray she wont hit us ',no_class
'Hurricane Sandy   Like Who Comes Up With These Names Tho  Lol ',yes_class
'by the time it gets here it will most likely just be a tropical storm  Plus if we can survive Irene  We can survive Sandy',no_class
'Hurricane sandy shouldve been hurricane Romo so another country wouldve intercepted it lol',yes_class
'Calm before the storm       Comerica Park',no_class
'Hurricane sandy sounds so intimidating    it makes me picture that episode of spongebob where sandy was getting ready for hibernation',yes_class
'Calm before the storm               Scottsdale AirCente',no_class
'hurricane sandy will be taking an L shortly',yes_class
'Calm before the storm          The White House',no_class
'hurricane wat eva can suck on my balls',yes_class
'can I come visit  Were dead center in the path of Hurricane Sandy   ',no_class
'Hurricane  We need no stinkin hurricane   Seriously go somewhere else like Egypt       ',yes_class
'Can somebody please differentiate between big storm and intense damaging storm  I dont see it  Mid Atlantic waters arent warm ',no_class
'Hurricane Willneisha',yes_class
'Cant Even Go To New York Nomore Cause Of The Stupid Hurricane',no_class
'I aint scared of a hurricane named after a spongebob character',yes_class
'Can there be a hurricane rager tonight pls',no_class
'I am beyond pumped for this fucking hurricane ',yes_class
'can you play Every Storm Runs Out of Rain by',no_class
'I can not believe all the wind and rain from sandy this is fun I love living here in central florida',yes_class
'Carrie Im Scared That You Might Get Hurricane Sandy If You Can Let Me Know Weather Updates In Your Area  By  Tweeting Them To Me',no_class
'I cant wait for all the panicked statuses about this superstorm  I need some good entertainment ',yes_class
'Carteret County now under tropical storm warning state of emergency declared',no_class
'I cant wait for Sandy we gon treat her like a HO',yes_class
'Cathy always keep me updated with the weather knew about the hurricane earlier this week thanks to Cathy    ',no_class
'Id like to thank sandy for giving us a   day weekend bc she knows how much we all wanna get shit faced on Halloween weekend',yes_class
'Chances this storm passes over    ',no_class
'I dont care what anyone says Lebrons mom still blows his teammates harder than this hurricane ever will',yes_class
'Checking out Sandys approach as well as WVEC    news    Avalon Fishing Pier   pic  ',no_class
'if i took a shot for every tweet about hurricane sandy or no school on monday id be in the hospital right now   ',yes_class
'Checking the boat and battening down the hatches before the big storm named Sandy    Holiday Harbor',no_class
'If Sandy gets here and all we get us drizzle I will be mildly disappointed',yes_class
'Check out Spences perch weather station In seaside park nj        live weather readings during     real time wthr',no_class
'If there is one thing  that will come out of this storm all of the floors at the bars in   will finally be cleaned ',yes_class
'chef Rogelio cooking up a storm   So far everything is delicious ',no_class
'If this hurricane ruins my chance to get my nails done ill flip a shit',yes_class
'Classes cancelled on Monday for the hurricane I didnt even know was rlly hitting us  ',no_class
'If this storm thing is true the mustard salad dressing and jar of olives in my fridge are going to have to last me ',yes_class
'Coffee and a walk down Old Town before the hurricane hits and floods it     Starbucks ',no_class
'If work gets cancelled next week because of the hurricane Im celebrating outside by building a rainman ',yes_class
'couldnt refund  a ticket or waive change fees after hurricane  Smh I think its more important to fix the roof of my house',no_class
'I hear Sandys throwing a party this weekend ',yes_class
'Crazy video of how strong Hurricane Sandys winds are ',no_class
'I hope hurricane sandy gives me off from school next week',yes_class
'Cruisin w  Sandy            The Village At Lake Lily',no_class
'I hope Kutztown gets hit hard by Sandy  A couple cancelled classes would be fantastic   ',yes_class
'Currently obsessed with tracking',no_class
'I hope sandy cancels classes on Monday',yes_class
'DAMMIT SANDY ',no_class
'I hope WCC gets destroyed in the hurricane lmao ',yes_class
'Damn  Everyone is getting containers filled with gas at the gas station to prepare for the hurricane this is taking forever',no_class
'i laugh at hurricane sandy',yes_class
'damn so a hurricane hitting on Sunday  smh',no_class
'Im actually excited for this hurricane to come',yes_class
'Danny   Sandy       Tin Lizzys Cantina',no_class
'Im Austin powers baby do I make you randy getting your girl wetter than hurricane Sandy',yes_class
'Days they mean weeks right     Pepco says customers may be w o power for days b c of the upcoming storm',no_class
'IM CRYING AT THAT HURRICANE SANDY TWEET LMFAO OMG ',yes_class
'DC Dinner time    before the storm    Newseum',no_class
'Im excited for Snurricane Sandy only for snurricane to finally transcend the pages of Tiger Times to mainstream media',yes_class
'DCINY wishes all of our East Coast followers a safe and uneventful weekend  We encourage you all to be prepared and have a plan ',no_class
'Im excited for this hurricane lol',yes_class
'Dear Beth my name is Sandy Nguyen I live in San Jose CA I have a sis now is a drug addict run away frm hm n left her    kids ',no_class
'Im excited for this storm  Everyone else is just complaining ',yes_class
'Dear Hurricane Sandy         Fuck You          That is all',no_class
'IM GOING AS SCARY ASS HURRICANE TERRIFYING THE EAST COAST FOR HALLOWEEN ',yes_class
'Dear   I have a lot of great things planned for Monday in NYC  Please dont ruin everything',no_class
'Im not gonna sleep tonight in case theres a meteor storm ahh   O',yes_class
'Dear Miami please feel free to have me back when not in midst of hurricane ',no_class
'Im stocking up on liquor for SANDY  Who needs food',yes_class
'Dear Northern Friends Please be safe while Hurricane Sandy heads your way   Love CA',no_class
'I need all of you bitches to secure your tracks for when this hurricane comes lol',yes_class
'declares  state of emergency ',no_class
'I need to hit the liquor store before this storm hits',yes_class
'degrees yesterday   today  Winter Storm Watch for Sunday   Monday    Heavy snow expected   ',no_class
'I need to start wrapping up my pennies   Their use to women making it rain  Im gone make it hurricane on they asses  ',yes_class
'Delivering the game ball for the Battle of the Big Sandy     Bulls Memorial Stadium',no_class
'Instead of calling them sandbags lets call them sandybags then we can all have a jolly laugh before the storm hits ',yes_class
'Dental just called  Next weeks Mon Tues appointments pushed to the right due to Hurricane   Mine is the following week ',no_class
'I really hope this storm absolutely destroys the MTA   I want a three day weekend ',yes_class
'Did GHC resident Harrison Randell   Marking Director Mark Emanuele really go out   the East Coast  C Hurricane Sandy ',no_class
'Is it too early to call hurricane schmurricane  ',yes_class
'Didnt think it was possible to find a dance floor stickier than storm',no_class
'is it true this storm was named Sandy after Sandy Duncan  The eye of the hurricane is glass ',yes_class
'difficult political calculation for Obama  Should he stay in the White House to manage storm response ',no_class
'I swear if this weekend is going to filled with hurricane tweets I will kill everyone',yes_class
'Dinner   drinks post Sandy with   and Mom            John   Tonys',no_class
'I THOUGHT HURRICANE SEASON WAS OVER ',yes_class
'Dinner with my little girlies     Hurricane Grill   Wings   pic  ',no_class
'I wish Sandy would knock my weave off  P',yes_class
'Does anyone know for sure of this Hurricane Sandy will hit Florida ',no_class
'I wish someone would tell Hurricane Sandy that she doesnt need to dress up like a bad girl to impress Hurricane Danny',yes_class
'Doing laundry on a friday night and theres a Hurricane warning for Sunday   I miss',no_class
'I wonder if well see lots of newborns named   next July ',yes_class
'done left    people dead already that storm must be serious   ',no_class
'Johran a  Hurricane Sandra would have been a better name   hotmess neo lol',yes_class
'dont scare me  just like hurricane irene didnt ',no_class
'Just bought a manual can opener and a case of water    bring on the storm  ',yes_class
'Dont worry folks in the Mid Atlantic the     have your back ',no_class
'Just heard my state has declared a State of Emergency for a storm to hit on MONDAY    Oh  And Id love a State of Emergency    Fun game ',yes_class
'Do they have any Pliny at Sandys ',no_class
'  Just like tropical storm Irene where I hid in a pillow fort on my couch watched Tangled and dined on spaghetti os ',yes_class
'Do u tweet just like normally  Or something special u have to do  I may not even be able to  We have a Hurricane on its way    ',no_class
'k in the hurricane tomorrow  ',yes_class
'Do yall think this hurricane is goons be bad tho   Cause weve had hurricanes before   it just for a few hours  then the sun shined',no_class
'last halloween there was a snow ice storm this halloween we get a hurricane woohoo',yes_class
'do you have a storm shelter ',no_class
'Last year Halloween weekend there was a huge snowstorm this year a hurricane  god clearly does not want us college students to get drunk',yes_class
'Do you think Sandy  the hurricane  is bout to have our power out and shit   Lol',no_class
'lemme go get all sexy up before it get too dark dese candles wont do it    maybe ill get some hot water still widout havin to burl it',yes_class
'Drinks with the guys    Hurricane Grill   Wings ',no_class
'Lets see what ya got',yes_class
'dude you dont understand    The only way she will talk to me is to say what I did wrong and then storm off  ',no_class
'Let the   begin        Supposed to be a hurricane saturday supposedly',yes_class
'East Coast Emergency Officials Bracing for Hurricane Sandy   Firehouse Mobile  ',no_class
'live is kicking up a storm to rival the East coast   Loving it ',yes_class
'E  coast in for BIG one w    Tropical storm north Jet stream moves south high tides bc full moon all on Monday ',no_class
'Lmafooo theres a hurricane sandy account   lol okay guys ',yes_class
'Evacuating for Sandy      ',no_class
'LMAO       This is amazing     Hurricane Sandy ',yes_class
'Even though that hurricane Sandy did hit Miami the wind from her are strong lets hope NJ is better prepare this year ',no_class
'lmfaooo I cant take you hahaa    Im hyped for this storm  Sandy aint got nothing on me   ',yes_class
'everybody chill with the storm nonsense  just go back to your damn rooms and shut up  YOULL BE FINE ',no_class
'lol all I can do is skip to da bank after that hurricane blows away all them Yankees up there',yes_class
'Everybody stay safe during storm get prepared with food water  Blankets or leave town think safe',no_class
'Loll everybody calling there halloween parties hurricane parties now lol',yes_class
'Everyone acting like the world is ending  Its a damn hurricane  Neither the first nor the last and certainly not the worst ',no_class
'Lolololol YES     Is it just me or does Hurricane Sandy look like a uterus ',yes_class
'Everyone complaining about the storm and another blackout I actually had fun sleeping in the Rothman last year',no_class
'lolol what if the foreign exchange students get stuck here because of the storm  ',yes_class
'everyone in my area please be safe   Hopfuly this storm passes quickly',no_class
'Looks like sexy FEMA worker will be the hot costume for this Halloween ',yes_class
'Everyone is freaking out about this storm',no_class
'Mai tai and category   hurricane     Joes Crab Shack',yes_class
'everyone pray for my friend Rudy  Hurricane Sandy is going to NY Tuesday       mph winds   heavy rain   stay safe I love you Rudy ',no_class
'Maybe this hurricane thing will get me out of Monday early day classes   ',yes_class
'Every storm runs out if rain  Just like every dark night turns into day ',no_class
'Me and   bout to go steal commons food so when the hurricane hits we gunna start sellin cheeseburgers     We gunna be on',yes_class
'Everything cancelled for tomorrow   the Perfect Storm soon to be here',no_class
'Me  Ive never been in a hurricane   Suitemates  WHAT  Me  I LIVE IN A LANDLOCKED STATE ',yes_class
'ew its like the calm before the storm right now  its creeping me the fuck out ',no_class
'Meteorologists in DC are like kids in a candy store  Live chats about a   day away storm have now begun ',yes_class
'FABULOUS FRIDAY ALL ',no_class
'My cat Randy is not afraid of hurricane Sandy handy Randy will eat candy   drink brandy',yes_class
'few minutes ago     the lightning storm outside my house   Bouar',no_class
'My dad is on the roof changing the gutters   I got emergency test e mails   texts from my school  Bring it on Hurricane Sandy ',yes_class
'Finally finished hurricane proofing inside and outside of the house   I hate hurricanes',no_class
'my father is threatening to drive up here because of the hurricane   ',yes_class
'FinancialTimes  Wall Street braces for hurricane',no_class
'My mom asked me what I want in the house for the hurricane  I told her Nutella and beer  Were gonna make it through this ',yes_class
'firstpostin  Hurricane Sandy slogs toward U S     killed in Caribbean',no_class
'My mother would wanna come to shoptite when everyone is trying  stock up for this damn storm  ',yes_class
'Flatiron total darkness         Madison Square Park',no_class
'Nah uh  Thats nuts  Are you in the path of this big storm thats coming ',yes_class
'flies over       area Tuesday evening  Clouds courtesy of then hurricane',no_class
'Niggas said its gonna be a tropical storm on steroids',yes_class
'Flooding in New york  Sandy',no_class
'of course we get another hurricane  we gonna die lol ',yes_class
'Flying   over the next week  They are offering you the ability to change your travel plans due to',no_class
'Oh can I come over during the Frakenstorm  or zombie storm     I love pumpkin marshmallows ',yes_class
'Folks filling up on gas and water cc      Safeway ',no_class
'Okay people    Bread and milk will not help you during a hurricane    Beer candles and boardgames WILL ',yes_class
'FO Log  Edge of the cold front meeting up with   to make   Should be     Robinson Aviation',no_class
'omg the hurricane is named Sandy lmfao',yes_class
'for an important emergency announcement from  st Selectman Fillmore McPherson regarding Hurricane',no_class
'OT  Is there really a hurricane coming to New York  I didnt bring a coat',yes_class
'Forecasting billions of dollars in damages to the   area following',no_class
'Our hurricane prep consisted of   ordering    bottles of my favorite wine   We are ready      D',yes_class
'Frankenstorm aka Sandy  will most likely make landfall here  Its a perfect storm   storms in one  Tropical mixed noreaster',no_class
'Outdoor shopping during the hurricane wooo',yes_class
'Frankenstorm from Space  Hurricane Sandy Satellite Photos',no_class
'Pitched my first tent  Whos ready to ride out the storm with me        Uptown',yes_class
'Frankenstorm       Hurricane Sandy Hybrid Could Hit New York New Jersey And Pennsylvania   via',no_class
'Pumped for a hurricane ',yes_class
'Frequent gusts to tropical storm strength now occurring at immediate coast    Vilano Beach',no_class
'remember that if youre running low on undies you should probably wash it now in case   cuts off your power    you know other stuff',yes_class
'Friday night and Im sitting under a blanket watching a documentary about a Wolf Called Storm  Happy as Larry ',no_class
'Rutgers better give us at least a day off due to the hurricane  maybe Ill appreciate the school a little bit more ',yes_class
'Fro my trick and treat is today and hurricane sandy not coming untill Sunday  I hope you will be ok ',no_class
'Sandy can suck my dick ',yes_class
'Fuck a hurricane',no_class
'Sandy Frankenstorm is coming   If she is a total bitch then I will be inside eating all of this Halloween candy ',yes_class
'Fucking hurricane at the beach',no_class
'sandy has fists lol and a hand and she punched me',yes_class
'Fuck men whats in this storm it fucking up every where it touch   ',no_class
'Sandy is gonna blow all the sloppy bishes into the ocean    ',yes_class
'Fuck off Hurricane Sandy  Like seriously     fuck the fuck off ',no_class
'Sandy Plankton says hurricane sandy is a butt ',yes_class
'FUCK       that is all',no_class
'Sandy please find your way back to bikini bottom  Ok  Thank you ',yes_class
'Fuck this hurricane because now my sister and niece arent coming to Rhode island anymore  Fucking awesome',no_class
'Sandy sure is a large lady  Mhmm ',yes_class
'Fuck u huricane sandy',no_class
'Sandy what will you be on Halloween ',yes_class
'Fuck you Mother Nature and Hurricane Sandy   I dont want LIPA to not fix my electric for a week again  ',no_class
'Scarpered in snow storm to a  star pub just incase we get snowed in  Mental weather  But hmmm nice beer   pic  ',yes_class
'Fuuuuckkk  Everyone is so panicked about this stupid storm that Im panicking',no_class
'Seems you cant have fireworks if there is Tropical Storm winds in the area WHO KNEW ',yes_class
'      gal  Everyones panic filling up            Petroleum ',no_class
'Since hurricane Sandy is on the way does that mean that I should be having a BBQ ',yes_class
'Getting a few things just in case this hurricane comes around     Giant ',no_class
'sis i think we should go to our hiding place so hurricane sandy dont blow us away lol',yes_class
'Getting blasted by Sandy',no_class
'So heres how the   looks in   lol',yes_class
'Getting hurricane ready no school till Wednesday',no_class
'So long for brewing this weekend  All the nuts afraid of the storm bought out the bottled water ',yes_class
'getting ready for      Chesapeake Ave ',no_class
'So should I hurry up and go out and get prepared for this hurricane and buy everything in sight so that Stores will be open next day ',yes_class
'Getting ready for the hurricane      Whole Foods',no_class
'So wait    theres a huge storm coming our way thats been dubbed Frankenstorm in NYC  That is too awesome ',yes_class
'Getting ready for this hurricane   ',no_class
'So yeah Im not tryna be by myself during this storm  So if ya interested lets bring our funds together get sum liq and do it up',yes_class
'Getting supplies for a hurricane thats going to hit in a couple of days ',no_class
'super storm this close to the election smells like a conspiracy ',yes_class
'GET YA GENERATORS READY SANDYS COMING',no_class
'thanks girl who doesnt want to run a  K in a hurricane lol',yes_class
'GET YA HALLOWEEN ON   STONE CREEK LOUNGE TONIGHT BEFORE THE HURRICANE HITS ON SUNDAY ',no_class
'That Darn Sandy    ',yes_class
'Glad you guys are safe  Poor boardwalk shore store and shore house  ',no_class
'The hurricane tweets   Theyre coming ',yes_class
'god help you two if he did  Although I know of it now',no_class
' the power company  left a mash letting me that a storm is coming  I feel so secure now ',yes_class
'Going to the grocery store and out to eat  Getting ready for Sandy the Hurricane this weekend  Yay  Not  I hope the power stays on ',no_class
'There is a hurricane headed towards DC  Yall know   is going to cut up ',yes_class
'Going to the lake    Hurricane Valley ',no_class
'theres supposed to be a hurricane this weekend   feeling another hurricane party  Hahah',yes_class
'Goodbye Sandy Hello weekend',no_class
'There suppose to be a hurricane   fohhhhh shit messing up my weekendd  ',yes_class
'good gum it sandy ',no_class
'the sandy hurricane is just jersey  Im lost lol ',yes_class
'good luck to your teams this weekend  Go Storm   ',no_class
'the storm coming up the east coast on Monday is called Hurricane Sandy    ',yes_class
'Good place not to get Sandy bored      off beers wine and wells btw   and  pm',no_class
'Thunder and snow misfits storm ',yes_class
'Google map for',no_class
'Today was a perfect long sleeve Tshirt  kind of day   thanks   Cheers to lazy night with friends ',yes_class
'Gotta Get Ready For Hurricane Sandy       Never Know Whats Going To Happen Have To Be Aware  ',no_class
'to destroy   so long farewell aufidersen goodnight     Starbucks',yes_class
'Gotta take the boat out of the water later because of this hurricane coming      ',no_class
'Two places are packed to the gills in my town right now  Grocery Stores and the Liquor Stores  HURRICANE PARTY  ',yes_class
'Got the house all decorated for Halloween just to take it all down due to this damn hurricane thats coming     smh',no_class
'UDCLASSOF      I hope Hurricane Sandy tears Dickinson down    HAHAHAHAHAHA',yes_class
'Got the word earlier today their calling in my Guard unit to help out w  the storm  Getting gear together',no_class
'Waiting for the sandy blows hard and long jokes ',yes_class
'Gov  Cuomo declares a state of emergency in preparation for Hurricane Sandy',no_class
'Well guys might as well start that heroin addiction Ive been threatening seeing as how the medias calling for the end of the world',yes_class
'Gov  Cuomo of NY reflects on   damage on NBC seeing     year floods every   years now     My House  ',no_class
'Well here comes the wind and rain  Hello Sandy ',yes_class
'Governor Declares State Of Emergency To Prepare For Hurricane S    WINA AM',no_class
'Well Im in a hurricane   this is awesome',yes_class
'Grave  ',no_class
'What did hurricane   say to new York  I have my eye on you ',yes_class
'great report on the hurricane Kristin',no_class
'Who drives to myrtle beach on their motorcycle when a hurricane is coming ',yes_class
'great there supposed to be a storm coming to NY     ',no_class
'Why is my Mommom drinking down the shore       Ummm a hurricane is coming wtf',yes_class
'Grilling some burgers and potatoes and carving pumpkins later  Now just need a beer     Sandys ',no_class
'Will   be a Snowclone if NY gets hurricane winds AND blizzards  Will that make Snowclone the new snowclone  cc ',yes_class
'Guelph Storm playing at home tonight across street from me  Between the two events we should have thousands of people in attendance ',no_class
'wnyc just referred to sandy as frankenstorm hash tagging commences',yes_class
'Guess I need to go out shipping tomorrow for the hurricane',no_class
'yep n I am waiting for sandy want to see what she got  ',yes_class
'Guys get prepared for hurricane sandy ',no_class
'yes maam Sandy is good with me its    degrees and windy',yes_class
'Had enough of Sandy already   heading to CT',no_class
'hahahaha people are so dumb this is not gonna be a hurricane its gonna be a pathetic storm F    D    ',no_class
'Hah  Another hurricane for   th anniversary  Shouldve done more disaster planning sessions ',no_class
'haha why ask sandy questions bout me when you could had asked my myself  ',no_class
'Happy Friidee see ya tomm   hope the storm dont get us ',no_class
'Has   called   racist yet ',no_class
'Ha she gu tell me i dnt dont clean     Bitch you wasnt outside in the hurricane  puttin up shutters',no_class
'Has   scheduled a press con with   I heard she is repping   obviously being victimized',no_class
'Hawker Hurricane',no_class
'Heard theres gonna be a hurricane hitting Philly ',no_class
'Hell yeah          vs James Storm in a beer drinking contest at that Party Dixie Carter TNA BOOK IT  ',no_class
'Here comes the storm ',no_class
'Hey guess what Virginia declared a state of emergency for hurricane sandy shits serious',no_class
'hey Mandy     there is a storm coming    ',no_class
'high five ',no_class
'   HOLLAS        Sandy       Fat Tuesday',no_class
'Home from Cuba   Had a blast aside from the hurricane   ',no_class
'Hope all my friends   family are ok in FLORIDA   Hurricane Sandy hasnt hit yet but sounds like shes getting stronger  GOD BLESS ALL ',no_class
'Hope all of my family from the Wilmington NC area stays safe over the next few days with this hurricane heading their way',no_class
'Hopefully I wont be having cabin fever in a few days from our girl Sandy     Cabin Fever Brown Ale ',no_class
'Hopefully the good sis   cancels my classes ',no_class
'Hope he tells everyone get the hell off the beachRT   Gov Christie will hold a press briefing tomm to update on Hurricane preps ',no_class
'Hope I get home safely on my way back home from NewYork on Sunday before and storm hit ',no_class
'hope i make it back to maryland safe in the morning with this damn hurricane',no_class
'hope Sandy passes you by  We are bracing tonight as well ',no_class
'Hope that hurricane dont come this way',no_class
'Hope theyre mistaken re  Sandy',no_class
'hope you enjoyed it     ',no_class
'hope you had your big thermal back warmers on ',no_class
'hoping you escape the storm   big hugs',no_class
'How big a role will   play in the       game  Ill have your game weather forecast at     pm and     pm on',no_class
'Hows everything there with hurricane Sandy      semoga ga nyampe tempatmu ya San    ',no_class
'hr news cycle warns the NYC about a storm  However a  black hole  could lurk undetected  Better full up that bathtub ',no_class
'Hurricaine Sandy hits New york ',no_class
Hurricane,no_class
'Hurricane at work',no_class
'Hurricane cant slow this place down  Still packed       Rivers Smokehouse w    others ',no_class
'Hurricane Child Support',no_class
'Hurricane day ',no_class
'Hurricane dinner    Gyu Kaku Japanese BBQ Midtown w    others ',no_class
'Hurricane   effects at St  Augustine Beach  Blowing sand and high s   The Pier At St  Augustine Beach',no_class
'Hurricane force winds at least moderate flooding expected to hit Passaic     Most read by neighbors in',no_class
'Hurricane force winds at least moderate flooding expected to hit Passaic      NorthJersey com',no_class
'Hurricane   heading our way  naht good',no_class
'Hurricane I WISH A NIGGA WOULD',no_class
'Hurricane moving directly towards Melbourne FL ',no_class
'Hurricane party at   house stfu',no_class
'Hurricane   preparations are under way   Costco Wholesale Club',no_class
'Hurricane Preparedness Level  High   Be ready',no_class
'Hurricane prep    Pathmark ',no_class
'Hurricane Sandra is the real October surprise  It is time for candidates to address global warming and climate change',no_class
'Hurricane sandy',no_class
'Hurricane sandy  ',no_class
'Hurricane Sandy  ',no_class
'Hurricane Sandy   ',no_class
'Hurricane Sandy being a pain dont worry well deliver to a location near you      Sir Pizza',no_class
'Hurricane Sandy cant hold me back',no_class
'Hurricane Sandy coming Sunday Night ',no_class
'Hurricane Sandy could be storm of a lifetime East Coast braces for flooding snow wind damage   ',no_class
'Hurricane Sandy day by day',no_class
'Hurricane Sandy doesnt flow like Hurricane Chris',no_class
'Hurricane Sandy expected to hit WMass Sunday  via',no_class
'hurricane sandy go the fuck away  dont come to nj',no_class
'Hurricane Sandy has left    dead is likely to merge into   ravage New England ',no_class
'Hurricane Sandy heading straight for us',no_class
'Hurricane sandy is coming everyone prepare and watch out you never know when it can hit you ',no_class
'Hurricane Sandy is coming our way  newly finished basement   dont want elec to go off   sump pump to stop working',no_class
'Hurricane Sandy is destroying our beaches',no_class
'Hurricane sandy is fucking up plans ',no_class
'Hurricane Sandy is going to be    ',no_class
'Hurricane sandy is going to be such a bitch',no_class
'Hurricane Sandy is going to come ashore in Delaware or ocean city as a hurricane  This is bad',no_class
'Hurricane Sandy is going to shut everything down  Height of the storm is Monday night   all day Tuesday ',no_class
'Hurricane Sandy is making its way to the east coast especially Philadelphia   ',no_class
'Hurricane Sandy is no joke ',no_class
'hurricane sandy is real',no_class
'Hurricane sandy is the real life day after tomorrow',no_class
'Hurricane Sandy     Peters Point Beachfront Park',no_class
'Hurricane Sandy radar',no_class
'Hurricane Sandy ready  food adult beverages good music n movies ready for a few days to b home   early next week enjoy b safe people',no_class
'Hurricane Sandy slogs up US Atlantic coast',no_class
'hurricane Sandy to hit NYC Monday eve  ',no_class
'Hurricane sandy will heat nyc this week',no_class
'Hurricane Sandy will weaken to a post tropical cyclone by the time it hits land NOAA says Furacao   haha',no_class
'Hurricane Sandy wont hit till Monday So   and   still on my tv tonite ',no_class
'Hurricane Sandy  You heard about it right ',no_class
'Hurricane scores against Logan on the  st play of the game  Hurricane   Logan   nine seconds in',no_class
'hurricane Steve Wilkos',no_class
'Hurricane       updates  wind    Kt',no_class
'I also need to prepare for my first hurricane ',no_class
'I am really scared for the hurricane',no_class
'I am still in shock over the devastation on the rockaway peninsula  It looked like the end if the world    ',no_class
'I am worried about this storm for you guys    lots of flooding and storm surge',no_class
'i bet    bucks it doesnt even rain monday   fuck dis hurricane hype',no_class
'I cant believe Im sitting in this house',no_class
'I cant believe people want this hurricane  Do you really want to make this up at the end of the year  No',no_class
'I cant wait for this Hurricane to hit its going to be so much fun I like when stuff like this happens ',no_class
'I cant wait for this storm gives me something to do while every  is home hiding',no_class
'I cant watch Taylorrrr  Fs Sandy ',no_class
'I couldnt without that spreadsheet  Crazy day filled with disaster planning  That Sandy is such a bitch ',no_class
'idk yet might go home tomorrow might stay here thru break so hurricane sandy doesnt trap me home',no_class
'i dot understand why   i dont plan on driving around in the storm ',no_class
'I doubt that hurricane will hit us hard  They siced the last hurricane just like this one',no_class
'If anyone from   needs to stay at my house youre MORE than welcome',no_class
'I feel better     President Obama briefed today on Hurricane Sandy by the heads of FEMA and the National Hurricane Center',no_class
'I feel like this storm is going to be kind of crazy  We never get affected by hurricanes in Toronto but the alerts are already coming up ',no_class
'I feel my anxiety creeping in on me like a thunder storm ',no_class
'I find it highly prophetic that the largest storm ever Sandy  defender of men  is one week before the election',no_class
'If     of climate scientists told you a hurricane was about to hit would you listen to them ',no_class
'If people were rain I was drizzle and he was a hurricane ',no_class
'If the concert is canceled because of the hurricane Id be pissed  Lol damn you mother nature ',no_class
'If the hurricane comes and we miss school  were going to make it back up so  think ',no_class
'if u aint bitch the show will go on  fucka hurricane',no_class
'if we get that snow storm this week   ',no_class
'I got the camera  hurricane sandy documentary',no_class
'I had a hunch it was a fake ',no_class
'I hate this weather  Hurricane please go away',no_class
'I have enough food for weeks  Im good ',no_class
'I have such extensive plans for my not yet decided Hurricane Sandy day off ',no_class
'I hope and pray the Fed response to this storm is on point  Leave nothing for republicans to criticize you on ',no_class
'I hope eberyone stays inside bc its a superr storm coming tonight',no_class
'I hope I can work on Monday and Tuesday due to Sandy   ',no_class
'I hope my family in VA and MD will be safe  Sandys coming  I love you and my prayers are with you ',no_class
'I hope my flight doesnt get affected by the hurricane   I dont want to stay in Chicago for longer than I have to',no_class
'I hope my hurricane doesnt cause much damage or any injuries ',no_class
'I hope ray doesnt know about this hurricane   hell probably want me to go to the stand',no_class
'I hope Sandy gets Monday classes canceled',no_class
'I hope the hurricane knock down oomfs POWER LINE ya fat bastard  lol',no_class
'I hope these niggas dont think imma go to school Tuesday or whatever day  that hurricane gonna destroy shit ',no_class
'I hope this hurricane aint too bad',no_class
'I hope this hurricane isnt as serious as everyone is making it to be ',no_class
'I hope this hurricane rips apart my school and half the kids in there ',no_class
'I hope this storm isnt too bad    I would hate to see downtown lumberton flood again',no_class
'I hope yo candy get wet and flies away during the hurricane  ',no_class
'I just dont get why were having a thunder and lightning storm  this fuckinn weather',no_class
'I just got off Tuesday night because of sandy  Thanks inclement weather ',no_class
'I just hope Sandy takes me out of my misery for being the worse wife   please forgive me Empire I will not think this way any more      ',no_class
'I just want this hurricane to pass',no_class
'I know that having no school is pretty awesome but while everyone is praying for no school pray for the people being effected by Sandy ',no_class
'i literally had not heard anything about hurricane sandy until today and now everyone is talking about it ',no_class
'Ill try  Im only there for the night',no_class
'I lost it over the summerwhen we had that storm  mine was out for atleast a week or so  ',no_class
'i love it when others use the term shit storm',no_class
'I love that all hurricane updates will be posted on the Agency intranet page that I cant access from anything but a Government computer',no_class
'I love this place   Italiano  Outside on this beautiful night   calm before the storm',no_class
'Im actually kind of looking forward to this hurricane maybe theyll close mcc',no_class
'Im an old Hamptonite now in Woburn MA  What are they expecting for storm surge in your area ',no_class
'Im at Bobbys Crib  Jakarta ',no_class
'Im at Chick fil A  Sandy UT ',no_class
'Im at East Sandy Elementary  Sandy UT ',no_class
'Im at Frankenstorm Apocalypse   Hurricane Sandy w ',no_class
'Im at Hartsfield Jackson Atlanta International Airport  ATL   Atlanta GA  w      others',no_class
'Im at Norfolk International Airport  ORF   Norfolk VA  w    others',no_class
'Im at NYC NJ Hurricane Apocalypse       Sandy  w ',no_class
'Im at Spartan Race Hurricane Heat  Marseilles IL ',no_class
'Im beyond mad',no_class
'Im bout to Leave VA before that hurricane come  Fuck VA I aint dyin for this shit',no_class
'Im cool dude  Its supposed to hit here in PA by Sunday or Monday  Watch it be an overrated storm   I wouldnt be surprised ',no_class
'Im gonna laugh when there is no hurricane and all these people buying mad extra shit look dumb ',no_class
'Im holding up alright  I got either extreme allergies or the flu  Either way Im just relaxing before this hurricane hits ',no_class
'Im hoping that not even a Sandy will prevent people from voting and removing the empty suit out of WH ',no_class
'Im hoping the storm doesnt get the   concert canceled Tuesday ',no_class
'Im loving this tropical storm coming through Miami tonight',no_class
'Imma put it down   You gone fall in love  stop lying I am not  Lol',no_class
'Im me ur   broo',no_class
'Im out in cochranville PA  Always windy during a storm   Am I in the safe zone ',no_class
'Im pissed I might not be able to fly home Wednesday cuz of Hurricane Sandy but hopefully we can switch our flight to Monday  Im praying ',no_class
'Im ready for this hurricane everybody is panicking about',no_class
'Im really scared for this Hurricane',no_class
'Im scared of this hurricane  I wanna go home',no_class
'Im so hot yall Im sweating up a storm',no_class
'Im tired miserable and there is a hurricane coming thats going to probably knock my house down',no_class
'Im tired miserable and there is a hurricane coming thats going to probably knock my house down    ',no_class
'Im trapped here by the storm  Sorry guys  tell pops I wish I could make it ',no_class
'Infamous Bush FEMA director complains Obama reacted too fast to',no_class
'In Katrina Speech Obama said whites didnt give a dam about blacks suffering from hurricane  He left out he contributed not   penny to fund',no_class
'In Moscow the icy rain storm  warningsand if all of this is someone makes a specially     ',no_class
'In nj   miles from beach waiting for storm not a generator or bottle of water available within     miles ',no_class
'In preparation of the Hurricane cancellations changes in our class schedule will depend on mall hours see pic pls   ',no_class
'installs a roof in preparation for Hurricane Sandy',no_class
'In stockton CA at stocton    for turkey bowl  Little stockton tomorrow karting with ikf  Awesome getting away from the hurricane in Jersey',no_class
'Insurance Stocks in Hurricane Sandys Crosshairs',no_class
'In   wake the Mid Atlantic surveys the damage ',no_class
'I really appreciate the RTs and new followers   I try to thank them all personally occasionally its difficult to keep up ',no_class
'I really dont think this image is really conveying the sense of the    mph gusts from hurricane Sandy',no_class
'I really dont wanna be stuck inside during a hurricane on my birthday',no_class
'I really hope Sandy isnt as bad as shes supposed to be ',no_class
'Irene fizzled compared to predictions last year  Can our good luck continue   Or is this the storm that destroys fire island',no_class
'is acting up outside again ',no_class
'is already      miles wide  Yes Im talking about a hurricane ',no_class
'is already ruining my week and it hasnt even started yet ',no_class
'Is anyone else freaking out Cuz of this storm coming ',no_class
'is   available anywhere on tap yet  Im trying to get down with',no_class
'I see a very disorganized system  I see moisture not a powerful compact hurricane  Idk ',no_class
'I seriously feel like Im gonna be sick    this storm is messing with my psychicness',no_class
'Is glad my place in   is on high ground   Just hope the windows arent broken by flying tree limbs ',no_class
'is near     N     W and is moving N at   mph ',no_class
'Is your business prepared for tropical storm     Emergency text message alerts from    ',no_class
'It comes across as a comic light take on a potentially catastrophic storm',no_class
'I think everyone in NYC is trying to evacuate due to the hurricane cause weve been stuck on this bridge for half an hour ',no_class
'I think Im the last person to hear about this storm',no_class
'I think its fucking hysterical that people are actually worried about this hurricane  The past five hurricanes were nothing ',no_class
'I thought hurricane season was over ',no_class
'I thought you were coming home this weekend Or are you stuck there with the hurricane ',no_class
'It is like The Perfect Storm of storms ',no_class
'it pose ta bee a BAD storm tonight ',no_class
'I travel to much I never had to deal with a hurricane in Detroit all of a sudden Im in Connecticut and hurricane Sandy coming',no_class
'Its a sandy hurricane',no_class
'its a tropical storm',no_class
'Its hard to see light when youre standing in the storm  But please abandon the norm and absorb the happiness even in its simplest form',no_class
'Its ridiculously cloudy  Can wait for Hurricane Sandy  Please dont hit',no_class
'it wasnt a storm here just snowed a bit so I wouldnt get to excited  ',no_class
'it Will never last as a hurricane to new york  Get real ',no_class
'It would be fuckin raining     I thought this hurricane bullshit was over  ',no_class
'Ive stood up for my state for years and I will continue to do so  We are stronger than   and we will survive ',no_class
'I wanna go to the fair  But that rain    ',no_class
'I Wanna Listen To My Music And Chill In My Room During This Storm   This Is My Thinking Time   Lol',no_class
'I want company     Im so bored',no_class
'I was just thinking of Sandy and where you are     stay safe sounds like its going to be a nasty one ',no_class
'i was to see my girlfriend supposed to have been there only for the weekend but huricane sandy canelled flights',no_class
'I will  Ill be working with the FD for the storm  We may be   but I know that were the best in these situations ',no_class
'I wonder if were gonna have school next week if hurricane sandy is on its way',no_class
'I would be better off at work in this storm  If the power goes out we have a full backup system ',no_class
'I wouldnt titty bang any of you in a snow storm',no_class
'just about killed us',no_class
'Just another thing to see in Florida       oh and the hurricane outside party   Bizzaros',no_class
'Just found out the Navy is going to sortie looks like my meeting with Sandy has been postponed  She s going to have to come to me',no_class
'Just got a cal from BGE warning me about hurricane       ',no_class
'Just got an automated call from power company warning me about impending Hurricane Apocalypse  Like DCers need excuse to panic shop ',no_class
'Just got drenched after having to walk two blocks in hurricane rain w o an umbrella',no_class
'Just got that hey if this hurricane hits you need to be at work    Call  Go go disaster response team ',no_class
'Just posted a photo   SJ Storm',no_class
'Just posted a photo   waiting for hurricane Sandy frankenstorm',no_class
'Just realized my neighborhood faces the highest risk of flooding ',no_class
'   just said this could be strongest storm that could EVER hit the east coast',no_class
'Just saw you on the news in New York  Hope your safe  Calm down',no_class
'knowing theres a one in    year storm headed right for me makes me feel real good   NOT ',no_class
'landed safe though a bit bumpy         Fort Lauderdale Hollywood International Airport  FLL  w     others ',no_class
'Last October with Storm Alfred we survived   days with no power  It just brought us closer together huddled under the covers ',no_class
'Last year had a snow storm the morning I woke up on my birthday that lost power for   days  Now a hurricane        ',no_class
'Latest from NY  Weather  still early but worst   impact of storm on Monday night likely to be water rather than extreme wind ',no_class
'Latest track Takes Sandy a beam south of Cape May point by Monday evening  this has been a more consistent trend with past few computer runs',no_class
'Latest weather report on Hurricane Sandy ',no_class
'Launch reward is beach camping w  great friends  Homebrew beer dogs a fire great weather  Bad news  models put us at center of storm ',no_class
'LET ME FUCK YOU LIKE A HURRICANE THEN CUM ON YOUR TITIES',no_class
'Lets hope the city takes the leaves away before Hurricane   blows them back onto the lawn and snows on them next week ',no_class
'Lets just hope that we dont have a hurricane like Sandy next time hurricane season arrives ',no_class
'Lexi Snow Storm    excited about Santa me thinks lol ',no_class
'Like what about the people who didnt get hit with any kind of storm  They have to have their halloween postponed  too ',no_class
'Literally the nightmare storm for NJ ',no_class
'lls I didn even come home for the hurricane  now Im glad I did',no_class
'Local Navy ships ordered to move  WAVY TV',no_class
'lol Ill try too   wont shut up her noisy winds',no_class
'lol no more puppies and sweets for nikki   full on storm troopers all you need ',no_class
'lol shut up  That damn storm coming ',no_class
'Lol  We All Knew It Was Gonna Rain Thats What A Storm Does  ',no_class
'Looking forward to a good weekend after being  stranded in Denver snow storm this week  Hooray for Texas ',no_class
'Look like  a storm coming',no_class
'looks bad',no_class
'Looks like its about to storm',no_class
'Looks like our little sleepy ocean town of Rhehobeth Beach may take direct hit',no_class
'Looks like this hurricane is something serious',no_class
'  love it  You have a hashtag   Norfolk navy base given orders to ship out ahead of the storm     ',no_class
'Love snow  brave the storm the Mouth wadaaaap',no_class
'Made it in to Orlando  Little bouncy cause of Sandy  Maybe there will a thunderstorm tonight  Only like   a year in SF ',no_class
'Making sure we are ready for Sandy    Georgetown Yacht Basin ',no_class
'Man fuck this Hurricane',no_class
'Maryland is telling residents in low lying areas of AA   PG counties to be prepaired to evacuate',no_class
'maybe the storm will hit a certain store ',no_class
'Mayor says   hospitals    chronic care clinics homes in flood zone a  Evacuated   Not yet  Could happen ',no_class
'Me and Lizzy are preparing for the hurricane',no_class
'Meteorologist direct Jeff Masters   hurricane Sandy is a very serious storm that could possibly be historic ',no_class
'methinks everyone is still jaded by the last storm which turned out to be a let down',no_class
'me too ',no_class
'Metro press release  Metro is planning to place sandbags around locations where water can infiltrate the Metrorail system ',no_class
'Might as well fill up         before the storm     BP ',no_class
'Might be off from school on monday or tuesday due to hurricane sandy',no_class
'miler tomorrow   Run before the storm   ',no_class
'missed eglin so I am good ',no_class
'More     warnings up for     Friday  p Track Map      away',no_class
'Most large boats have already been moved off of the T heads in preparation for',no_class
'Msnbc im a desert storm veteran I am appaulled that no help was given to the seals who died',no_class
'MT   Obama briefed by FEMA Administrator Craig Fugate and others on federal hurricane prep  FEMA already deploying teams',no_class
'My heart goes out to the people on the east though only because my uncle and cousin is in the storm ',no_class
'My heart goes out to those affected by   One positive of this horrible event is that discussion on climate change will resume again ',no_class
'My hurricane day was good',no_class
'My parents still got it     Sandy   Danny Zuko from Grease   Looking fly as hell',no_class
'My view of the line for gas at                 Costco Gas',no_class
'Nah I wasnt in MA yet  They shut down MIT when that happened  They say Sandy is going to be worse than Irene ',no_class
'NBCNewYork    Governor Cuomo declares State of Emergency for New York ahead of',no_class
'need to hurry up go',no_class
'Neo con   skeptics refuse to listen to left wing scientists warnings about',no_class
'New york expecting sandy and hearing snow',no_class
'New York governor Andrew Cuomo has declared Hurricane Sandy a State of Emergency ',no_class
'next week  Theyre comparing it to the perfect storm of    that did      million in damages ',no_class
'NHC says    mph at    hours  Wind was never the biggest problem  Rain and storm surge flooding will be ',no_class
'Nice jog to the beach  Hurricane Sandy          South Beach Fort Lauderdale',no_class
'Niggas going crazy over this storm people stacking up on water hand sanitizer I even saw one nigga stackin up on toilet bowl cleaner lol',no_class
'Night falls as the storm approaches',no_class
'NO but really i got scared of Sandy so i ran to Philadelphia ',no_class
'no fair  Its about to storm in myrtle beach ',no_class
'No               Home Depot',no_class
'no im getting ready for a storm  whats up ',no_class
'Noooooooooooo Food emporiums closed  thanks a lot hurricane sandy',no_class
'nope  We just heard  theres a perfect storm on the way   ',no_class
'not even gonna lie Im kinda excited for this storm   ',no_class
'Not filling up my truck for the hurricane alls I need is gas for the quads ',no_class
'Not looking forward to   coming to town',no_class
'Not looking forward to hurricane sandy ',no_class
'Not looking forward to this storm at all    I get scared of thunderstorms   they say this is the perfect storm   great    ',no_class
'Not watching the news really left me in the dark about this whole hurricane sandy thing still just a rainstorm to me',no_class
'Now it is our turn to deal with sandy who is on her way to NYC  ',no_class
'no youre beautiful   ',no_class
'NYC  All Hurricane   evacuation centers will be pet friendly  Kudos to    ',no_class
'NY region preps for arrival of major coastal storm   Most read by neighbors in',no_class
'NY region preps for arrival of major coastal storm  myfoxny com',no_class
'NY state of emergency declared ',no_class
'NYS winning     end of  nd   Go Storm      Uxbridge Arena ',no_class
'NYTimes  Aging Satellite Fleet May Mean Gaps in Storm Forecasts    cc',no_class
'offering tips in preparation for',no_class
'Officials monitoring Sandy  Greenville Daily Reflector',no_class
'Officials monitoring Sandy   Most read by neighbors in',no_class
'oh hey girl  Quiet before the storm   tomorrow is going to be insane    and I are going as Kyle n Lisa ',no_class
'oh no    terrible   that is so scary so glad you are ok   That storm sounds wicked  ',no_class
'Oh   so Sandy didnt win for Seguins homecoming princess  ',no_class
'Oh this bitch want me to go to the game tonight  Uhg yea Im gonna pass its going to storm  ',no_class
'Oh yeahh     She got wetter than the perfect storm ',no_class
okayyy,no_class
'Ok  getting real freaked out with hurricane Sandy',no_class
'Ok maybe more than just rain   blows out of Bahamas after killing    in Caribbean on its way to the U S  coast ',no_class
'OK THE MORE I SEEE  SANDY    ON    RADAR THE MORE SHE IS  DYING  DOWN  WE  AINT  GONN  GET   JACK   CRAP',no_class
'omfg maybe bc of the hurricane tuesday will be cancelled  ',no_class
'omfg the madness',no_class
'Omg Live my uncle but enough about the storm ur not Sam champion Ugh',no_class
'  omq Hurricane Sandy is cominq to the East Coast    im scared ',no_class
'Opening of new Fort Lee DMV office on Monday has been canceled because of potential impacts from Hurricane Sandy ',no_class
'Our block post Sandy',no_class
'Out to Walmart to get things for this hurricane',no_class
'Pa Governor Corbett Declares  State of Emergency      Philly Red Cross Prepares ',no_class
'PA state of emergency issued to prepare for sandy  Stoked ',no_class
'People already hitting the stores here ahead of Sandy buying up all the milk water etc   ',no_class
'People and this storm they not playing any games shopping center packed',no_class
'People are getting so hyped up about a category   hurricane  Chill yall act like you have been in one before ',no_class
'People are hyped about this storm  the same way they were hyped about hurricane Irene and nothing happened ',no_class
'people are like flocking to Adams to buy water for the storm',no_class
'People during hurricane are such assholes',no_class
'People in the path of Sandy should vote early wherever possible ',no_class
'people want to be loved ',no_class
'Played our playoff football game in a hurricane   an experience I wont forget ',no_class
'Pleasantly surprised by   Daniel Craig and Judy Dench shooting up a storm',no_class
'please keep   news and pics coming ',no_class
'please stay away sandy ',no_class
'Plywood on the windows      Hurricane moving this way   ',no_class
'Plz tel my POTUS   tel E coastEpic storm GO Vote GO   emrgncy suplis GO HOME Keep u an ur famly SAFE PWR Outeg lkly get btrys wtr',no_class
'Point Pleasan Beatch NJ hit by   DAMN IT  My mom lives in NJ  s go away  F     super storm    ',no_class
'Polo I appiled  I hope I made it  And polo I might get a hurricane where I live ',no_class
'Port Authority of NY NJ prepares for   arrival',no_class
'Power outage possibility its tremendous   ',no_class
'Ppl are going crazy at the store today  Its always like this when theres a storm coming       BJs Wholesale Club ',no_class
'Prayers for the east coast as they experience and anticipate a disastrous storm  Please please may it not be as bad as they are predicting ',no_class
'Pray for me as this hurricane comes  my dear friends  ',no_class
'Praying for all Who will be affected by Hurricane Sandy',no_class
'Praying for everyone who is gonna get hit by hurricane Sandy  Be safe everyone ',no_class
'Praying for my hubby  Looks like he will get more of the hurricane than us   boo',no_class
'Praying for swift peace and calmness to those that will be impacted by the hurricane ',no_class
'praying for the families affected by hurricane sandy  ',no_class
'Praying that this  storm  will not cause flooding',no_class
'Preparing for hurricane sandy ',no_class
'Preparing for Hurricane Sandy  not really  lol grocery shopping    Walmart Supercenter w ',no_class
'preparing for hurricane Sandy  Sand bags are being placed in front of all Red Line car doors ',no_class
'Preparing for the hurricane  To campbus beer to stock up',no_class
'Prepping for                 Harris Teeter',no_class
'Prepping for the hurricane',no_class
'Pretty scary   the next perfect storm might be a fact',no_class
'pretty well thank you  Interested in how   will play out in the mid Atlantic and NE    I think mail will get wet ',no_class
'Pulling all nighter with   to get ahead of sandy',no_class
'Rainfall forecast along the track of      good time to clear storm drains',no_class
'Ramyun                           Koreana',no_class
'really hoping this big storm sandy doesnt damage my place at the beach',no_class
'Really   Were already in a state of emergency before Sandy hits us   And let me get this right   we might get snow from this hurricane ',no_class
'remains a Cat     with winds of    mph min  pressure of    mb',no_class
'Remember kids disconnect all your precious electronics from their outlets before the storm ',no_class
'Remnants of slow Hurricane Sandy  whatever strength it will be  basically making B line to Niagara mid week ',no_class
'Ringing in the Storm   photo by Justine Greene   I used the fun   camera app for this   Casa Verde',no_class
'Rudy texts me saying theres a strong hurricane going his way i call   text him a million times   he doesnt answer  ',no_class
'Saaaandy caaaalm down    Pleeease  I just said Sandy need to go sit down somewhere ',no_class
'Safe wishes for any of my tweets in Hurricane Sandys path ',no_class
'Said Hurricane Sandy to the east coast  youre the one that I want ',no_class
'Sandy Aiming for New Jersey Long Island   via',no_class
'Sandy coming yall',no_class
'Sandy Creek leads LaGrange      in the first quarter  Demoton Boyd returned a kickoff    yards for LaGranges touchdown',no_class
'Sandy did gone with it mi boss           days and I finally got light OMG that bitch',no_class
'Sandy did more damage to Buxton than Ive ever seen     Rodanthe is destroyed too   The only wa   Buxton NC',no_class
'Sandy got me scared    ',no_class
'Sandy has some wind ',no_class
'Sandy is going to be a bitch and mess up my entire weekend trip I know it',no_class
'Sandy is reducing in strength and its finally getting a bit sunny  So what hurricane is next  Ursula ',no_class
'sandy left NYC   its all good xx',no_class
'Sandy pounds Bahamas after killing    in Caribbean',no_class
'Sandy quiere acabar con todo NY officials plans for evacations and subway closings in the face of Hurricane Sandy   ',no_class
'Sandy still hanging around   ',no_class
'Sandy the aurora is rising behind us',no_class
'Sandy was Annies dog ',no_class
'Sandy wont be through with us until Saturday    pm  What am I supposed to do until then ',no_class
'Sandy you are cordially invited to NOT visit Shepherdstown   ',no_class
'sandy youre a fucking whore',no_class
'Satellite Snaps Stunning Dawn View of Hurricane Sandy',no_class
'Satellite Views  Will Hurricane Sandy Turn into Frankenstorm',no_class
'School Superintendent Bobby Browder postpones PGHS Homecoming Dance from Saturday to November    because of Hurricane Sandy ',no_class
'Scorpions   Rock You Like a Hurricane',no_class
'Seems like all of our clients are making an excuse to go home early because of this hurricane even though its days away ',no_class
'seems to have already lost tropical characteristics on radar ',no_class
'Sending prayers for you and fam to stay safe in the storm   Keep warm dry and well J ',no_class
'Seriously we are not getting a ten day snow storm  Stop buying a lifes worth of groceries and gtfo I am trying to get off work  ',no_class
'Shane this storm is gonna own us  Theres going to be no power and were all gonna die   ',no_class
'She rolld in my little sandy town',no_class
'shit we are just getting hit with another wind storm   last night the winds were clocked at    mph',no_class
'Shopping for my hurricane   kit  Itll include wine nail polish water and maybe some food ',no_class
'sitting In this house bout to die  ',no_class
'So early       Governor Cuomo declares State of Emergency for NY ahead of',no_class
'So Im loading in a show next to the water in NYC  Show is supposed to be Monday morning  Whats the over under Sandy ',no_class
'So im Philly bond till this hurricane is over Smh fml',no_class
'So is Philly getting rain or snow with this hurricane Sandy business  I hear conflicting stories on the news   ',no_class
'Someone is blaming gays for hurricane   Ok now that is just ridiculous',no_class
'something bad happened and in general',no_class
'some want their hurricane cone in a cross hatch others want it red with     transparency   and the data is always different',no_class
'So much shit getting pushed back I now have more time to get shit done',no_class
'So NYC transits shutting down right now midnight on Sunday but my dad still gets stuck on storm watch for the MTA wordd',no_class
'Sooo excited for this hurricane',no_class
'So right',no_class
'sorry but ii wont make it   ',no_class
'So terrible  Makes me appreciate the weather here     a lot ',no_class
'So the northeast is going to get a big sand storm next week   Of all the s names to pick from   sandy    really ',no_class
'So    the perfect storm is headed our way',no_class
'So theres a hurricane coming to Va this weekend',no_class
'So theres basically gonna be a bigass hurricane when were here coooool',no_class
'So this perfect storm should be kind of exciting huh ',no_class
'South Beach going off                  www shopyellowboard',no_class
'So were getting a hurricane great',no_class
'so what are the chances of a direct hit on area from Sandy ',no_class
'Space weather is cool  That is all  Oh also look out East Coast youre about to get hit by a hurricane ',no_class
'State of Emergency Declared for Maryland and Virginia in Advance of Sandy',no_class
'stay safe while that hire sandy is on the lose  Miss you ',no_class
'Stevenson i know sandy is coming stop sending me emails god dammit',no_class
'Still hasnt food shopped for this hurricane',no_class
'Storm Force without a doubt ',no_class
'Storm           Jettty Park Campground',no_class
'Storm king             Storm King Art Center',no_class
'Storm   My old house do NOT mix ',no_class
'Storm not till monday whys the gas station packed',no_class
'Storm offshore     Flagler Beach Pier   pic  ',no_class
'Storm or no storm ',no_class
'Storm prep erathing in the garage    green hill farms',no_class
'Storm prep pick all the garden things    green hill farms',no_class
'Storm Rollin in over dowdy fick   Dowdy Ficklen Stadium',no_class
'students      if VCU announces a closing due to Hurricane   we will also close   Follow our Twitter   FB for updates ',no_class
'Subliminally mega worried about this storm    ',no_class
'Sunny day in the midst of a storm            ',no_class
'Superstorm heading for East Coast next week all  the places we visited   Transport lines will be shut down to prepare',no_class
'Supposed to buy storm necessities but Im here on the Christmas decorations sections  Batteries   candles can wait ',no_class
'Survived Hurricane Sandy  Whew ',no_class
'Tgif bouta be turnt up  AWAY STORM    ',no_class
'Thankfully the hurricane is only hitting east coast  Its been hot in the   s all week so shouldnt moan really ',no_class
thanks,no_class
'Thanks       cleaning storm drains   Minn NHBurroughs     Minn Eastern before',no_class
'Thanks for the   ',no_class
'Thanks for the prayers we just missed Hurricane Sandy Left Miami just as it touched d   King Christian Hotel',no_class
'Thanks Sandy ',no_class
'thanks sandy  now i get to see   and       ',no_class
'thanks storm sandy     Wild Dunes Resort',no_class
'thank u hurricane sandy because of u i get to stay at my bfs house because u took out my power   ',no_class
'thank you ',no_class
'Thank you but please be safe  The more I hear about this storm the more I dont like it  It is huge  Prayers coming all weekend',no_class
'Thank you Dean Stoops for the hurricane emergency plan   I really hope we get to use it',no_class
'thank you fery much   ',no_class
'Thank you  GB',no_class
'Thank you  Hope you made it through the storm safe     ',no_class
'thank you Kevin  Must be calm before the storm here  Hurricane Sandy churning along towards Delmarva',no_class
'That hurricane must be some serious   ',no_class
'That hurricane on the news',no_class
'thats beautiful ',no_class
'thats exactly right and then she attacked the east coast ',no_class
'Thats why there making us work tomorrow to get ready for Sandy were right in the middle of the storm when it hits',no_class
'that was a good night there is a gun',no_class
'The biggest thing to hit wilmington since hurricane Fran        The Soapbox Laundro',no_class
'The calm before   in     Atlantic Beach Boardwalk',no_class
'The calm before the storm at Resch Center  Tip between   and Bucks about    mins away  Listen on',no_class
'The calm before the storm     Epicerie Boulud',no_class
'The calm before the storm        Hyatt Regency Buffalo   Hotel and Conference Center',no_class
'The calm Before the storm      Queen Marys Dark Harbor',no_class
'The calm before the storm    Times Square',no_class
'The city was glittering this morning  The gold before the storm        Pulaski Bridge',no_class
'The correct answer was Sandy Duncan ',no_class
'The effect of   are still hurting our island and the best part is that it never when through us  Dominican Republic ',no_class
'The eye of Hurricane Sandy is just north of the Bahamas',no_class
'the fact that the electric company called about this upcoming storm makes me uneasy',no_class
'the fact there is a trend about African American Hurricane names and that     of it is racist and stereotypical   to hell with people',no_class
'the freaks are already clearing all of the shelves for   approach is a bit less conventional  baby food tuna snack packs  Cosmo',no_class
'The gas stations Walmart etc  are fucking wild right now because of this storm OMG',no_class
'the hurricane',no_class
'the Hurricane aint gonna phase us',no_class
'The Hurricane Gon Fuck Lafayette Kill Up',no_class
'the hurricane is beginning to hit where I am its so fucking windy',no_class
'the hurricane probably wont let me get home   ',no_class
'The Hurricane Sandy ominous double full   landfall during full moon and trees are still in full leaf',no_class
'the only way we would have off would be cus of this hurricane',no_class
'The perfect storm',no_class
'The rain has started for   she is on her way up the coast and I fear we will feel a little bit from this large storm ',no_class
'There are no words to express my gratitude   have been fortunate to have made it through the storm here in PA  All family in NY VA NJ safe',no_class
'there is half of south beach that floods all the time  Alton west has insufficient storm pumps',no_class
'There is no moon here  Hurricane Sandy is rolling in    ',no_class
'there is no need to worry about hurricane sandy god is here protect us ',no_class
'There must be a hurricane or something nearby  These gusts are strong AF',no_class
'theres a hurricane in NC  How am I not aware of thid',no_class
'Theres a hurricane on its way up here ',no_class
'Theres a storm coming    why is there a storm coming   ',no_class
'theres gonna be a hurricane ',no_class
'theres gonna be a hurricane here OMFG',no_class
'The Sandy effect  Hurricane could disrupt voting and polls   VOTE EARLY   just in case ',no_class
'these people need to stop about this hurricane   is not landing in Pittsburgh I live      miles away from a beach  aint no way ',no_class
'The storm is coming my spirit feels it    ',no_class
'The storm is def coming ',no_class
'The storm raging outside ',no_class
'the story of my life   ',no_class
'The things this base goes through to prepare for a hurricane  Making me setup and move sand bags for example ',no_class
'The wallnuts are in portland nsw again painting up a storm this weekend ',no_class
'The wind from the hurricane has finally arrived here  Its blowing everything away dont drive if you dont need to ',no_class
'The X factor  middle east  HAHAHAHAHHAHHAHAHAHAHHAHAHAHAHAHAHAHHAAHAHAHHAHAHAHAHAHAHAHAHAHAHHAHAHAHAHAHAHAHHAHAHHAHAHAHAHAHAHAHAHAHHAHAHAH ',no_class
'They are freakin out about this Hurricane up here just like the last one an nothing happened  Calm down Virginia   we are gonna survive ',no_class
'they cancelled class cause of the storm thats coming ',no_class
'they cancelled it because of the storm   ',no_class
'They didnt make a hurricane a twitter page       ',no_class
'they evacuating for the storm  ',no_class
'They say The Perfect Storm is on its way  Hurricane Sandy be gentle on us',no_class
'Thinking   will get downgraded to a Tropical Storm but  IT DOES NOT MATTER AS FAR AS IMPACTS ',no_class
'this has been canceled for this weekend b c of Hurricane Sandy ',no_class
'This hurricane aint got shit on us',no_class
'This hurricane better be legit ',no_class
'this hurricane coming is bringing me clouds for a week ',no_class
'This hurricane couldnt be more random',no_class
'This Hurricane is going to be fuckin INSANE ',no_class
'This hurrican is going to be like any other storm that comes near maryland    talk about it the night befor and its gone ',no_class
'This   is shutting everything down  ',no_class
'This is the calm before the storm ',no_class
'This storm along the east coast is sounding nasty please take precautions all of you in its path ',no_class
'This storm coming   ',no_class
'This storm might keep us out of school for a while ',no_class
'this storm  Sandy I pray it does not destroy the eastcoast   ',no_class
'This time last year they said     year storm this year unprecedented',no_class
'Those that are in the upcoming hurricanes path  please be safe and I will be thinking of you ',no_class
'Thought   was full on     The I watched',no_class
'tip In case power is outKeep food in a cooler group food together in the freezer so it stays cold longer ',no_class
'To all my friends out east be safe  Apparently theres a giant Franken storm headed your way ',no_class
'To all my peeps out in MD be safe when the hurricane comes through ',no_class
'To all of my NSU family yall be safe and ride it out',no_class
'today has not been a good day',no_class
'Top headlines on   worldwide   outage and the   heading for the East Coast ',no_class
'To those in Hurricane Sandys path be safe ',no_class
'Track     for yourself thru federal govt  links to stats satellite photos as   nears Maryland ',no_class
'Track hurricane   here',no_class
'Tracking   as she moves towards the area       NBC     WCAU TV ',no_class
'Tropical cyclone information statement updated by the Canadian Hurricane Centre at      PM ADT Friday    October      ',no_class
'Tropical Storm   creating increased interest in       alerts ',no_class
'turns into Nikki Sixx with my mad makeup skills  cc      Sandy Reamer Apartments',no_class
'Tutoring cancelled for Sunday   FUCK THIS STORM',no_class
'Two guys just came by and asked if I wanted them to board up the store of move anything for me  This storm is getting serious ',no_class
'Ugh thanks to sandy my boyfriends probably gonna be forced to be active   Wtf   No    fuck you sandy',no_class
' Ugh were in the yellow   Hurricane Evacuation Zone Finder',no_class
'uh    no    I have not made it there yet    was busy watching the tracking of the storm    but now I think its time to do that ',no_class
'Uh oh   Meteorologist warns people could be talking about Frankenstorm a decade from now    ',no_class
'Update on NYC preparations for   and steps NYers should take to prepare',no_class
'Up to    percent may vote early in U S  election  Obama ahead   Yahoo  News UK   Eastcoasters vote now b    comes ',no_class
'u r a lucky man  No   for you ',no_class
'UT speaks their mind',no_class
'Wait a second  Theres a storm coming     Anne Hathaway',no_class
'Waiting for Hurricane Sandy on the boardwalk in Myrtle   great food drinks and music      Banditos',no_class
'WaPo  Sandy may be unprecedented in East Coast history',no_class
'was near the coast today   was an interesting experience for our last day of vacations ',no_class
'was planning to but double booked myself with getting ready for a hurricane',no_class
'Watching hurricane bands roll through from the ground instead of a satellite picture has to be one of the coolest features of Florida',no_class
'watch out for hurricane Sandy she heading your way',no_class
'We are here embracing the storm   ',no_class
'We are ready for Sandy        Beth   Mikes House',no_class
'we are suppose to get a giant storm too ',no_class
'Weather app says there a bunch of rain for next week  Yes I am in MA  They say Sandy is going to be worse than Irene though  ',no_class
'WEEKEND OF WORRY  Millions Bracing for Hit From Hurricane Sandy     Sent via the FOX News Android App ',no_class
'Weekend storm check list   x Chardonnay Pinot Cabernet mask for   ball new shoes    snowicane HQ',no_class
'We get a hurricane warning   Giants water isle goes empty    Oh lord this is just crazy    Giant Food Store',no_class
'We got a hurricane sliding thru this weekend  Its gonna flood',no_class
'Well according to my iPhone theres no hurricane symbol that shows up for next week so fuck Sandy ',no_class
'Well back to the room for the night  Grabbing some food hitting shower and listening to the Ocean rough up with this storm coming ',no_class
'Well happy Alberta winter     Whoops   yes   it looks mighty close to TO ',no_class
'Well headed back to the Mid East early due to Sandy   Did want to get stuck in Newark',no_class
'well if u were in ny i could have taken u out for drinksbut instead preparing   hurricane sandy',no_class
'Well I guess were pretty much down with hurricane Sandy ',no_class
'Wen hurricane Sandy hits NYC Hoboken      the wind from the hudson is gonna be too wild',no_class
'Went over sandy rough ride   But we made it to PR ',no_class
'Were gonna have hurricane symptoms for dayssss',no_class
'Were supposed to get a hurricane and a blizzard   all at once ',no_class
'We r getting federal warnings out here in SD for that storm up there in DC  To all my DC fam yall stay safe yo   ',no_class
'We will see rain as early as Sunday from the outer bands of the storm  The heavy stuff wont hit until Monday likely ',no_class
'What is all the hurricane commotion about  ',no_class
'What is your gut feeling about Sandy  Which computer model are you most confident in  ',no_class
'whats happening to the US that even satellites to track storm like   is gettinginterrupted  No back up plan ',no_class
'whats the outlook on hurricane sandy ',no_class
'WHATS UP WITH THIS STORM SOMEBODY LET ME K KNOW',no_class
'what the hell is going outside sounds like a hurricane or something ',no_class
'What   users know about reminders from Google about your favorite sports team      Sandy Aftermath',no_class
'When even a cynical Guardian report on Hurricane Sandy predicts chaos    should we be going to New York on Tuesday  ',no_class
'when is PPL going to learn and bury power lines like a modern society ',no_class
'When is the hurricane supposed to hit us ',no_class
'When is the hurricane suppose to be here  ',no_class
'When is this hurricane coming  ',no_class
'when my boyfriend says hes gonna leave work early so Im not alone in the storm',no_class
'When this storm going ',no_class
'When this storm gonna hit',no_class
'Where did this hurricane come from',no_class
'where did this hurricane even come frlm',no_class
'Wheres the hurricane    Bellamare',no_class
'While I was at Home Depot they received a call from someone in New Jersey who wanted to drive    hrs  to C bus to buy a generator ',no_class
'Who would have thought this       Come to N Y  End of October and possibly get hit by hurricane winds Monday   ',no_class
'Why does hurricane sandy look like a comma',no_class
'Why must it be such shitty weather this weekend ',no_class
'will cause power outages on the east coast by Monday  Lets put   into ACTION while Keeping the FAITH',no_class
'will it affect Michigan  ',no_class
'Will Sandy come here    Astoria NY',no_class
'Will work at it    ',no_class
'Winter Storm Watches are up for Pochontas Webster and Randolph counties in WV',no_class
'Wish I had somewhere to be for this hurricane',no_class
'With all of the hype this better be some storm ',no_class
'With Hurricane   New York area could face its most intense storm in      years    by',no_class
'Wonderful night out tonight I guess its the calm before the storm',no_class
'Word from the boss is that theyre evacuating Manayunks Main Street on Sunday   Thank Bob I live on the top of the hill ',no_class
'work is crazy busy because of this so called hurricane were gonna have',no_class
'Work is crazy busy  Everyones racking up for this big ass storm that I wasnt even informed about ',no_class
'Work was crazy',no_class
'worst of Hurricane sandy in Miami ',no_class
'Wow i know you rest well when you sleep     Working on',no_class
'Wow  I live in Sandy too  If you come by let me know your Photo John  Thanks  See ya later     ',no_class
'WOW LOOKING GREAT LADIES',no_class
'WOW Obama stops campaign to monitor government response to hurricane  REAL Presidentialsomething he should have done back on Sept',no_class
'yeahhh hurricane this weekend ',no_class
'yeah Ill tell you all about how theres a hurricane hitting and its torrential',no_class
'yeah I saw your tweets yesterday saying this is a storm Alaska usually gets but yeah this is gonna be bad',no_class
'Yeah preparing for a hurricane    I am so ready for this weekend  Anyone have special plans ',no_class
'Yeah thats it  I think it goes off on north east swell but if Sandy pushes back towards land   ',no_class
'Yeah totally not ready for this hurricane if the power goes out',no_class
'yea hurricane sandy',no_class
'Yea Hurricane Sandy trashed the island ',no_class
'yep  bc of the hurricane so now its the first Saturday in November from     or something',no_class
'Yep Costco is a madhouse   Must be',no_class
'yep     Governor McDonnell Declared State of Emergency in Preparation for Hurricane Sandy',no_class
'yes  ty  they were there on vaca   That storm is huge  i feel for all of you that had to endure it ',no_class
'Yo made it home at Midnight last night  I left London as all the Sandy Hurricane folks were just starting to stack up ',no_class
'YOU AND ANNE NEED TO COME OVER AND PLAY WITH US and drink bacardi hurricane   ',no_class
'you and me both',no_class
'you anywhere close to the shore  Hope youll be alright with that storm coming in',no_class
'You are lucky you will not be in the storm this Monday',no_class
'You doing ok  That storm had to be frightening',no_class
'you for Follow  GB',no_class
'You fuckers arent saying shit about this hurricane but come monday night I bet thats all Im gonna see on my newsfeed ',no_class
'your dad is talking up a storm over here lol',no_class
'Youre right dad the government controls the weather and made this hurricane',no_class
'youre such a jerk its making me mad because this storm is supposed to be so bad   everybodys just like duh Irene wasnt bad',no_class
'your gonna be driving into a crazy storm   ',no_class
'you think so   Cause the last one they told people to board up windows   shit   it wasnt even a bad storm  ',no_class
'You who can know at first hand Hated shut in mistrusted  Take thought  I have weathered the storm I have beaten out my exile ',no_class
'yup  sandy is almost     miles due east  west side of storm is right at the coastline  gusts are still pretty good',no_class
