@relation _net_files.cis.ksu.edu_exports_home_h_hongminli_1120disaterData_consistent_q4_Boston_4

@attribute text string
@attribute @@class@@ {anger_class,disgust_class,fear_class,happiness_class,irrelevant_class,neutral_class,sadness_class,surprise_class}

@data

'A religious lunatic   No way      Officials tell AP evidence suggests Boston suspects worked alone motivated by religion  ',anger_class
'All this Boston marathon conspiracy shit is so stupid',disgust_class
'All this khaos in Boston and my baby niece is being flown back to Bostons childrens hospital today  Pray for Jordyn guys',fear_class
'According to a    year old made it without injuries many miracles done yesterday  God is in Boston world is with',happiness_class
'After you guys bomb Mount  amp YV come bomb DVC and then make ya way to BOMB North Korea  Lol',irrelevant_class
'A man arrest in Boston bombing',neutral_class
'All my thoughts and prayers go out to the people at the Boston marathon',sadness_class
'Cant believe he was    yrs old Thats my agehow does he have so much hatred Let alone knows how to make a bomb I cant even make eggs ',surprise_class
'are you buying this crap  Why didnt FBI show them planting a bomb  Your just going to blindly except with evidence to contrary ',anger_class
'bomb threats arnt funny guys ',disgust_class
'Completely forgot about Boston  Sorry Licia I cant do the race  Im not trying to get bombed',fear_class
'Amazing things in Boston  Congrats to all involved  What an incredible job    ',happiness_class
'a glass of milk and you have a yourself a bomb ass breakfast',irrelevant_class
'Amazing  Tune in    Boston After The Bombings  Streaming live     on      ',neutral_class
'A man running the Boston marathon was planning on proposing to his girlfriend after the run  Sadly she died  This is so sad',sadness_class
'Dartmouth Friends Of Bomb Suspect In Shock Describe Him As Friendly  NORTH DARTMOUTH Mass    With the surviving   ',surprise_class
'dead at least in Boston bombing  What the in hell is wrong with people ',anger_class
'Boston bombing  Reddit learns how witch hunts can start',disgust_class
'especially with all these bombs randomly throughout the city they are finding  It all seems set up ',fear_class
'and the Boston suspect has been caught',happiness_class
'And by the way PD nim  next time you cast Joonie orient him first  Lol  Pataka la pagsugod naactivate lugod an bomb ',irrelevant_class
'AMERICA     Boston Logan International Airport  BOS ',neutral_class
'Between missing my family and the explosions in Boston I feel so down and depressed  I need a giant pick me up ASAP ',sadness_class
'FBI  we have   suspects  this should be interesting ',surprise_class
'First Boston and now Texas wtf is going on bullxhit',anger_class
'Cant stop thinking about how fucked up that Boston bombing was',disgust_class
'my parents living in cambridge just got a call to stay inside  code red boston is shut down  this is unreal  amp im scared ',fear_class
'A    yr old from wc was where the bombs went off but left    min before  Kenny rapmund ',happiness_class
'and I made up our own sloppy joe   It was bomb ',irrelevant_class
'And yet that seems to be what the boston bomber was charged with  according to what I read at the time anyway ',neutral_class
boston,sadness_class
'It s strange like did this horrible thing really happen   Carlos Arredondo   Cowboy Hat Hero tels',surprise_class
'Hit a bitchhh wit a car bomb',anger_class
'horrible scenes in Boston',disgust_class
'NBC News  Boston Marathon bombers were planning to come to New York and detonate the balance of their explosives in Times Square',fear_class
'Boston Marathon runners please board first standing ovation from the terminal    ',happiness_class
'Another great win for the   last night    win in Boston and we are laughing all the way to the eastern conference semi finals ',irrelevant_class
'Anyone going to the interfaith service tomorrow in the south end ',neutral_class
'Boston be strong ',sadness_class
'I went to bed this a m  thinkingthis Boston things so scattered Ill get full story when its all settled in morning  I hate being wrong',surprise_class
'How is it possible  let a known terrorist open a masque in Boston Might as well let the KKK open a White center next door ',anger_class
'in the end terrible people will not win     ',disgust_class
'Now more bombs in Boston   Ugh     Im way too freaked out to sleep tonight ',fear_class
'Boston Strong   Back and blooming on the Common',happiness_class
'Anyone missing a Boston terrier   Found on danne road',irrelevant_class
'Bard is back in Boston  Need him in that pen',neutral_class
'Boston Blast Explosion ',sadness_class
'Live picture from the Western Ave MA               this is nuts  America      ',surprise_class
'I dont believe that McDonalds in Boston is closed until Thursday  You utter bastards',anger_class
'Putin urges closer international security ties in wake of   bombings      When they lived here years    ',disgust_class
'Our world is such a scary place ',fear_class
'Bravo    CAPTURED    The hunt is over  The search is done  The terror is over  And justice has won  Suspect in custody ',happiness_class
'are you gonna be in Boston or jersey for your   st ',irrelevant_class
'Bombs post      terrorism  Thats all  If you recall this was widely labelled terrorism before the suspects were IDed as Muslim',neutral_class
'Boston grieve come together and move forward stronger and wiser ',sadness_class
'Of all the things to bomb why the Boston Marathon ',surprise_class
'I hope the asshole who made those bombs knows only a real coward attacks helpless little kids  No real man does that ',anger_class
'Sickened by the boston marathon explosions  Our world is messed up and sick utterly disgusted ',disgust_class
'Breathing Easier  BOSTON   Boston Marathon bombing suspect Dzhokhar Tsarnaev lay hospitalized in serious   ',happiness_class
'Assistant Account Executive   Mullen      MA ',irrelevant_class
'Boston Athletic Association head  The   will go on in      ',neutral_class
'Boston I love you',sadness_class
'Oh my God ',surprise_class
'I sure bet their are many Boston people wish they owned attack weapons w     shell clips     ',anger_class
'So disgusted ',disgust_class
'But for real onion rings are bomb AF ',happiness_class
'at Boston Market and Im dateless   wahh',irrelevant_class
'Boston Bombing suspects  ',neutral_class
'Boston PD confirming two individuals are dead with    injured  Im sure those numbers will only increase    ',sadness_class
'The news unfolding in Boston right now is surreal ',surprise_class
'JUST HOW STUPID IS THIS AUNTFATHER AND MOTHER OF THE BOSTON BOMBERS YOU CANT GET MUCH MORE GUILTY THAN THEY ARE  ',anger_class
'The Boston bombers are getting just what they wanted  endless publicity in the media  TV off ',disgust_class
'CAPTURED    The hunt is over  The search is done  The terror is over  And justice has won  Suspect in custody OUTSTANDING ',happiness_class
'Autonomie Project Inc      Marketing Internship     MA ',irrelevant_class
'Boston bombing suspects had weapons stockpile for more attacks',neutral_class
'First Boston now Texas   how many more people gonna die this week  Come on now thats just sad  ',sadness_class
'The pictures of the man on the roof of the building is very suspicious  I reckon he has something to do with it',surprise_class
'No way the bombers stayed that close to Boston  This shits a hoax  Stupid govt ',anger_class
'The last thing we may want to do is read Boston suspect Miranda Rights telling him to remain silent   ',disgust_class
'Come join BBL    for our   YEAR ANNIVERSARY show on Friday   New Songs  amp New Jokes    Its Sketch    amp Games ',happiness_class
'Big Papis Speach in Boston Today  ',irrelevant_class
'Boston bombing suspect under heavy guard at hospital   Tru  Entertainment Magazine ',neutral_class
'Good night twitter  ',sadness_class
'theres apparently a suspicious package that was found and a bomb squad was called in',surprise_class
'Some of the people on twitter that are being disrespectful towards the Boston Marathon bombing just goes to prove America is fucked up',anger_class
'The parents of the Boston bombers are in such denial  If they didnt do anything they wouldnt run from the police throwing bombs etc  ',disgust_class
'Congratulations to FBI  A very good job well done  A justice for all of the victims in Boston Fun run bombing ',happiness_class
'Bit of good news        Arlington rejects proposed water bottle ban',irrelevant_class
'Boston bombing  The medias week of getting it wrong     again',neutral_class
'happy birthday to me    Sorry guys     ',sadness_class
'This Boston shit Is crazy I hope they catch this guy   ',surprise_class
'so the alleged suspects in the Boston bombing arent black or dark skinned   but what the media is telling us is that dark people are BAD',anger_class
'The Westboro Baptist Church is planning to picket the funerals of the Boston victims  Can someone just stop these obviously insane people ',disgust_class
'Finally Boston is safe  ',happiness_class
'boston all day',irrelevant_class
'  Boston Common',neutral_class
'Hearts out to Boston',sadness_class
'This whole situation in Boston is so crazy ',surprise_class
'Terrible scenes in Boston but this is what happens when you get involved in other peoples shit  UK Goverment please take note',anger_class
'They should ban pressure cookers bc they can make bombs Guns bc they pull their own triggers and kill ppl And spoons bc they make ppl fat',disgust_class
'Great Job Boston PD    Thank You  ',happiness_class
'Boston got it tied tomorrow though  WATCH ',irrelevant_class
'Boston Marathon Explosions  Video   Whatever motif USA should look at the causes of it first ',neutral_class
'I cant believe what happened in Boston  My prayers go out to everyone who was harmed lord be with them',sadness_class
'Two explosions go off at the Boston marathon ',surprise_class
'They failed because the people of Boston refuse to be intimidated  They failed because as Americans we refuse to be terrorized   BO',anger_class
'This world is a crazy and sick twisted place  Prayers go out to affected in Boston     sad ',disgust_class
'I like the video and its a   song',happiness_class
'Boston      in the  th  Lmao helloooooooo thats not gonna cut it',irrelevant_class
'Boston suspect not an enemy combatant   via',neutral_class
'I feel for   still hate all their sports teams tho ',sadness_class
'What happened in',surprise_class
'They should do a Law Abiding Citizen style punishment for this kid from the Boston bombing well deserved ',anger_class
'Weird Americans    Oh a tragedy  Lets abuse that for an advertising campaign ',disgust_class
'in Time Square with',happiness_class
'Boston is the best city in America',irrelevant_class
'BREAKING NEWS  Ive copied the link for the pics of the',neutral_class
'I feel so bad with everything that is goin on up north   you are in my heart same with   where is the peace ',sadness_class
'What the heck is going on at Boston now ',surprise_class
'times     Oh shit they got a arrest for the Boston marathon bombing    I hope they kill that bitch   ',anger_class
'Just made some bomb ass baked mac and cheese  ',happiness_class
'Boston play the Knicks  morrow   ',irrelevant_class
'buy Boston points RL Denver RL Miami',neutral_class
'Im always in Boston I could have been there today  Thank god Im safe  So sad and scary',sadness_class
'Wow  Unbelievable how this all started and ended     Police chief details Fridays Boston manhunt',surprise_class
'To all the customers that kept on talking for the moment of silence for everyone affected by the Boston marathonyour rude and inconsiderate',anger_class
'Kevin   has reported from   this week with a depth of knowledge and a raw humanity that is simply awesome ',happiness_class
'Boston sports fans tip their caps to first responders  The Red Sox returned to Fenway Park yesterday with an   ',irrelevant_class
'Cigarette smoking leads to capture of Boston bomber ',neutral_class
'It is sad what happened in Boston today  A sad reminder of how unsafe our world really is     ',sadness_class
'Well put a boot in your ass its the American way     ',anger_class
'Landing in Boston makes me feel how lucky I am to live here ',happiness_class
'bout as gay as it gets shouldve showed some love for the country and wore a Boston shirt',irrelevant_class
'CNN  not John King  is reporting that the Boston bomber was planning another attack in New York City  More specifically Times Square ',neutral_class
'Just heard the news  So terribly sad  thoughts with everyone in Boston  x HOLY OMFG HARRYS THINKING ABOUT YOU AHHHHHHHH    D',sadness_class
'Whoever put those bombs there are straight up cowards ',anger_class
'Love my city ',happiness_class
'Bout to bomb   weak ass     ',irrelevant_class
'Conspicuously absent from Boston Globe story about how other hotels helped out the Lenox were the Marriott Westin and Sheraton Hotels ',neutral_class
'Just posted a photo   Love for Boston',sadness_class
'Why is everyone making jokes about the bomb threat   Its not funny ',anger_class
'mmm that sounds bomb right now  Lmao',happiness_class
'BREAKING Kenyas Rita Jeptoo wins the      Boston Marathon womens race    ',irrelevant_class
'Doctors at Boston hospital confident no further lives will be lost',neutral_class
'Just saw the video of the Boston marathon explosion    prayers go out to everyone affected',sadness_class
'ya commie bitch knows shit about his story of America maybe   like did it burn witches back in her day   ',anger_class
'Prayers pour in for Dzhokhar Tsarnaev after arrest      Well that is the Christian thing to do ',happiness_class
'bt nvmm We got thru ardy',irrelevant_class
'Every cop in Boston right now',neutral_class
'Library fire NOT connected  It was an electrical fire',sadness_class
'You dont fuck with Boston',anger_class
'So happy they caught the man involved with the Boston bombings  Words cannot express how extremely grateful I am  Praying for safety  Night',happiness_class
'Capriottis is bomb af  ',irrelevant_class
'FBI  We need help solving Boston Marathon bombings  A bomber may have been seen amid the Boston Marathon revelers   ',neutral_class
'love from the     Miller Park',sadness_class
'Some good news   Doctors  All Boston bombing patients likely to survive',happiness_class
'carabian item bomb blast against pune   Tusi great ho',irrelevant_class
'Fried Oreos are       Havent had them inna minute  ',neutral_class
'More tragedies in Boston    I cant even believe it  RIP to the brave Officers who have lost their lives',sadness_class
'thanks for your great work covering the boston bombing phil hope your and the family are well and thank you for all you do',happiness_class
'Chechen teens    wait till the men show up  With Obama as presidentyall better be gun  amp bomb proficient ',irrelevant_class
'from Indonesia',neutral_class
'My condolences to people in   Also Im glad that the   fam is gud ',sadness_class
'Very cool to see the folks in Boston cheering on the first responders ',happiness_class
'Check out this awesome new mobile site for     here ',irrelevant_class
'Good luck to Bob McAuley   candidate for the Staniland South by election for Boston Borough Council Lincolnshire to be held on   May ',neutral_class
'My dad flew out to Boston today for work and he saw this memorial there for the victims  ',sadness_class
'Wow   is donating      to fund Boston for every dropped pass this season Boston is about to get paaaaaaaiiiiiiidddd ',happiness_class
'Coffee is so perfect but sometimes it makes an atomic bomb go off in my stomach ',irrelevant_class
'He is alive  amp he is finally in custody',neutral_class
'My heart aches tonight  Extra hugs for loved ones',sadness_class
'yes  they found the other suspect for the bomb in boston  ',happiness_class
'Cola chewits are the bomb',irrelevant_class
'Hes having a good fin day    nelbowski   Weber Shandwick Boston',neutral_class
'my heart goes out to all effected in the bomb blasts especially the family of the   year old boy killed',sadness_class
'come on bruh I be needing to drop bombs ',irrelevant_class
'High school senior among injured at marathon  CAMBRIDGE Mass    A high school senior from a private day school   ',neutral_class
'my prayers go out to Boston',sadness_class
'David Ortiz should have said Excuse my Dominican before dropping the F bomb ',irrelevant_class
'Hope everyone is ok in Boston',neutral_class
'My thoughts are still with Boston      keep on running Boston',sadness_class
'Dinner distraction    Bostons',irrelevant_class
'I am not the Tsarnaevs   by    via',neutral_class
'no more hurting people',sadness_class
'Dinner was to bomb couldn  plate',irrelevant_class
'If you want to see very up to date info on   situation watch local   affiliate   stream live ',neutral_class
'people dead in Boston marathon explosion  Thoughts and prayers are with those familys ',sadness_class
'Disassociation stranglingknifing etc are personal  guns bothdepending on use  bombs separate from victims amp related to pridelike arson',irrelevant_class
'Im at Botha Home in Boston Bellville  Boston ',neutral_class
'poor girl didnt deserved to die',sadness_class
'Doesnt seem too terrorist After bombing suspect worked out in gym attended a party slept in his dorm room ',irrelevant_class
'Im at   International Airport  BOS   Boston MA  w     others',neutral_class
'Prayers and thoughts for all  So terrible ',sadness_class
'Doolings snake ass used to play for Boston                                        ',irrelevant_class
'Im at MBTA Kenmore Station      Boston MA  w    others',neutral_class
'Prayers are needed in Boston ',sadness_class
'Downsized New York Times Co  sees spike in profit  The embattled New York Times Company is reporting an operating   ',irrelevant_class
'Im at Stephanies On Newbury      Boston MA  w    others',neutral_class
'Prayers for Boston ',sadness_class
'Drop acid not bombs',irrelevant_class
'Im not a hater just a Boston fan',neutral_class
'Prayers for Boston and the victims       I stopped watching the local news at the beginning of the',sadness_class
'dropped the H bomb  The club will have agreed  There fucking insane',irrelevant_class
'Investigators say that     is in fair condition admits role in bombing denies government involvement',neutral_class
'Prayers for everyone affected by the Boston Marathon explosions    ',sadness_class
'Earlier  Mark Wahlberg   Id Reunite w  the Funky Bunch    FOR BOSTON    LETS DO THIS MARKY MARK  ',irrelevant_class
'In Watertown the scene seemed reminiscent of the news of a World War II era victory   ',neutral_class
'Prayers going to Boston and West Texas  We are Americans we stick together through hard times like this  We come together in time of need ',sadness_class
'Early in the day at Game On',irrelevant_class
'Is anyone else wearing purple tomorrow for Boston  ',neutral_class
'Prayers to Boston',sadness_class
'Er    Yeah listen to this ghetto Lady scream the n bomb',irrelevant_class
'Jeremy Lang is the suspect in the Cullman Marshall Co bomb threats last night ',neutral_class
'Prayers with everyone in Boston ',sadness_class
'every time Ive been in Boston I could have been considered legally insane word to',irrelevant_class
'Just published    bombing in    tweets   videos    a timeline from Monday to Friday   ',neutral_class
'Pray for Boston',sadness_class
'EZ to forget that Jeff Bauman dbl amputee from marathon woke up on heavy drugs requested pen and paper and helped ID white hat ',irrelevant_class
'Lawmaker  Enough evidence to convict bomb suspect  WASHINGTON   The chairman of the House Intelligence Committee   ',neutral_class
'Praying for Boston  God guide Promote peace promote Love ',sadness_class
'FBI is looking for a    man sleeper cell of Jihadists who they think trained terrorists brothers to set off bomb at Boston Marathon ',irrelevant_class
'more than a shooting explosives were used the   guys are the Boston Marathon Bombers',neutral_class
'Praying for everyone in the Boston area as this week comes to an end',sadness_class
'Featured on   FBI Warning Boston Bomb Internet Tax Liberal PC Last Week ',irrelevant_class
'MT   If you are trying to call someone in Boston and cant get through try texting instead  less bandwidth ',neutral_class
'RIP Anne Williams    Respect Boston',sadness_class
'Friday  amp Saturday DJ Shaun Lever      Drinks  amp Shots      Bombs   pm       am',irrelevant_class
'My thoughts and prayers are with all of those affected by the tragic events in Boston today ',neutral_class
'R I P to all people are died ',sadness_class
'Gap Band        You Dropped A Bomb On Me',irrelevant_class
'Navy Sends Bomb Unit To Boston  The Navy has sent at least one of its three person bomb disposal units to Boston   ',neutral_class
'RIP to the people lost today in Boston  ',sadness_class
'GET OUT    They are the bomb  Ima bring you some to training  ',irrelevant_class
'New flag flying at Boston Harbor CC',neutral_class
'R I P to those who suffered the Boston Bombings ',sadness_class
'Going to see Duke at Boston college cuse and Pitt next season             ',irrelevant_class
'Nice gesture     Patrons praise restaurant staffers near   blast site',neutral_class
'Sad mood throughout the house tonight  Ordering Chinese and watching a comedy with the boys to try to lighten the mood ',sadness_class
'Good luck to everyone running the London Marathon today ',irrelevant_class
'North Caucasus rebels deny link to Boston bombings',neutral_class
'So sad about the Boston Marathon  Its horrible  And to the people that died or are injured you are in our heart    ',sadness_class
'Gotta love a nice simple dinner here from Boston Market    Beverly Hills California',irrelevant_class
'Oh hey Boston',neutral_class
'Such a crazy week first the boston explosions and now the texas explosion sad to hear   ',sadness_class
'Had a bomb     yesterday',irrelevant_class
'oh well I dont think hed bomb me',neutral_class
'Talk about a nightmare   Not the best way to wake up this morning',sadness_class
'Hahahah thanks mate mate I am buzzing got a right bomb of cash ',irrelevant_class
'One week and   days till Boston',neutral_class
'Tear up the mawkish crap cover yes     This just made me tear up a bit  Cover of Boston Magazine',sadness_class
'hard when Boston is in my backyard  Sucks',irrelevant_class
'On our way to Boston with',neutral_class
'THANK YOU PATTON    Your words on the tragedy of Boston of inspiration was uplifting and inspiring  ',sadness_class
'Heat roll and LeBron says they can play better  LeBron James looked at the stat sheet then looked at the   ',irrelevant_class
'Plz     Echelon Donates Fundraiser for Boston Marathon Victims   via',neutral_class
'the more and more stuff I see about the Boston bombing just makes me more and more sad  its so awful ',sadness_class
'heck no Boston about to turnup  ',irrelevant_class
'Police  Boston suspects planned to attack New York',neutral_class
'theres Boston but also thoughts and prayers for Iran   Pakistan India    natural disasters are at times the most harrowing and damaging ',sadness_class
'Hey Andrea any chance of a   for the British Armed Forces Throwdown event being held next week ',irrelevant_class
'Possible suspect identified in   investigation ',neutral_class
'They got the  nd suspect praise God the Boston community has been terrorized  I pray peaceful sleep tonight For them',sadness_class
'I always thought Boston was a cool type of city  Unfortunately watching the chants of USA USA USA booming out from the locals suggest not   ',irrelevant_class
'Representative  Father of Boston suspects to fly from Russia to U S   The mother of the two suspects in the   ',neutral_class
'This afternoon        PM Boston time there will be a moment of silence in memory of those who lost their lives as a result of the bombings ',sadness_class
'i better see someone in   today  amp enjoy some bomb yaki house with them',irrelevant_class
'Running a few for Boston    Snap Fitness ',neutral_class
'This is awful  Praying for Boston ',sadness_class
'I came for waffles not drama',irrelevant_class
'She bombed Boston',neutral_class
'this is sooo sad    ',sadness_class
'If I were in   right now I would be running to the nearest bar and getting HAMMERED ',irrelevant_class
'So much support for our community in Boston ',neutral_class
'Thoughts and prayers go out to all those that have been effected by this horrible event',sadness_class
'If you decide to visit anywhere between Boston and DC let me know  Great places for families and I have lots of tips ',irrelevant_class
'Spoke with Lisa Turner a runner from Wisconsin  She said she wasnt planning on doing the marathon again but now says she wants to ',neutral_class
'Thoughts and prayers go out to the city of Boston',sadness_class
'I go to The Osaka City Museum of Fine Arts to watch a exhibition of the Japanese Masterpieces from The Museum of Fine Arts Boston ',irrelevant_class
'Suspect in custody ',neutral_class
'Thoughts and prayers go out to victims of the Boston Marathon ',sadness_class
'I got some bomb ass pussy from a white lady ',irrelevant_class
'Suspect   Police just held press conference saying they don t know where he is lifted bans on Boston',neutral_class
'thoughts are with those injured at the boston marathon  but it must put londons in doubt now tbh  ',sadness_class
'I have a chemistry test to take tomorrow  Definitely going to bomb it ',irrelevant_class
'The Boston Bombing Witch Hunt Bags Another Innocent Kid    via',neutral_class
'thoughts are with you',sadness_class
'I Just Want Some Good Ol Fashion Sex Including Getting Some Seriously Bomb Head  ',irrelevant_class
'The Chinese Consulate in New York says a Chinese national is the third person killed in the Boston marathon blasts ',neutral_class
'Thoughts go out to the people in',sadness_class
'i know with the boston shows theres   prices but nyc thank god only has',irrelevant_class
'The Yankees bombed the Boston marathon ',neutral_class
'Very heavy heart today',sadness_class
'Im at Center for Digital Imaging Arts at Boston University      Washington DC ',irrelevant_class
'theyre looking for the other guy that bombed Boston   Thats why its trending lol',neutral_class
'Very sad day for the people of Boston  amp the running world  My thoughts  amp prayers are with them ',sadness_class
'Im at Downtown New Boston  New Boston MI ',irrelevant_class
'Things You Didn t Know About Mass  Roadways  The thousands and thousands of commuters who travel along   ',neutral_class
'Watched the news all day with      unreal    My prayers for Boston    ',sadness_class
'Im at Fenway Park      Boston MA  w      others',irrelevant_class
'This back and forth to Boston has literally eaten up the majority of my day ',neutral_class
'What possesses a person to create a bomb to kill innocent people  Its just sad ',sadness_class
'Im at   International Airport  BOS   Boston MA  w     others',irrelevant_class
'Three Days Later  Images show aftermath on Boylston  Images from SkyFox show the aftermath of the Boston Marathon   ',neutral_class
'Whats this world coming to    Praying for Boston',sadness_class
'Im at MBTA Copley Station      Boston MA ',irrelevant_class
'u went home hows Boston   ',neutral_class
'Im at Stats      Boston MA  w    others',irrelevant_class
'WARNING  Do Not Compromise Officer Safety by Broadcasting Tactical Positions of Homes Being Searched ',neutral_class
'Im at University of Massachusetts   Boston  Boston MA  w    others',irrelevant_class
'when your not in Boston',neutral_class
'Im beyond relieved that the Choir got to Boston safely ',irrelevant_class
'Yeah theyre fine  Theyre in Boston at work because theyre paramedics',neutral_class
'Im waiting for that text from miss',irrelevant_class
'International Trade Suppor      Fidelity Investments      MA ',irrelevant_class
'Iran moves to speed up nuclear program despite sanctions     lol prepare for bombs',irrelevant_class
'I still dont get what happened in Boston',irrelevant_class
'Itd be a spectacular warm day if not for the wind  Well take a spectacular cool day ',irrelevant_class
'its to bomb',irrelevant_class
'It took only   seconds for this cuddle bomb to explode upon arriving home   lol  I think they like it when Im home',irrelevant_class
'Ive only been to Boston twice and I have    shirts that say Boston on them  The same shirts    Different colors ',irrelevant_class
'I will when u come to Kc   A friend gives bomb ass professional massages ',irrelevant_class
'Jakes probe   suspicious fires in Hyannis  Two homes in Hyannis were destroyed early this morning and two others   ',irrelevant_class
'just put fake tan on it    Its da bomb',irrelevant_class
'just watched vids u put on re Boston bombing very interesting',irrelevant_class
'Knicks held Boston to    pts in the  nd half in Game one bettered that with a    pt second half tonight    defense wins playoff games ',irrelevant_class
'Last night live shot with John Oliver on the Daily Show in front of Crossroads in Boston ',irrelevant_class
'Leaving the      Visiting Boston and MIT ',irrelevant_class
'Lets go Boston',irrelevant_class
'Lets go Boston Work Nigga        ',irrelevant_class
'Lmao   said he cant wait til he get older cause his wife aint gone have teeth n she gon giv some bomb ass head  Fse  ',irrelevant_class
'Lockscreen  Jailbroken  hey x kid bombs away someone who I know makes me smile when Im completely',irrelevant_class
'lolokzzz stewppzz   Riighht',irrelevant_class
'Lotus flower bomb',irrelevant_class
'MA     Art Director at Mullen',irrelevant_class
'Martin Grant Associates  Property Casualty W Comp Claims     MA ',irrelevant_class
'MEMSIC board backs      M acquisition  Andover based MEMSIC Inc  said today it has agreed to be acquired by   ',irrelevant_class
'miss atomic bomb',irrelevant_class
'My only talent is making some bomb ass peanut butter and jelly sandwiches ',irrelevant_class
'NBA Playoffs Preview  Eastern Conference First Round Predictions  The Miami Heat may be the biggest sports story   ',irrelevant_class
'New information about Boston bombing suspects weapons and visit to New York City  New information is emerging   ',irrelevant_class
'Newport chucking a smoke bomb on the pitch clever   ',irrelevant_class
'Newport fans with a smoke bomb at Grimsby Town',irrelevant_class
'Notebook  Backup plan goes awry  NEW YORK   Jason Terry has pinned his year on a playoff renaissance   at least   ',irrelevant_class
'no they have consistently had post season trouble  Boston will help build their stamina b c theyre so dynamic in the playoffs',irrelevant_class
'No this nigga didnt just drop the L bomb already ',irrelevant_class
'not in Boston lol',irrelevant_class
'Omg me too             I like to stop the microwave with      to go  Makes me feel like Im defusing a bomb and saving lives   ',irrelevant_class
'omg picstitch is stupid but ya fav bath bomb  ',irrelevant_class
'Only one manager for Manager of the Year          The one and only CL last    bomb dodging League winner Mr Neil Lennon',irrelevant_class
'Photo bomb pictures are the funniest pictures lmfao',irrelevant_class
'Posters and Exhibits     Boston Convention  amp Exhibition Center',irrelevant_class
'Red robin does sound bomb right now though',irrelevant_class
'same security as every year probably a few extra soldiers staying on from todays festivities  Boston had basically none ',irrelevant_class
'See CNN this is why we cant have nice things      Officials have canceled today s scheduled  pm media briefing from Boston ',irrelevant_class
'Seriously about to bomb this test ',irrelevant_class
'Shit up  whatever the kids name was  thats why your family you were in Boston last week',irrelevant_class
'Simply staggering    Businessman found guilty of selling novelty golf ball finders as bomb detection kits',irrelevant_class
'Skin smells so nice after using bath bombs earlier  ',irrelevant_class
'Small ball helps Cards beat Nats     for sweep  Yadier Molina hit a two run single off Stephen Strasburg during   ',irrelevant_class
'Solid earnings drive stocks higher on Wall Street  NEW YORK   Strong earnings from a range of U S  companies are   ',irrelevant_class
'somebody to boston justin bieber',irrelevant_class
'Someone go to Tampa vs  Boston baseball game with me May   th           lol',irrelevant_class
'so ready to bomb tomm  ',irrelevant_class
'sorry buddy Ill send you something from Boston   ',irrelevant_class
'Stupid bombs  ',irrelevant_class
'Sweet Caroline appeared on Wednesday    at the   th place in the Top   of Bostons Trending Topics ',irrelevant_class
'That nap was super bomb',irrelevant_class
'That place is bomb asf  ',irrelevant_class
'thats how Boston gets things done',irrelevant_class
'The Boston Marathon Bomber is in custody  USA Military prevails once again',irrelevant_class
'THE DICK TOO BOMB DOE',irrelevant_class
'The fact theres a raid two streets away from the jail and its gonna be on the show Bostons finest',irrelevant_class
'The Lumineers always make me nostalgic for NYC and Boston last summer  Just roaming the streets and figuring out life  Miss them days man ',irrelevant_class
'Then there was that time we watched a guy trip n break his nose in Boston and had to wait for our rescue to show up',irrelevant_class
'These spicy wedges are gonna be the bomb',irrelevant_class
'the yankees are playing sweet caroline after the  rd inning tonight',irrelevant_class
'they didnt take your phone ',irrelevant_class
'Theyre going to wind up finding him along with a room full of fcking bombs',irrelevant_class
'This is the first the Ive ever been anxious to go into Boston alone for internship',irrelevant_class
'This was bomb hope it rains',irrelevant_class
'Took until      am to realize I never put makeup on today  See this as a formal apologize to the city of Boston ',irrelevant_class
'   to reserves at moment with a Tom Pass goal of the season unbelievable van persie like bomb last the YM keeper',irrelevant_class
'Ugh     Are you a Boston area college student in a fraternity or sorority  Join us Greek Life Night   Fenway     ',irrelevant_class
'UTT j ger bombs at the ready someone gunna be doing face paints on train lol haaaaa',irrelevant_class
'Vegas bombs for mackdooley   st    Black Market Bar and Grill',irrelevant_class
'Walter White ',irrelevant_class
'were watching it asap its the bomb',irrelevant_class
'We run for Boston    Central Park     nd St Transverse w    others   pic  ',irrelevant_class
'We say Watertown  Bostonians say Whatta Town  What a town indeed ',irrelevant_class
'what again  So when the police come knocking   ur door  FACT   has       lawenfmt in town tell me y we need guns again',irrelevant_class
'what date is your fight in Boston',irrelevant_class
'What is Brit pop ',irrelevant_class
'When is it time to stop being Boston Strong and go back to our regular sports teams ',irrelevant_class
'whn is ur nxt moviegood deeds d bomb',irrelevant_class
'Why do people think the Boston shooting is illuminati just because there was a person on the roof',irrelevant_class
'will be interesting to see if same people decrying relaxing of security state after boston support more regs on industrial ag ',irrelevant_class
'Work in Progress   bostonbakery Express Los Palos Grandes   Boston Bakery',irrelevant_class
'Yeaaasa cheese bacon boobs and butts',irrelevant_class
'yeah you got some bomb ',irrelevant_class
'YESSS ',irrelevant_class
'you a bomb bitch too   ',irrelevant_class
'youda bomb  ',irrelevant_class
'you got a player that is probably out with a concussion if a Boston Bruin like Lucic did that hit probably be   gamer   ',irrelevant_class
'You have to know your the bomb',irrelevant_class
