Input.text,Answer.Q7,Answer.Q7
? #prayforboston #SerChiefAndMayaNationaliLOVEYOUDay ? ?,NotUse,NotUse
@__iAmJuJu: She looks so bomb she could turn a gay nigga straight ?,NotUse,NotUse
@_bsmiles @Newq_Bomb @JackSchmoll Just found me in the background.,NotUse,NotUse
@_Happy_Gilmore: Hey why dont I just go eat some hay make things out of clay lay by the bay? I just may! Whatd ya say? ? @boston_wins,NotUse,NotUse
@1500ESPN_Reusse When is it time to stop being Boston Strong and go back to our regular sports teams?,NotUse,NotUse
@AaronGoodwin Plz RT @EchelonDonates: Echelon Donates Fundraiser for Boston Marathon Victims http://t.co/Ds6a8fqgvM via @EchelonDonates,NotUse,NotUse
@aaronmichael714 @ryhbskates @nicholeburik its to bomb,NotUse,NotUse
@AJgee3 seriously. I am gonna text bomb you about food STOP,NotUse,NotUse
@aloralynnn if its Boston itll go 7 and could go either way. If its Montreal... We could beat them.,NotUse,NotUse
@AmWithStoopid lolokzzz stewppzz!! Riighht,NotUse,NotUse
@andersoncooper: Awesome to meet some of the SWAT team members who helped apprehend Boston bombing suspect http://t.co/cyAKQBRNrX ? Boner,NotUse,NotUse
@AnnCoulter 4what again? So when the police come knocking @ ur door? FACT:#boston has 10000 lawenfmt in town tell me y we need guns again,NotUse,NotUse
@AshBashLovee now thats bomb,NotUse,NotUse
@bbcsportsound Only one manager for Manager of the Year 2012/13. The one and only CL last 16 bomb dodging League winner Mr Neil Lennon #HH,NotUse,NotUse
@benbebeastin yeah you got some bomb?,NotUse,NotUse
@benmaller David Ortiz should have said Excuse my Dominican before dropping the F bomb.,NotUse,NotUse
@BigLadyLegradi @tylerlandis_ bout as gay as it gets shouldve showed some love for the country and wore a Boston shirt,NotUse,NotUse
@BMayNews10 @kevcalcagno Considering whats occurring in Boston they should postpone voting out of respect. &amp Im 1 who is rooting 4 Sac,NotUse,NotUse
@Bomb_Weirdo Choptastic,NotUse,NotUse
@Boston_Police @FBIBoston Thank you.,NotUse,NotUse
@Boston_Police: CAPTURED!!! The hunt is over. The search is done. The terror is over. And justice has won. Suspect in custody. ? Amen!,NotUse,NotUse
@Breezy_bkool bt nvmm We got thru ardy,NotUse,NotUse
@BretBaier are you buying this crap! Why didnt FBI show them planting a bomb. Your just going to blindly except with evidence to contrary?,MaybeUse,MaybeUse
@briefingroom: Rubio worried Boston will make immigration reform tougher http://t.co/RAactQHrcl ?,NotUse,NotUse
@CadeCummings_23 it was a #bomb,NotUse,NotUse
@caitlinmoran Your welfare piece transfers to current situation of Boston bombers being on welfare some linking gov. help terrorism.,NotUse,NotUse
@chhayrithy meant to say in front of a TV. It was when all the 411 was coming in Boston. It was riveting reading everything on twitter.,NotUse,NotUse
@ChicagosMayor Id hate to see #Chicago in a crisis situation. We cant even clean-up open-air drug markets. http://t.co/n7snBPnPTn,NotUse,NotUse
@coloradorebecca I was talking about the #Boston coverage.,NotUse,NotUse
@DennisDMZ instead of pics of the bomb. Pics of the sub humans responsible with a third eye is required,NotUse,NotUse
@DeStorm: Can't even run a damn marathon anymore! smh #prayforboston ?,NotUse,NotUse
@DJDarkCloud: RT @57UN Live picture from the Western Ave MA 02472 #Watertown #Boston http://t.co/uH4ZES3fWY ? this is nuts! America?!?!?!,NotUse,NotUse
@DollBrownSkin u went home hows Boston ??,NotUse,NotUse
@DouchyAmendola: Whores Welcome Wagon ? Cute,NotUse,NotUse
@dpshow Bradley University is doing a 5k to donate to the Boston victims. http://t.co/B8fqhaT8Va Can we get a mention tonight,NotUse,NotUse
@Eastin12 bomb diggity yo!,NotUse,NotUse
@emlee13 Its not about me though its about the Boston Marathon and now the explosion in Texas. Hope you week gets better though!,NotUse,NotUse
@ESPN_FirstTake boston all day,NotUse,NotUse
@FOCUS_Kyle is the http://t.co/wyrWaI4TWF,NotUse,NotUse
@foxnation: UN Says Boston Got What It Deserved http://t.co/NLC2qypFyd ?. #buffoon #defundtheUN,NotUse,NotUse
@FoxNews: Florida professor who denied Sandy Hook shooting claims #Boston bombings a drill http://t.co/OyT4Fcdw6O via @perrych ? WHAT A NUT,NotUse,NotUse
@frailgesture That was some stunning Giant Bomb art.,NotUse,NotUse
@giorgiocarraway yup I saw this... She is so bomb ? ? ? ?,NotUse,NotUse
@GlennNMaggie Because im moaning about something little after whats happened with Boston,NotUse,NotUse
@gpascarella when I heard there was a bomb in Boston my natural instinct was shouting omg I hope gianmarcos alive,NotUse,NotUse
@GrahamBlog if you blame Obama for Boston bombing then by extension you should blame Bush for 9/11.,NotUse,NotUse
@GrahamBlog: The last thing we may want to do is read Boston suspect Miranda Rights telling him to remain silent. ? http://t.co/g8t5uutqkz,NotUse,NotUse
@greggutfeld thank you for focusing on the Boston victims. Politicians &amp First Responders should wait a few weeks before praising themselves,NotUse,NotUse
@HaitianQue4Life Im not a hater just a Boston fan,NotUse,NotUse
@hollywoy: please help Alex #ForAlex - 7 years old needs life saving treatment in Boston. 140k Raised 115k to go! https://t.co/plXVAJniUi,NotUse,NotUse
@HuffingtonPost: Boston bombing: The medias week of getting it wrong http://t.co/mTCjI8noOM ? again,NotUse,NotUse
@HuffingtonPost: Patton Oswalts response to the Boston tragedy http://t.co/E7twmXulSH ? everyone should read this its amazing and true.,NotUse,NotUse
@HuffingtonPost: Prayers pour in for Dzhokhar Tsarnaev after arrest http://t.co/cPm8xY8vFN ?. Well that is the Christian thing to do!,NotUse,NotUse
@IrishPat91 LMFAOO #irishprobz and ohh yee right on the corner. Yuhh daaa bomb boo boo,NotUse,NotUse
@ItsThingsInLife: So far this Week: - #prayforboston - #prayfortexas - two 14 year olds killed a homeless man as a dare - bomb threats ?,NotUse,NotUse
@J_Clarks24 I am leaving Boston this weekend. Going to my aunt &amp uncles house in Jamestown RI this weekend with my parents.,NotUse,NotUse
@Jaanneellee_ @_swaveygeo you a bomb bitch too. ?,NotUse,NotUse
@JackieMurphster theyre looking for the other guy that bombed Boston.. Thats why its trending lol,NotUse,NotUse
@JordiePS alright bud game at home against Boston this Sunday,NotUse,NotUse
@Justin_D_Martin: CNNs errors more errors still more errors and retractions in Boston suspect coverage http://t.co/r29OOq7viL,NotUse,NotUse
@KendraLust In Boston....come visit. Its safe now!,NotUse,NotUse
@KhaoticKendall Yeah theyre fine. Theyre in Boston at work because theyre paramedics,NotUse,NotUse
@kiera_nelson delano is pretty bomb,NotUse,NotUse
@KKinnett hard when Boston is in my backyard. Sucks,NotUse,NotUse
@Know: This world is a crazy and sick twisted place. Prayers go out to affected in Boston #prayforboston http://t.co/yy8T89pTwK sad.,NotUse,NotUse
@Koreanfan_KC @Fan_of_KCRoyals @ksplowboy Yep yep.,NotUse,NotUse
@krispenny95 Hahahah thanks mate mate I am buzzing got a right bomb of cash!,IDKUse,IDKUse
@Linda_Pizzuti Thank you for coming to the 24th anniversary . Thoughts and prayers are with the Boston people#JFT96,NotUse,NotUse
@LondonNewsDaily: In pictures: London Marathon http://t.co/sdhv2jK55A Great city great event great response to Boston #peopleattheirbest,NotUse,NotUse
@m10kuras youda bomb ?,NotUse,NotUse
@mandzBaby_ I like the video and its a http://t.co/ah25EwKDq9 song,NotUse,NotUse
@marisaroffman Ratings were so-so. Wonder if Boston tragedy could have influenced them? Some people could not watch the show.,NotUse,NotUse
@mashable: CISPA Cybersecurity Bill Passes the House http://t.co/zMJQTZ9KKW that whole Boston Obama deal with a great distraction.,NotUse,NotUse
@meetthepress @DorisKGoodwin ya commie-bitch knows shit about his-story of America maybe @Boston like did it burn witches back-in-her-day???,NotUse,NotUse
@meg_matheny17: The Boston bombers parents are ignorant as hell. Stop denying that your kids are pieces of shit. ?,NotUse,NotUse
@Miss_Angelo I will when u come to Kc.. A friend gives bomb ass professional massages! #Connections,IDKUse,IDKUse
@Morning_Joe However Twin Towers Ft Hood Boston Marathon others all Muslim not Christians or Jews or Mormons or Catholics,NotUse,NotUse
@mserikadawn mmm that sounds bomb right now! Lmao,NotUse,NotUse
@Myvy_Nguyen Just heard the news. So terribly sad. thoughts with everyone in Boston .x HOLY OMFG HARRYS THINKING ABOUT YOU AHHHHHHHH!! :D,NotUse,NotUse
@Nando_Garcia1 yea he can write. But shit they found him wit guns and bombs and he robbed a guy for his car. He killed his bro on accident.,NotUse,NotUse
@NeilDiamond so neat to see you in Boston,NotUse,NotUse
@NfldAnchor because Boston's louder. Also #TERRORISM makes a better story than #oops.,NotUse,NotUse
@Nicki_Doyle Neither does staying in Boston for a week after the attack.,NotUse,NotUse
@NicoleDollkptv looking for some beauty at UP campus to offset Boston bombing news http://t.co/s5ADOrz1eK,NotUse,NotUse
@Noahpinion will be interesting to see if same people decrying relaxing of security state after boston support more regs on industrial ag.,NotUse,NotUse
@obrienmedia Boston Mayor estimated loss to area businesses for today at $330 millions alone. #bostonbombing,NotUse,NotUse
@Patriotsgirl_12 It was a tough day but were Boston. Well get through it. Thanks for thinking of us!,NotUse,NotUse
@payjaytar why?? Another bomb threat?,MaybeUse,MaybeUse
@pbsgwen is offended by the use of dark-skinned to describe the suspect in Boston. Bigger fish to fry here than her sensitivities. #shutit,NotUse,NotUse
@PepatahGombal somebody to boston justin bieber #replacesongtitlewithboston,NotUse,NotUse
@piersmorgan Bradley University is doing a 5k to donate to the Boston victims. http://t.co/B8fqhaT8Va Can we get a mention on air?,NotUse,NotUse
@pjcorallo are you gonna be in Boston or jersey for your 21st?,NotUse,NotUse
@plipof7 thanks for your great work covering the boston bombing phil hope your and the family are well and thank you for all you do,NotUse,NotUse
@PoliticalTicker Just because two men who were in America for 10 years caused the Boston Tragedy is no reason to change immigration act.,NotUse,NotUse
@PsychichealerC just watched vids u put on re Boston bombing very interesting,NotUse,NotUse
@realDonaldTrump not only gun register needed how about registering all bombs &amp all bombers! Lets not forget to register bomb making equip!,NotUse,NotUse
@redconz dropped the H bomb. The club will have agreed. There fucking insane,NotUse,NotUse
@RedSox will there be coverage during the Sox game tonite of the #yankees 3rd inning tribute to Boston??,NotUse,NotUse
@RodneyWoodland fuck Boston and all that shit lmao,NotUse,NotUse
@sessionsfan: Brown Student Falsely Linked To Boston Bombing Found Dead http://t.co/1dco4H49Fw via @businessinsider,NotUse,NotUse
@slcitygirl what is it lately with that? Ive seen tons of people trolling around with their conspiracy theories on Boston,NotUse,NotUse
@snooki: Watched the news all day with @JLaValle ...unreal. ? My prayers for Boston ? <3,NotUse,NotUse
@sunriseon7 wondering why nobody helps the old man who falls to the ground in the footage of the Boston explosion you are showing?,NotUse,NotUse
@sydney_denton the boston marathon bombing,NotUse,NotUse
@tachozilla oh well I dont think hed bomb me,NotUse,NotUse
@TessaBD1 @fsb727 @Conservative_VW it was dark humor but to be turned he has no life experience to be mad about certainly n against boston,NotUse,NotUse
@thalia_catalina I know! I was talkin to Joe and was like Thalia will go Im gonna call her! And then I was like FUCK shes in Boston! Haha,NotUse,NotUse
@TheHeLLonHeeLs your allstar pic is the http://t.co/HDgowxkgGu hunty,NotUse,NotUse
@TheNotoriousMMA what date is your fight in Boston,NotUse,NotUse
@tigernelo28 @zoehcafc @connorhcafc UTT j ger bombs at the ready someone gunna be doing face paints on train lol haaaaa,NotUse,NotUse
@tsweden Bombs post 9/11 terrorism. Thats all. If you recall this was widely labelled terrorism before the suspects were IDed as Muslim,NotUse,NotUse
@tyronhatch @MensHealthZA cheers Ty k-bombs also from @D_GerstnerEVO @Fluxmotion great article from @arthurjonesSA,NotUse,NotUse
@UberFacts: Boston University has a People Watching Club -- Once a week members meet at different locations and just stare at strangers. ?,NotUse,NotUse
@ucant_haterome buy Boston points RL Denver RL Miami,NotUse,NotUse
@vadimsoloviev: Cant wait for Whiskey Soup to be released many supports so far! - http://t.co/hdEGEGiwhW (via @Twitmusic) ? bomb track,NotUse,NotUse
@VoiceofRussia: Muslims the world over fear retaliation for #Boston blasts http://t.co/ah3PCDnFtB #news,NotUse,NotUse
@WaltonNJohnson How is it possible 2let a known terrorist open a masque in Boston?Might as well let the KKK open a White center next door!,NotUse,NotUse
@WCVB: Mama I love you dead Boston bomber says to mother during rampage http://t.co/GCNd4eMcBS,NotUse,NotUse
#beaconhill #boston #beantown #bostonstrong #igerslondon #streetphotography #instadaily @ Beacon Hill http://t.co/Y4swtk4G3y,NotUse,NotUse
#BOSTON #bostonstrong #Bruins http://t.co/LqRcn7qNuS,NotUse,NotUse
#boston #seaport #view #bridge #city @ Summer Street Bridge http://t.co/78juiiRZwC,NotUse,NotUse
#Boston MA #internship #Job: Event Planning &amp Marketing Internship at RACE-Run Against Cancer Events http://t.co/dwjRW1o8sd,NotUse,NotUse
#bostonmarathon my heart goes out to all effected in the bomb blasts especially the family of the 8 year old boy killed,NotUse,NotUse
#BOSTONSTRONG @ Boston Common http://t.co/qcJbHxrGSR,NotUse,NotUse
#bostonstrong I love this place! @igersboston @redsox #boston #redsox #oneboston @ Fenway Park http://t.co/k1NpMVZnBK,NotUse,NotUse
#bravepeople thanks for all u have done and will do for the great city of Boston. Always in my thoughts. #foreverpeace,NotUse,NotUse
#CNN #Boston What did I say?,NotUse,NotUse
#Indians and #RedSox hope game helps heal. http://t.co/CjMmbo1P8s,NotUse,NotUse
#OneofFatLyrics #MyFavoriteLyrics life is like a rice that blows up at the end . Nigga pray for Boston,NotUse,NotUse
#pray 4 boston,NotUse,NotUse
#prayforboston,NotUse,NotUse
#prayforboston,NotUse,NotUse
#prayforboston,NotUse,NotUse
#prayforboston,NotUse,NotUse
#prayforboston,NotUse,NotUse
#prayforboston,NotUse,NotUse
#prayforboston,NotUse,NotUse
#prayforboston,NotUse,NotUse
#prayforboston,NotUse,NotUse
#prayforBoston,NotUse,NotUse
#prayforBoston,NotUse,NotUse
#prayforboston,NotUse,NotUse
#prayforboston ?,NotUse,NotUse
#prayforboston ?,NotUse,NotUse
#prayforboston ....,NotUse,NotUse
#prayforboston #prayforwaco #prayforMIT ? ? ?,NotUse,NotUse
#prayforboston poor girl didnt deserved to die http://t.co/ckPW4AiOLu,NotUse,NotUse
#prayforboston R.I.P to all people are died!,NotUse,NotUse
#PrayForBoston RT @TH2NSTATSGUY: Great salute at end of Sabres / Bruins game. #BostonStrong http://t.co/aPUUuRv0hb,NotUse,NotUse
#PrayForBoston this is sooo sad -.-,NotUse,NotUse
#PrayForIran and #PrayforBoston. And #PrayforVenezuela for good measure. #PeopleHavingAWorseDayThanYou,NotUse,NotUse
#PrayForTexas #PrayForBoston,NotUse,NotUse
#RAW #prayforboston,NotUse,NotUse
#reds starter Bronson Arroyo a former Red Sox shares feelings on #bostonmarathon tragedy http://t.co/6a2YNrMyJS via @ctrent,NotUse,NotUse
#Tsarnev case #BostonMarathonBombing - http://t.co/SuHxuMfEEl - Werent they looking for someone named Mee-sha #p2 #OWS,NotUse,NotUse
#yesplease RT @TMZ: Earlier: Mark Wahlberg - Id Reunite w/ the Funky Bunch... FOR BOSTON! http://t.co/7lQPeBO6D6 LETS DO THIS MARKY MARK!!,NotUse,NotUse
$240 million slots parlor proposed for Worcester: Developers of a proposed slots parlor in Worcester have... http://t.co/5T2huKFISh,NotUse,NotUse
2 dead at least in Boston bombing. What the in hell is wrong with people?,NotUse,NotUse
2 people dead in Boston marathon explosion. Thoughts and prayers are with those familys. #tragic #prayforboston,NotUse,NotUse
2 times RT @IlUvmYbLKsisTrS: Oh shit they got a arrest for the Boston marathon bombing .. I hope they kill that bitch!!!,NotUse,NotUse
20 of the Bostons Trending Topics for Saturday 20 were hashtags: http://t.co/YuZ7vcmLoH,NotUse,NotUse
22 dead 4 injured in a shooting #PrayForChicago and 2 explosions #PrayForBoston #PrayForTexas,NotUse,NotUse
A 11 yr old from wc was where the bombs went off but left 20 min before. Kenny rapmund. #GoKenny,NotUse,NotUse
A day in the life of a spoiled Boston Terrier! #bostonterrier http://t.co/EqvtNZSNVm,NotUse,NotUse
A lot happened in a week in #boston #bostonstrong http://t.co/XXkAVQ86Qq,NotUse,NotUse
A nice cleansing morning rain for Boston,NotUse,NotUse
A religious lunatic?? No way! RT @HuffingtonPost: Officials tell AP evidence suggests Boston suspects worked alone motivated by religion ?,NotUse,NotUse
Aaaaaaand THATS why you dont fuck with Boston...,NotUse,NotUse
According to a 78 year old made it without injuries many miracles done yesterday. God is in Boston world is with #BostonMarathon,MaybeNotUse,MaybeNotUse
After you guys bomb Mount &amp YV come bomb DVC and then make ya way to BOMB North Korea. Lol,NotUse,NotUse
AHHH I need to get to a tv ASAP trying to follow the updates on the case in Boston from my phone is too inconvenient.,NotUse,NotUse
All about GREEEN nigga call it BOSTON,NotUse,NotUse
All my thoughts and prayers go out to the people at the Boston marathon #PrayForBoston,NotUse,NotUse
All this Boston marathon conspiracy shit is so stupid #peopleareidiots,NotUse,NotUse
Almost done with all my sociology assignments for the rest of the year. Bomb af. One more test to take and im donezoooooooo,NotUse,NotUse
Also Boston I love you so much.,NotUse,NotUse
Amazing things in Boston. Congrats to all involved. What an incredible job!!!!,NotUse,NotUse
And by the way PD-nim..next time you cast Joonie orient him first. Lol. Pataka la pagsugod naactivate lugod an bomb.,NotUse,NotUse
Another event that makes me lose all faith in humanity.. #prayforboston,NotUse,NotUse
Anyone going to the interfaith service tomorrow in the south end? #Prayforboston,NotUse,NotUse
Apparently there is a bomb threat in the Olmsted building and yet I got no email or text from the school about this ?,NotUse,NotUse
Apple to dole out $100B to shareholders: NEW YORK ? Apple is opening the doors to its bank vault saying it will... http://t.co/yfMsOgyKZO,NotUse,NotUse
Are his ARMS BROKEN? @cnnbrk: Official: Boston bombing suspect has throat injury may not be able to talk. http://t.co/wAPRCelgB6,NotUse,NotUse
As a #Canadian I proudly look at my #American neighbors. You are a #heroic people and you are loved. #CAPTURED #Watertown #manhunt #Boston,NotUse,NotUse
Assistant Account Executive - Mullen: ( #Boston MA) http://t.co/tWX7xmKdse #Marketing #advertising #Job #Jobs #TweetMyJobs,NotUse,NotUse
at Boston Market and Im dateless @shelby_bonetti wahh,NotUse,NotUse
Autonomie Project Inc. #internship #Job: Marketing Internship ( #Boston MA) http://t.co/DxyM4M6QcT #Jobs #TweetMyJobs,NotUse,NotUse
Back to Boston !,NotUse,NotUse
Bard is back in Boston. Need him in that pen,NotUse,NotUse
Be careful good people there are still sick people out there sitting and waiting to inflict hurt and pain on strangers. Pray for Boston!,NotUse,NotUse
Between missing my family and the explosions in Boston I feel so down and depressed. I need a giant pick me up ASAP.,NotUse,NotUse
Big Papi sums up the feelings of an entire city! Best use of the F-bomb EVER! http://t.co/ALTJrJXy8k,NotUse,NotUse
Blow up Boston in the name of Allah and you bring your religion down not the people who are prosecuting terrorism.,NotUse,NotUse
Bomb kills 7 family members in Afghanistan http://t.co/zTuIMii8md,NotUse,NotUse
Bomb suspect in custody,MaybeUse,MaybeUse
bomb threats arnt funny guys.,NotUse,NotUse
Bombing in boston plant blows up in Texas now a plane over flew its runway in columbus.,NotUse,NotUse
Bombs be spitin lik all da bitchz,NotUse,NotUse
Boston 3-11 in the 4th! Lmao helloooooooo thats not gonna cut it,NotUse,NotUse
Boston and then nearly Canada thankfully police were there in time to stop anything happening #whatisgoingonwiththeworld,NotUse,NotUse
Boston Athletic Association head: The #BostonMarathon will go on in 2014. http://t.co/QQAZ3pDbiw #Resilience #StandUnited,NotUse,NotUse
Boston be strong.,NotUse,NotUse
Boston Bombing suspects:- http://t.co/5zfZQG9qcn,NotUse,NotUse
Boston bombing: Reddit learns how witch hunts can start http://t.co/PfhpeNcGW8,NotUse,NotUse
Boston bombingdont trust the media.. #ConspiracyTheory,NotUse,NotUse
Boston friends please check in I hope you your families and friends are all safe and sound.,NotUse,NotUse
Boston got it tied tomorrow though. WATCH.,NotUse,NotUse
Boston grieve come together and move forward stronger and wiser.,NotUse,NotUse
Boston I love you,NotUse,NotUse
Boston is our fucking city and nobody will dictate our freedom - @BostonRedSoxPR David Big Papi Ortiz,NotUse,NotUse
Boston is the best city in America,NotUse,NotUse
Boston is too dangerous for a small town latina such as yourself. -@Heroin_Heroines,NotUse,NotUse
Boston Knicks replay #nw,NotUse,NotUse
Boston PD confirming two individuals are dead with 22 injured. Im sure those numbers will only increase. :(,MaybeUse,MaybeUse
Boston should keep winning while Montreal should keep losing. Its good for the Leafs in the first round.,NotUse,NotUse
Boston taking game 1,NotUse,NotUse
Boston Tea Party...what ever comes down people are saying this is like guilty by association time!,NotUse,NotUse
Breathing Easier: BOSTON - Boston Marathon bombing suspect Dzhokhar Tsarnaev lay hospitalized in serious... http://t.co/fqdajzp3Vt,NotUse,NotUse
Butterball bath bomb. Cadbury mini eggs. Lemon aid. Netflixs.,NotUse,NotUse
Cant believe he was 19 yrs old.Thats my agehow does he have so much hatred.Let alone knows how to make a bomb I cant even make eggs.,NotUse,NotUse
Cant stop thinking about how fucked up that Boston bombing was,NotUse,NotUse
CAUGHT: The second Boston bombing suspect Dzhokhar Tsarnaev has been arrested,NotUse,NotUse
Chechen teens....wait till the men show up. With Obama as presidentyall better be gun &amp bomb proficient.,NotUse,NotUse
Check out this awesome new mobile site for #Boston #Massachusetts here! http://t.co/lRIN9j728s,IDKUse,IDKUse
Cheers to all the hard work BPD FBI SWAT. Proud of u! @BostonGlobe: BPD Commish Davis: its a proud day to be a Boston police officer.,NotUse,NotUse
Classy move RT @NHL: The @NHLBruins and @BuffaloSabres salute the Boston fans. Video: http://t.co/CI1KfKE44g #BostonStrong,NotUse,NotUse
CNN (not John King) is reporting that the Boston bomber was planning another attack in New York City. More specifically Times Square.,MaybeUse,MaybeUse
Come join BBL: #Boston for our 1 YEAR ANNIVERSARY show on Friday!! New Songs &amp New Jokes! http://t.co/LNldxCuBrj Its Sketch #Comedy &amp Games!,NotUse,NotUse
comparing boston to 9-11 is a colossal msm contrivance that thought NEVER entered my mind @coasttocoastam,NotUse,NotUse
Completely forgot about Boston! Sorry Licia I cant do the race. Im not trying to get bombed,NotUse,NotUse
Congratulations @Boston_Police: ? ? great work.,NotUse,NotUse
Congratulations to FBI! A very good job well done! A justice for all of the victims in Boston Fun run bombing! #salute,NotUse,NotUse
Conspicuously absent from Boston Globe story about how other hotels helped out the Lenox were the Marriott Westin and Sheraton Hotels.,NotUse,NotUse
Dear Conspiracy Theorists STAHP. The Boston bombings were not an inside job. Nor was 9/11. Now I'm sure I'll be called a sheople but God,NotUse,NotUse
Decided to participate in 2014s Boston marathon! Time to work hard and train hard !,NotUse,NotUse
Did you light a candle for #Boston #PrayersForBoston,NotUse,NotUse
Dinner distraction. @ Bostons http://t.co/RrP6cPfhbl,NotUse,NotUse
Disassociation-stranglingknifing etc are personal..guns bothdepending on use..bombs separate from victims&amp related to pridelike arson,NotUse,NotUse
Doctors at Boston hospital confident no further lives will be lost http://t.co/KPWaqMGYms,NotUse,NotUse
Doesnt seem too terrorist After bombing suspect worked out in gym attended a party slept in his dorm room. http://t.co/gTxAU7K3GC,NotUse,NotUse
Dont understand why people are going on about the Boston Bombings? Try having family over there &amp not knowing if theyre dead or alive.,NotUse,NotUse
Doolings snake ass used to play for Boston ? ? ? ? ? ? ? ? ? ? ? ? ? ? ? ? ? ? ? ?,NotUse,NotUse
Drop acid not bombs,NotUse,NotUse
Er....Yeah listen to this ghetto Lady scream the n bomb,NotUse,NotUse
every time Ive been in Boston I could have been considered legally insane word to @Mdele07,NotUse,NotUse
Everybody come through for the benefit for Boston event tomorrow!,NotUse,NotUse
Everyone loves the constitution until its protections extend to someone they dont like. Get over it and follow the law in Boston.,NotUse,NotUse
Fair enough the applause for Anne Williams but fuck of with the Boston thing aint seeing nothing for a coach crash in alps #rant,NotUse,NotUse
FBI: we have 2 suspects? this should be interesting? #boston,NotUse,NotUse
Featured on http://t.co/K4etTeQHFX FBI Warning Boston Bomb Internet Tax Liberal PC Last Week. #rednationrising #uniteright #tcot #tlot,NotUse,NotUse
Finally Boston is safe!!,NotUse,NotUse
First Boston and now Texas wtf is going on bullxhit,NotUse,NotUse
First Boston now Texas.. how many more people gonna die this week? Come on now thats just sad!! #staystrong,NotUse,NotUse
French biotech Hemarina opens Boston office: Hemarina SA a privately-held biotechnology company based in... http://t.co/83YWRH2QRe,IDKUse,IDKUse
Fuck les terroristes aussi. Prayin for Boston.,NotUse,NotUse
Funds raised for the 4 dead in Boston: 22.5 million. Funds raised for the 14 killed in the Texas explosion: 0. Solid job government.,NotUse,NotUse
Geez. Sad. RT @NBCNews: CONFIRMED: Brown University student falsely identified as Boston bombing suspect found dead in Providence River,NotUse,NotUse
God doesnt deal cards to people that cant handle them. Boston you will be in my thoughts all day. #BostonFam,NotUse,NotUse
God I pray today for those who were physically and emotionally affected by Bostons explosion and Texas explosion. Please heal them. #Pray,NotUse,NotUse
Good luck to Bob McAuley #UKIP candidate for the Staniland South by-election for Boston Borough Council Lincolnshire to be held on 2 May.,NotUse,NotUse
Good luck to everyone running the London Marathon today. #blackribbon #prayforboston #GoodLuck http://t.co/MqSuTUB8iU,NotUse,NotUse
Good morning doe!!,IDKUse,IDKUse
Gotta love a nice simple dinner here from Boston Market. @ Beverly Hills California http://t.co/ZKatVjXqq2,IDKUse,IDKUse
Grace our Zumba instructor for today and Maria our prez! @ Boston University Case Center http://t.co/cfqgHi72cd,NotUse,NotUse
H&amp M is having a donation drive for the victims of the boston marathon. whatever we get in donations we match. thats so sweet,NotUse,NotUse
Happy b day to my city Saint Marc miss u @ Boston Medical Center http://t.co/Xm0DB2FB8F,NotUse,NotUse
He is alive &amp he is finally in custody #Boston #manhunt,NotUse,NotUse
Hearts out to Boston #prayforboston http://t.co/tYo1N538Su,NotUse,NotUse
Heat roll and LeBron says they can play better: LeBron James looked at the stat sheet then looked at the... http://t.co/DPMAVJccbW,NotUse,NotUse
Hes having a good fin day. #FishbowlMonday nelbowski @ Weber Shandwick Boston http://t.co/DiAZu7xbRY,NotUse,NotUse
High school senior among injured at marathon: CAMBRIDGE Mass. ? A high school senior from a private day school... http://t.co/NHFj6Tl3OP,NotUse,NotUse
Holy shit. I know #tags dont help but.. #prayforboston. Incidents like that make me sick.,NotUse,NotUse
Hope everyone is ok in Boston #bostonmarathon,NotUse,NotUse
horrible scenes in Boston #FuckedUpWorld,NotUse,NotUse
Hundreds run for Boston in Calgary: Hundreds of runners gathered in Calgarys Edworthy Park Saturday to show... http://t.co/tblwUntpPY,NotUse,NotUse
Husband recounts helping wife hit by flying shrapnel: Nick Yanni was watching his wife Lee-Ann race to the... http://t.co/qxtfGpkQK8,MaybeUse,MaybeUse
I am in shock. There are.some.conspiracy theory nut jobs posting shit on Facebook saying Boston was.a.set up by the government,NotUse,NotUse
I am not the Tsarnaevs http://t.co/6inEuSRYSN by @WajahatAli (via @JohnLEsposito) #AmericanMuslims #Boston,MaybeNotUse,MaybeNotUse
i better see someone in @weGOODkarma today &amp enjoy some bomb yaki house with them,NotUse,NotUse
I came for waffles not drama,NotUse,NotUse
I can tell this season about to be the bomb,NotUse,NotUse
i cant believe this shit going down in boston so close to home.. its pretty scary,NotUse,NotUse
I cant believe what happened in Boston. My prayers go out to everyone who was harmed lord be with them #prayforboston #wearblueforboston,NotUse,NotUse
I could be off here but why are people worried about Boston when the dude is cornered and going to get taken out? #Ineedtopaymoreattention,NotUse,NotUse
I dont know if its because I just got home from the gym or what but I just ate plain sliced cucumber and it was bomb!,NotUse,NotUse
I feel for #Boston... still hate all their sports teams tho.,NotUse,NotUse
I got some bomb ass pussy from a white lady,NotUse,NotUse
I hate being the only child in this house it kills me!! I miss my sister ?,NotUse,NotUse
I hope all my friends and family are staying safe in Boston right now #bostonstong #prayforboston,NotUse,NotUse
I hope citizens of Boston arent being dumb and causing BPD to work harder after this ordeal. Be smart. Celebrate at home? #Watertown,MaybeUse,MaybeUse
I hope the asshole who made those bombs knows only a real coward attacks helpless little kids. No real man does that. #TinyPenis #TinyBrain,NotUse,NotUse
I just read in the Boston bombing that the guys who did it had military equipment.... How would they be able to get that..,NotUse,NotUse
I Just Want Some Good Ol Fashion Sex Including Getting Some Seriously Bomb Head ?,NotUse,NotUse
I kinda hope they find the kinda responsible for The Boston Bomb and he ends up being black and he escapes then is caught by the KKK,NotUse,NotUse
I laugh every time I hear novelty device on the news. Makes the bomb device sound like something youd buy from Anne Summers.,NotUse,NotUse
I need lush bath bombs I need a nice bath ok,NotUse,NotUse
I need to do homework but #Boston coverage is more interesting!!,NotUse,NotUse
I post about praying for Iraq and someone apparently upset says and for Boston.. - obviously for Boston too but every city is important,NotUse,NotUse
I saw the atom bomb. I was four then. I remember the cicadas chirping. The atom bomb was the last thing that happened in the war and ( ),IDKUse,IDKUse
I still dont get what happened in Boston #dumbguy,NotUse,NotUse
I sure bet their are many Boston people wish they owned attack weapons w/ 30 shell clips!!!!!,NotUse,NotUse
i think im getting more bothered than i should be that people keep lumping up watertown and all the surrounding towns as boston,NotUse,NotUse
I tweeted bout this on Monday ... @Andruzzi63 and @chatham58 were amazing during the chaos http://t.co/rMAqROGr3W #pats,NotUse,NotUse
I vined way too hard last night but @mjhart99 and @thathistorykid vines from the Boston block party made me so pumped to be from Boston,NotUse,NotUse
I went to bed this a.m. thinkingthis Boston things so scattered Ill get full story when its all settled in morning. I hate being wrong,NotUse,NotUse
I wish I was seeing @SammyAdams and @AllTimeLows shows next week in #Boston. About to say fuck college. #poorcollegekid,NotUse,NotUse
I wonder if they caught that person who called in the bomb threat at work/casino awhile ago. This is getting out of hand!,NotUse,NotUse
Id be shocked if the royals play tonight. And rightfully so. Who could even think about baseball in Boston right now?,NotUse,NotUse
If i was Doc im pretty sure they would have to send me back to Boston by now. I would kill a bitch w/ these calls. Granted no one can score.,NotUse,NotUse
If I were in #boston right now I would be running to the nearest bar and getting HAMMERED. #merica,NotUse,NotUse
If its true I find it interesting that suspect #1 had not seen his wife and baby for a year &amp she had quit wearing the garb. #Boston,NotUse,NotUse
If they dont make a move by daybreak Im catching the next flight to Boston and handling this,NotUse,NotUse
If you're interested this is the fund the mayor of Boston and the governor have set up to help the Boston victims. http://t.co/BvgajpLT79,NotUse,NotUse
If youre tweeting #prayforboston actually pray God doesnt answer tweets,NotUse,NotUse
Im about to throw up. Boston. Good God.,NotUse,NotUse
Im always in Boston I could have been there today. Thank god Im safe. So sad and scary #PrayersForBoston,NotUse,NotUse
Im at @BostonLogan International Airport (BOS) (Boston MA) w/ 55 others http://t.co/NnApXRiK7z,IDKUse,IDKUse
Im at Boston University Goldman School of Dental Medicine - @bu_tweets (Boston MA) http://t.co/7HoZiu6801,IDKUse,IDKUse
Im at Botha Home in Boston Bellville (Boston) http://t.co/3t4LkiDTKW,NotUse,NotUse
Im at Center for Digital Imaging Arts at Boston University - @cdiabu (Washington DC) http://t.co/sfU04A1Sq1,NotUse,NotUse
Im at Fenway Park - @mlb (Boston MA) http://t.co/RJiUAE7CoT,NotUse,NotUse
Im at Pavement Coffeehouse - @pavementcoffee (Boston MA) w/ 5 others http://t.co/m5Rsj3XUcU,NotUse,NotUse
Im at Stats - @sbgsouthie77 (Boston MA) w/ 3 others http://t.co/JOsPFks1BS,NotUse,NotUse
Im at Turner Fisheries of Boston (Boston MA) http://t.co/O2y52CMaWi,NotUse,NotUse
Im at University of Massachusetts - Boston (Boston MA) w/ 5 others http://t.co/5oY7KBHNdk,NotUse,NotUse
Im beyond relieved that the Choir got to Boston safely.,NotUse,NotUse
Im not NY enough to cop that 40oz x #Been #Trill hat. I already get stares in Boston for the KIDS one haha. @40oz_VAN,NotUse,NotUse
Im Rosie Ruiz I start where I please A victory with ease Is better for knees! On this day Rosie wins the Boston Marathon 1980.,IDKUse,IDKUse
Im surprised that none of the principles acknowledged the Boston tragedy. Or at least acknowledged that Mrs. Zim was there #BullShit,NotUse,NotUse
Im talking people stripped to bras/underwear and boxers going fucking nuts. With bomb ass music.,NotUse,NotUse
Im thinking about retiring from telling the Boston Marathon conspiracy theorists that theyre idiots. Ill miss the way they made me laugh!,NotUse,NotUse
in the end terrible people will not win. #prayforboston ? #bostonmarathon,NotUse,NotUse
Investigators say that #Dzhokar #Tsarnaev is in fair condition admits role in bombing denies government involvement http://t.co/W3eCUuLcvR,NotUse,NotUse
Ironically this Boston charm is in James Averys Mothers Day edition catalog. http://t.co/RBRFh7Omhq,NotUse,NotUse
Is anyone else wearing purple tomorrow for Boston ?,NotUse,NotUse
is it just me or is there no places in boston that have a breakfast place that delivers,NotUse,NotUse
Isnt it funny how the person whos responsible for the Boston Marathon Bombing became famous for doing a bad thing? http://t.co/gi7mWvz6wu,NotUse,NotUse
It feels like im on a massage chair in a spa from up here with a spectacular view of Boston but im http://t.co/ErbLpf6wS3,NotUse,NotUse
It is sad what happened in Boston today. A sad reminder of how unsafe our world really is. :-(,NotUse,NotUse
It truly makes me so sick to read the news with bombs on trains and foreigners being held captive why cant we all just love eachotherr,NotUse,NotUse
It's strange like did this horrible thing really happen ? Carlos Arredondo #Boston Cowboy Hat Hero tels @MetroBOS http://t.co/gLpEby56sw,NotUse,NotUse
Its 3:30am and the dog has to pee?! UGH. I cant sleep anyway. Today is the memorial here in Boston I know its on everyones mind.,NotUse,NotUse
Its a beautiful day in my city. BOSTON MASS STRONG,NotUse,NotUse
Its both fascinating and disturbing in equal measures that I spent most of today listening to a live stream of Boston Police radio...,NotUse,NotUse
Its cool that the Celtics are wearing goldish Boston warm ups in honor of Boston but shouldnt they wear goldish unis too? #NBAPlayoffs,NotUse,NotUse
Its crazy how its just 3 hrs away!! I think Boston might be my new home,NotUse,NotUse
Its good to be back downtown again #PrayForBoston http://t.co/pzTDdziKiC,NotUse,NotUse
Ive said it before and Ill say it again. President Obama is amazing. #Obama #Boston,NotUse,NotUse
Johnny Boychuk Tyler Seguin and Brad Marchand wearing their Boston Strong shirts before todays game... CS http://t.co/PRlkwSMKoA,NotUse,NotUse
Judging by tweets it seems that the local Boston stations have more info than the larger networks. Anybody know where I can watch them???,NotUse,NotUse
Just going to throw it out there Boston bomber looks a bit like the singer of vampire weekend,NotUse,NotUse
JUST HOW STUPID IS THIS AUNTFATHER AND MOTHER OF THE BOSTON BOMBERS YOU CANT GET MUCH MORE GUILTY THAN THEY ARE !,NotUse,NotUse
Just posted a photo @ Love for Boston http://t.co/h6gILn22Yz,NotUse,NotUse
just read wayyyyy too much into this Boston bombing... ?,NotUse,NotUse
Just saw the video of the Boston marathon explosion....prayers go out to everyone affected,NotUse,NotUse
Just watched the National Anthem from the Bruins game that was awesome #BostonStrong #PrayForBoston,NotUse,NotUse
justice. sleep well Boston.,NotUse,NotUse
Landing in Boston makes me feel how lucky I am to live here. #bostonstrong,IDKUse,IDKUse
Last night live shot with John Oliver on the Daily Show in front of Crossroads in Boston!,NotUse,NotUse
Lawmaker: Enough evidence to convict bomb suspect: WASHINGTON ? The chairman of the House Intelligence Committee... http://t.co/YlX8bplnfY,NotUse,NotUse
Leaving. On a jet (blue) plane. Dont know when Ill be back again. #faa #boston http://t.co/zIeN0d44tX,NotUse,NotUse
Lets go Boston,NotUse,NotUse
Lets go to Boston I hear its a blast!,NotUse,NotUse
Library fire NOT connected. It was an electrical fire #PrayForBoston,VeryUse,VeryUse
Listening to Boston police live feed... Crazy!!!,NotUse,NotUse
Lmao @DWave_Man said he cant wait til he get older cause his wife aint gone have teeth n she gon giv some bomb ass head! Fse!!,IDKUse,IDKUse
Lockscreen. Jailbroken. hey_x_kid_bombs_away someone who I know makes me smile when Im completely http://t.co/T4cYmDY1GT,NotUse,NotUse
Lotus flower bomb,IDKUse,IDKUse
Love you @BarackObama love you Boston. Love you guys http://t.co/YWhU7IGvrl,NotUse,NotUse
Made Colton some bomb ass coffee,NotUse,NotUse
Man everyone is going crazy! Bombs explosions and now a school shooting at MIT. This world needs JESUS!,NotUse,NotUse
Markets rebound after AP Twitter hack swoon: The Associated Press' official Twitter account was hacked this... http://t.co/epT6texrsA,NotUse,NotUse
Martin Grant Associates: Property/Casualty W/Comp Claims ( #Boston MA) http://t.co/e7mCOGvZaQ #Insurance #NettempsJobs #Job #Jobs,NotUse,NotUse
Maybe I dont wanna go to med school in the Boston area...,NotUse,NotUse
Melo is basically telling Boston to gk fuck itself ? ?,NotUse,NotUse
MEMSIC board backs $88.5M acquisition: Andover-based MEMSIC Inc. said today it has agreed to be acquired by... http://t.co/YuWXfib6LA,NotUse,NotUse
Milw. Bomb Squad Commander urges vigilance: MILWAUKEE (WITI) ? After the tragedy at the Boston Marathon on... http://t.co/qYhR9v9vRk,NotUse,NotUse
Mr. Wildes just told me there was a bomb threat,MaybeUse,MaybeUse
My cuticle oil smells like jager bombs,NotUse,NotUse
My dad flew out to Boston today for work and he saw this memorial there for the victims ? #prayforboston http://t.co/isd5EUsPt1,NotUse,NotUse
My heart aches tonight. Extra hugs for loved ones #PrayForBoston,NotUse,NotUse
My mom says that I dont have to go to school tomorrow because of an apparent bomb threat at West. All absences are excused. #yes,NotUse,NotUse
My only talent is making some bomb ass peanut butter and jelly sandwiches.,IDKUse,IDKUse
My post from earlier today on how the Boston Manhunt demonstrates why broadcast news is making itself disposable http://t.co/7vjfRCNBLI,NotUse,NotUse
My prayers go out for all the people in Boston Marathon bombing. #prayforboston,NotUse,NotUse
My taxi car is clean guys! I cleaned the bomb!,NotUse,NotUse
My thoughts and prayers are with all of those affected by the tragic events in Boston today.,NotUse,NotUse
My thoughts are still with Boston .....keep on running Boston,NotUse,NotUse
NBA Playoffs Preview: Eastern Conference First Round Predictions: The Miami Heat may be the biggest sports story... http://t.co/dxxHAmNvwn,NotUse,NotUse
New flag flying at Boston Harbor CC http://t.co/UUVFjWON4p,NotUse,NotUse
Newport chucking a smoke bomb on the pitch clever...,IDKUse,IDKUse
no more hurting people #prayforboston,NotUse,NotUse
No this nigga didnt just drop the L bomb already. #Bates,NotUse,NotUse
No way the bombers stayed that close to Boston. This shits a hoax. Stupid govt.,NotUse,NotUse
Now more bombs in Boston?! Ugh. :( Im way too freaked out to sleep tonight.,NotUse,NotUse
NY ? BOSTON,NotUse,NotUse
Obama recites message written on board from Martin 8 killed in #Boston bombing: No more hurting people Peace,NotUse,NotUse
Of all the things to bomb why the Boston Marathon?,NotUse,NotUse
Oh hey Boston http://t.co/qnI4WuGVT4,NotUse,NotUse
Oh my God. http://t.co/CNbXnP4QTn,NotUse,NotUse
oh my gosh - whats going on in boston #bbcnews #notuptodate :(,NotUse,NotUse
OMG LOL RT @fivethirtyeight: How is Boston supposed to feel normal when the rest of us are pretending that we dont hate their sports teams?,NotUse,NotUse
Omg me too!!!!!!!! RT @AYYSIAN: I like to stop the microwave with 0:01 to go. Makes me feel like Im defusing a bomb and saving lives. ?,NotUse,NotUse
omg picstitch is stupid but ya fav bath bomb ? http://t.co/DIeOwXpwMz,NotUse,NotUse
Omg this is disgusting heart goes out to boston http://t.co/kpvCHL5O48,NotUse,NotUse
On being the right side of humanity Why the #Boston terrorist plot is the least successful in living memory Hyde http://t.co/HStyluILyb,NotUse,NotUse
On our way to Boston with @efrostmd,NotUse,NotUse
one boston two boston red boston blue boston MT @PRyan: job well done by @Boston_Police law enforcement and people of Boston #oneboston,NotUse,NotUse
Opened report via Android at 7 Melnea Cass Blvd Boston http://t.co/x8MpMbSSuF. Trash left out.,NotUse,NotUse
Or i wanna go to iraq and be like im the bomb lmao,NotUse,NotUse
Our world is such a scary place. #boston #ricin #waco,NotUse,NotUse
Payton7 who has been cheering at Gmas finishline for me for 5 yrs heard bout Boston today said shell still come cheer 4 me. #amazingkid,NotUse,NotUse
Peach Faygo is bomb as hell .,NotUse,NotUse
Police Release Incredible Thermal Images of Boston Bombing Suspect in His Last Hiding Place http://t.co/SDcR3F0Com e.r.,MaybeUse,MaybeUse
Pray for Boston http://t.co/PJUUt7BFKm,NotUse,NotUse
Prayers are needed in Boston!,NotUse,NotUse
Prayers for Boston and the victims!! ? ? I stopped watching the local news at the beginning of the http://t.co/ol4fdAwJmT,NotUse,NotUse
Prayers for Boston.,NotUse,NotUse
Prayers going to Boston and West Texas. We are Americans we stick together through hard times like this. We come together in time of need.,NotUse,NotUse
Prayers to all those affected by the Boston Marathon bombing this afternoon.,NotUse,NotUse
Prayers to Boston,NotUse,NotUse
Praying for Boston and all my people :( if youre reading this call me back please!!!!,NotUse,NotUse
Praying for Boston. God guide Promote peace promote Love! #PrayForBoston,NotUse,NotUse
Props to Boston.,NotUse,NotUse
Pru Tower lights up in memory of bombing victims: Boston Properties will light up the Prudential Tower in tribute... http://t.co/eMTOnmq2Ug,NotUse,NotUse
R.I.P to those who suffered the Boston Bombings.,NotUse,NotUse
Rally For Boston. (@ Sonny McLeans w/ 6 others) [pic]: http://t.co/0aLjJzyhZK,NotUse,NotUse
Read this: RT @bryanrwalsh: Boston is where civil libertarians concerns have come home to roost: http://t.co/2dIUHDcWkH,NotUse,NotUse
Really makes you think about the world we live in and how insignificant our problems can be #prayforboston,NotUse,NotUse
Red robin does sound bomb right now though,NotUse,NotUse
Red Velvet Cupcakes &amp &amp Cream Cheese Frosting w/ my Bestie #fwm #BOMB @ Capitol Heights Apartments http://t.co/k7v0pM1ZVM,NotUse,NotUse
Representative: Father of Boston suspects to fly from Russia to U.S.: The mother of the two suspects in the... http://t.co/AbamqgZTyp,NotUse,NotUse
RIP Anne Williams... Respect Boston,NotUse,NotUse
Rock the boat! #boston #cnn,NotUse,NotUse
RT @BobKroehler Stupid bombs!! #CandyCrush,NotUse,NotUse
RT @Boston_Police #MediaAlert: WARNING: Do Not Compromise Officer Safety by Broadcasting Tactical Positions of Homes Being Searched.,MaybeUse,MaybeUse
rt @LAsThePlace Janet Napolitano calls Boston terror question on why Saudi was deported not worthy of an answer http://t.co/RQAU4LPstF,NotUse,NotUse
RT @NHLBruins: Bruins and Sabres salute Boston at center ice... CS #BostonStrong http://t.co/Layi9ll6VC ?,NotUse,NotUse
RT@Earth_Pics: Lovely Boston Skyline USA http://t.co/P2mBdyQWCv,IDKUse,IDKUse
Run 4 Boston: The Ragnar Relay is afoot from Huntington Beach to San Diego California. The NWA (Ninjas With A... http://t.co/eaGUTxi56E,NotUse,NotUse
Run for #boston @ bostonmarathon @newyorkroadrunners @ nyspacerunners. Support my fellow # runners!!! (@ nycparks) http://t.co/MyiAXpYr2i,NotUse,NotUse
Run For Boston Fun Run (@ A Snails Pace) http://t.co/92OsmzskPI,IDKUse,IDKUse
Run for Boston! (@ Stanley Park w/ 2 others) [pic]: http://t.co/h5o4mRU6AI,NotUse,NotUse
Running a few for Boston (@ Snap Fitness) http://t.co/uGwzn967ls,NotUse,NotUse
Russians bombed Boston.. Here come the terrorist rumors,MaybeNotUse,MaybeNotUse
S/O to my boy @DSmien92 in The Batt today. Read what this selfless &amp insightful Ag has to say about Boston &amp Syria http://t.co/XD9GY2uASq,NotUse,NotUse
Saying that Reddit was responsible for the death of a misidentified Boston Bomber is fucking moronic. He was missing for a month beforehand.,NotUse,NotUse
Scary: Americans blaming the Czech Republic (and the Slovaks??) for the Boston bombing http://t.co/qiwDoPFL18,NotUse,NotUse
Seriously about to bomb this test.,NotUse,NotUse
Seriously. Pray for Boston. Even if you dont pray just keep them in your thoughts,NotUse,NotUse
She bombed Boston,NotUse,NotUse
Shit up (whatever the kids name was) thats why your family/you were in Boston last week,NotUse,NotUse
Shoutout to the Boston police and to all the Feds playing a role in the Suspects capture. Theyre lives are on line every day.,NotUse,NotUse
Simply staggering: @Telegraph: Businessman found guilty of selling novelty golf ball finders as bomb-detection kits http://t.co/hEWr6Iucf9,NotUse,NotUse
Skin smells so nice after using bath bombs earlier ?,IDKUse,IDKUse
Sleep peacefully tonight #Boston.,NotUse,NotUse
So many bomb threats smh,NotUse,NotUse
So much support for our community in Boston. #BostonStrong #SanDiego http://t.co/0zKT1l1Ko7,NotUse,NotUse
So sad about the Boston Marathon. Its horrible. And to the people that died or are injured you are in our heart. :) #prayforboston,NotUse,NotUse
So so so bomb!!!! @haley_brownn http://t.co/3MQMnWDsCe,NotUse,NotUse
Some good news - Doctors: All Boston bombing patients likely to survive http://t.co/S6RezSjedk,NotUse,NotUse
Some of the people on twitter that are being disrespectful towards the Boston Marathon bombing just goes to prove America is fucked up #SMDH,NotUse,NotUse
someone buy me a Boston Terrier and ill love you forever ? ?,IDKUse,IDKUse
Someone go to Tampa vs. Boston baseball game with me May 14th ? ? ? #ticketsarecheap #pleasee lol,NotUse,NotUse
Something is in the air this week. Sending good vibes to #boston and #waco.,NotUse,NotUse
Sour Patch ? are so bomb !,NotUse,NotUse
Stocks mixed as major companies report earnings: NEW YORK ? Stocks are opening little changed on Wall Street as... http://t.co/BjLVkBqVhf,NotUse,NotUse
Strong people dont put others down they lift them up,NotUse,NotUse
Such a crazy week first the boston explosions and now the texas explosion sad to hear :( #prayfortexas #prayforboston,NotUse,NotUse
Super classy. RT @BuzzFeed Chicago Tribune sent the Boston Globe pizza today (pic: @GlobeJenPeter) http://t.co/Cvqem14V0o,IDKUse,IDKUse
Sweet Caroline appeared on Wednesday 17 at the 13th place in the Top20 of Bostons Trending Topics: http://t.co/HeV34D0dF2,NotUse,NotUse
Talk about a nightmare.. Not the best way to wake up this morning #prayforboston,NotUse,NotUse
Tallys gonna bomb the world lol,NotUse,NotUse
Tell these niggas man RT @ahhh_JAVIer: That Boston shit is so fake. If you believe those 2 niggas did it. Your stupid af,NotUse,NotUse
Ten minutes until the moment of silence for the Boston bombing victims,NotUse,NotUse
Terrible scenes in Boston but this is what happens when you get involved in other peoples shit. UK Goverment please take note,NotUse,NotUse
Terrible whats going on in Boston!,NotUse,NotUse
Thanks Patton. Nicely said. @pattonoswalt http://t.co/t1SOnXTPb9,NotUse,NotUse
That scumbag bomber is lucky that he got caught in #Boston. If he came to NY that nigga would be dead.,NotUse,NotUse
thats how Boston gets things done,NotUse,NotUse
The @celtics are going to be swept in the first round of the playoffs. This is rock bottom for Boston. #celticstalk,NotUse,NotUse
The arrested the guy that did the bomb in Boston,NotUse,NotUse
The attendance is gonna is astronomical &amp the security presence in Boston next year is gonna be insane.,NotUse,NotUse
The Boston bombers are getting just what they wanted--endless publicity in the media. TV off.,NotUse,NotUse
The Chinese Consulate in New York says a Chinese national is the third person killed in the Boston marathon blasts.,NotUse,NotUse
THE DICK TOO BOMB DOE,NotUse,NotUse
The FBI is gonna catch the Boston bombers. Theres too many pictures videos and evidence.,NotUse,NotUse
The funny thing is 95 of you wont give a shit about Boston tomorrow. Dont glorify a tragedy to make yourself look good. Thats pathetic.,NotUse,NotUse
The Lumineers always make me nostalgic for NYC and Boston last summer. Just roaming the streets and figuring out life. Miss them days man.,IDKUse,IDKUse
The man in the wheelchair (photo with his legs blown off) helped the FBI identify the suspects as soon after surgery http://t.co/laPq1Ho0V4,NotUse,NotUse
the more and more stuff I see about the Boston bombing just makes me more and more sad. its so awful.,NotUse,NotUse
The network was excellent this week.. RT @HuffingtonPost: NBCs Boston triumph http://t.co/jaKw81Nl5W,NotUse,NotUse
The news coverage Boston is receiving is kinda ridiculous...,NotUse,NotUse
The news said police were chasing him as he was throwing bombs out the window. Grand Theft Auto? Niko gotta chill bruh,NotUse,NotUse
The news unfolding in Boston right now is surreal.,NotUse,NotUse
The NYP is a horrible rag of a paper but this is low even for them and a prime example of racial profiling http://t.co/t3RaZLnhQ3 #p2 ?,NotUse,NotUse
the people of Boston right now>> ?,NotUse,NotUse
The police killed one of the boston bombers!,NotUse,NotUse
The pru it up! #blueandyellow #prudential #boston #weareboston #bostonstrong @ Boylston Street http://t.co/s1xeHnmgWX,NotUse,NotUse
The stories coming out of Boston this a.m. are almost too difficult to process.#prayforBoston http://t.co/yMr2PxFw0c ? @aggeloitoureal :(,NotUse,NotUse
The weathers bomb right now !!!,NotUse,NotUse
The Yankees bombed the Boston marathon? #rivalry #toosoon? #mybad,NotUse,NotUse
Then there was that time we watched a guy trip n break his nose in Boston and had to wait for our rescue to show up http://t.co/DM0LuywxpK,NotUse,NotUse
There in London not Boston #divvy,NotUse,NotUse
theres Boston but also thoughts and prayers for Iran (/Pakistan/India) - natural disasters are at times the most harrowing and damaging.,NotUse,NotUse
These Boston on-scene heroics on Anderson Coopers CNN show...the doctor who had just run? The guy who lost a son in Iraq?,NotUse,NotUse
These spicy wedges are gonna be the bomb,NotUse,NotUse
These Sriracha chips are hella bomb.,NotUse,NotUse
They failed because the people of Boston refuse to be intimidated. They failed because as Americans we refuse to be terrorized. -BO,NotUse,NotUse
They should ban pressure cookers bc they can make bombs Guns bc they pull their own triggers and kill ppl And spoons bc they make ppl fat,NotUse,NotUse
They should do a Law Abiding Citizen style punishment for this kid from the Boston bombing well deserved. #ChopHisWillyOff,NotUse,NotUse
Theyre going to wind up finding him along with a room full of fcking bombs,NotUse,NotUse
This back and forth to Boston has literally eaten up the majority of my day.,NotUse,NotUse
This Boston shit Is crazy I hope they catch this guy. ?,NotUse,NotUse
This is awful. Praying for Boston.,MaybeNotUse,MaybeNotUse
This is just nuts. Bomb threat at the TX State House Kaufman DA updates now the plant explosion? Ive never seen so much TX on my feed.,NotUse,NotUse
This roundtable pizza im eatin is fukin bomb,NotUse,NotUse
This teriyaki is bomb,NotUse,NotUse
This whole Boston bombing thing is fuckin terrible.,NotUse,NotUse
This whole situation in Boston is so crazy.,NotUse,NotUse
This whole thing reminds me of an episode of 24... Except its real and we dont have Jack Bauer! Hope they catch this other A hole! #Boston,NotUse,NotUse
This. @EricStangel: Dear media I dont think you need to show us how to make a pressure cooker bomb. Thank you. ?,NotUse,NotUse
Those who lost limbs bond in hospital: As the victims of the Boston Marathon bombings continue to recover from... http://t.co/sb33RlIUgj,NotUse,NotUse
Thoughts and prayers go out to all those that have been effected by this horrible event #prayforboston,NotUse,NotUse
Thoughts and prayers go out to the city of Boston,NotUse,NotUse
Thoughts and prayers go out to victims of the Boston Marathon. #PrayForBoston,NotUse,NotUse
thoughts are with those injured at the boston marathon..but it must put londons in doubt now tbh.. #scum #whenwillitend,NotUse,NotUse
thoughts are with you #boston,NotUse,NotUse
Thursday! Finally a day I can enjoy. #Motivation (@ Boston Sports Club) http://t.co/gWIVdhfYQl,NotUse,NotUse
To all the customers that kept on talking for the moment of silence for everyone affected by the Boston marathonyour rude and inconsiderate,NotUse,NotUse
Took until 3:00 am to realize I never put makeup on today. See this as a formal apologize to the city of Boston.,NotUse,NotUse
Tweet 8751 goes to Boston PD and the FBI for all the shit theyve been through this week.,NotUse,NotUse
Two explosions go off at the Boston marathon. #crazy,NotUse,NotUse
Ugh RT @RedSox Are you a Boston area college student in a fraternity or sorority? Join us Greek Life Night @ Fenway! http://t.co/DTifpk4o4l ?,NotUse,NotUse
Uuuuggh i could have gone to boston ?,NotUse,NotUse
Very cool to see the folks in Boston cheering on the first responders!,NotUse,NotUse
VIDEO: Surgeon says amputees are happy to be alive after Boston Marathon boming: http://t.co/TTiGiDKG1G -CC #boston blast,NotUse,NotUse
Waco better not be another Boston Im sick of this shit,NotUse,NotUse
Wait shit whats happening now in Boston?!,NotUse,NotUse
Walter White. #breakingbad #grafitti #stencil #streetart #Boston http://t.co/2aWpAHDAgS,NotUse,NotUse
Watchinn the manhunt for the boston bomber in school. Sweet. Lol,NotUse,NotUse
We are a discusting race... Holy man. #prayforboston,NotUse,NotUse
We cant figure out who killed tupac on the Vegas strip but we can find the marathon bombers still in Boston 5 days later ? #BULLSHIT,NotUse,NotUse
We should refuse to do testing until they give us some bomb breakfast,NotUse,NotUse
We stay on the front lines but yea we still here after the bomb drops,NotUse,NotUse
Websense fights cyber crime post Boston Marathon blasts: The Websense ThreatSeeker Network is blocking email-b... http://t.co/zAOarSShVR,NotUse,NotUse
Weird Americans! @MalteLandwehr: Oh a tragedy. Lets abuse that for an advertising campaign. #Ford #Boston http://t.co/AvE3nz3V7A,NotUse,NotUse
Well put a boot in your ass its the American way. #TobyKeith ? #america #getoutterrorists #boston,NotUse,NotUse
What a shame how can one be so malicious and evil to act in such ways. I pray that they find the remaining suspect #Boston,NotUse,NotUse
What are the odds I run into @whatupcal while out and about in Boston today? #futurehusband #kiddingbutnotreally ?,NotUse,NotUse
What happened in #Boston?,NotUse,NotUse
What happened to Boston...,NotUse,NotUse
What possesses a person to create a bomb to kill innocent people. Its just sad.,NotUse,NotUse
What the heck is going on at Boston now?,NotUse,NotUse
Whats killing me about this whole Boston thing is CNN first reported that the suspects were dark skin but ended up being Russian?,NotUse,NotUse
Whats this world coming to?.. Praying for Boston,NotUse,NotUse
When criminals attack us with terror we shouldnt respond with fear mongering towards the race of the criminal. #Chechnya #boston #Dzhokhar,NotUse,NotUse
whn is ur nxt moviegood deeds d bomb,NotUse,NotUse
Who threw that smoke bomb at Derby yesterday !!.....,NotUse,NotUse
Whoever put those bombs there are straight up cowards. #BostonMarathon,NotUse,NotUse
why do I feel like the government had something to do with the bombing in Boston?,NotUse,NotUse
Why do people have to set off bombs and shit damn cant we all just live in peace?,NotUse,NotUse
Why do people think the Boston shooting is illuminati just because there was a person on the roof,NotUse,NotUse
Why does the week leading to 4/20 always gotta be fucked? Columbine Waco OKC VaTech Boston West etc. Can we just get to 4/20 &amp get baked?,NotUse,NotUse
Why is everyone making jokes about the bomb threat?! Its not funny!,NotUse,NotUse
Will John Lackey return to @RedSox rotation on Sunday? Check out the pregame notes for Tuesday! http://t.co/UPAKat4gZn,NotUse,NotUse
Work in Progress ! bostonbakery Express Los Palos Grandes @ Boston Bakery http://t.co/g3SjX7Nb4i,NotUse,NotUse
Working out with @bomb_diggyd. Getting this heart right.,NotUse,NotUse
Would love to torture who ever done the Boston bombings! No excuses for that shit,NotUse,NotUse
Wow @JermichaelF88 is donating $500 to fund Boston for every dropped pass this season Boston is about to get paaaaaaaiiiiiiidddd!,NotUse,NotUse
Wow. Unbelievable how this all started and ended. RT: Police chief details Fridays Boston manhunt http://t.co/Rlu6f2y2u5,NotUse,NotUse
XD @Bobie_Bobzy: Shit's hitting the fan. The Problem with One-Night Stands in Locked-Down Boston http://t.co/NKCHpwyQ7h via @EsquireMag,NotUse,NotUse
Yeaaasa cheese bacon boobs and butts,NotUse,NotUse
yeaah Biggest RESPECT 4 #Boston mothafuckin #BombTerrorist,NotUse,NotUse
Yeah if youre still posting conspiracy theories about Boston even after this guy admitted what he did youre an idiot &amp Im unfollowing you,NotUse,NotUse
yes! they found the other suspect for the bomb in boston .,NotUse,NotUse
You cant go into a huge city like Boston to stage a bombing &amp expect to not get caught by some type of surveillance cameras #SickFucks,NotUse,NotUse
You dont fuck with Boston #mycityforever,NotUse,NotUse
You dont know me you dont even care. Oh yea I think Im going to Boston I think Im going to start a new life start over,NotUse,NotUse
You have to know your the bomb,IDKUse,IDKUse
You told yo mama we wasnt cool nomore .I wonder what you said cause I kno u aint tell her you was being a hoe &amp thats why i dont like u,NotUse,NotUse
Youngest Boston bombing victim MIT officer laid to rest: Eight-year-old Martin Richard was laid to rest Tuesday... http://t.co/kmP6oEWhJn,NotUse,NotUse
Your Boston Bombing is their Every Morning,NotUse,NotUse
Youve got to love U.S. They charged the Boston bomber with using a Weapon of Mass Destruction. A fcukin PRESSURE COOKER!! Mammies beware!,NotUse,NotUse
