Input.text,Answer.Q12,Answer.Q12
? #prayforboston #SerChiefAndMayaNationaliLOVEYOUDay ? ?,YesSup,YesSup
? Fucking diet yall dont understand how much Boston market is upstairs,NoSup,NoSup
?RT @HuffingtonPost: Prayers for Boston bombing suspect pour in after arrest http://t.co/k2kKQPR2uj,YesSup,YesSup
.@CNN reporting officials believe bomb suspect has been IDd. They say surveillance video &amp video from TV station helped #BostonBombings,NoSup,NoSup
.@MelissaTweets Michelle Obama Visits Hern Family in Boston Hospital - Martinez CA Patch http://t.co/cqq5SYQJyX,NoSup,NoSup
@__iAmJuJu: She looks so bomb she could turn a gay nigga straight ?,NoSup,NoSup
@_bsmiles @Newq_Bomb @JackSchmoll Just found me in the background.,NoSup,NoSup
@_FinesseHerGood not in Boston lol,NoSup,NoSup
@_Happy_Gilmore: Hey why dont I just go eat some hay make things out of clay lay by the bay? I just may! Whatd ya say? ? @boston_wins,NoSup,NoSup
@_KissMeeSoftly they didnt take your phone.,NoSup,NoSup
@10gierhan10 @georgenolan7 says the Boston fan leaving in Kansas. Boston way to be original. #bandwagoner,NoSup,NoSup
@1500ESPN_Reusse When is it time to stop being Boston Strong and go back to our regular sports teams?,NoSup,NoSup
@911BUFF: BOSTON: RIGHT NOW - ANOTHER EXPLOSION AT THE JFK LIBRARY. EMERGENCY PERSONNEL RUSHING! #911BUFF ? @vesti_news,NoSup,NoSup
@aaronmichael714 @ryhbskates @nicholeburik its to bomb,NoSup,NoSup
@AdamGabbatt: Vine: The line of tv cameras in front of Boston federal courthouse https://t.co/mCaqpEwXRd ?,NoSup,NoSup
@Ager_Bomb Hey Andrea any chance of a RT for the British Armed Forces Throwdown event being held next week? #CrossFit,NoSup,NoSup
@AJgee3 seriously. I am gonna text bomb you about food STOP,NoSup,NoSup
@AllisonBrunelle when your not in Boston,NoSup,NoSup
@aloralynnn if its Boston itll go 7 and could go either way. If its Montreal... We could beat them.,NoSup,NoSup
@AmWithStoopid lolokzzz stewppzz!! Riighht,NoSup,NoSup
@andersoncooper: Awesome to meet some of the SWAT team members who helped apprehend Boston bombing suspect http://t.co/cyAKQBRNrX ? Boner,NoSup,NoSup
@andrewbrealey it was like coming out of the bomb! loads of them! Look! Shit myself!! http://t.co/1NfqCrdjce,NoSup,NoSup
@AnnCoulter 4what again? So when the police come knocking @ ur door? FACT:#boston has 10000 lawenfmt in town tell me y we need guns again,NoSup,NoSup
@AshBashLovee now thats bomb,NoSup,NoSup
@austin_irvin Shits too bomb lmao.,NoSup,NoSup
@BACHthatASHup theres apparently a suspicious package that was found and a bomb squad was called in,NoSup,NoSup
@BangBangB15 no they have consistently had post season trouble. Boston will help build their stamina b/c theyre so dynamic in the playoffs,NoSup,NoSup
@BashDuf @arnaud_palmer you just wanna see an orchestra because you heard mine &amp Micheles bomb taste in music yesterday huh? Haha,NoSup,NoSup
@bbcsportsound Only one manager for Manager of the Year 2012/13. The one and only CL last 16 bomb dodging League winner Mr Neil Lennon #HH,NoSup,NoSup
@benbebeastin yeah you got some bomb?,NoSup,NoSup
@benmaller David Ortiz should have said Excuse my Dominican before dropping the F bomb.,NoSup,NoSup
@Bomb_Weirdo Choptastic,NoSup,NoSup
@Boston_Police @FBIBoston Thank you.,NoSup,NoSup
@Boston_Police I THINK THAT THE GUY WHO OWNED THE BOAT SHOULD GET A REWARD FOR AT LEAST GOING OUT&amp CHECKING HIS BOAT NOT KNOWING HE COULD GET,NoSup,NoSup
@Boston_Police: CAPTURED!!! The hunt is over. The search is done. The terror is over. And justice has won. Suspect in custody. ? Amen!,NoSup,NoSup
@Boston_Police: FBI has cancelled the 8pm briefing tonight. ?,NoSup,NoSup
@Breezy_bkool bt nvmm We got thru ardy,NoSup,NoSup
@briefingroom: Rubio worried Boston will make immigration reform tougher http://t.co/RAactQHrcl ?,NoSup,NoSup
@BuzzFeedAndrew: RT @billy_baker: Finish line volunteers told to run. Describe fear like 9/11 or the tsunami. ? #Boston,NoSup,NoSup
@CadeCummings_23 it was a #bomb,NoSup,NoSup
@caitlinmoran Your welfare piece transfers to current situation of Boston bombers being on welfare some linking gov. help terrorism.,NoSup,NoSup
@CBuc32 Na Im talking about the Boston series lol... No way we were beating the heat,NoSup,NoSup
@chhayrithy meant to say in front of a TV. It was when all the 411 was coming in Boston. It was riveting reading everything on twitter.,NoSup,NoSup
@ChrisCuomo maybe it is time @cnn goes there in Texas ! I understand Boston is important but huge sad story there !,NoSup,NoSup
@Chunder_C victory vinnie bombs,NoSup,NoSup
@cnnbrk: Putin urges closer international security ties in wake of #Boston bombings. http://t.co/Sh9s4l6Ntu ? When they lived here years?!?!,NoSup,NoSup
@ColinHumphreys he does love when I favorite bomb him and never usually flips out like some people do. Just perfect amount of annoyance,NoSup,NoSup
@coloradorebecca I was talking about the #Boston coverage.,NoSup,NoSup
@ConnerHabib: Anyone who calls for torture may as well have been out there shooting cops and blowing up nail bombs too. ? I agree,NoSup,NoSup
@DennisDMZ instead of pics of the bomb. Pics of the sub humans responsible with a third eye is required,NoSup,NoSup
@DJDarkCloud: RT @57UN Live picture from the Western Ave MA 02472 #Watertown #Boston http://t.co/uH4ZES3fWY ? this is nuts! America?!?!?!,NoSup,NoSup
@DollBrownSkin u went home hows Boston ??,NoSup,NoSup
@DouchyAmendola: Whores Welcome Wagon ? Cute,NoSup,NoSup
@dpshow Bradley University is doing a 5k to donate to the Boston victims. http://t.co/B8fqhaT8Va Can we get a mention tonight,YesSup,YesSup
@Eastin12 bomb diggity yo!,NoSup,NoSup
@emlee13 Its not about me though its about the Boston Marathon and now the explosion in Texas. Hope you week gets better though!,NoSup,NoSup
@ESPN_FirstTake boston all day,NoSup,NoSup
@Felicia_Renea_ no bitch Im eating some bomb ass food so stfu lol,NoSup,NoSup
@foxnation: UN Says Boston Got What It Deserved http://t.co/NLC2qypFyd ?. #buffoon #defundtheUN,NoSup,NoSup
@FoxNews: Florida professor who denied Sandy Hook shooting claims #Boston bombings a drill http://t.co/OyT4Fcdw6O via @perrych ? WHAT A NUT,NoSup,NoSup
@germericangirl_ @_nellie12 @NaeemaChristine @NicoleTesta05 i know with the boston shows theres 2 prices but nyc thank god only has 1,NoSup,NoSup
@giorgiocarraway yup I saw this... She is so bomb ? ? ? ?,NoSup,NoSup
@GlennNMaggie Because im moaning about something little after whats happened with Boston,NoSup,NoSup
@GlobalGrind: These are Dzhokhar Tsarnaevs last tweets --> http://t.co/5PWOTWsDmW #boston #manhunt @acarvin,NoSup,NoSup
@GrahamBlog if you blame Obama for Boston bombing then by extension you should blame Bush for 9/11.,NoSup,NoSup
@HaitianQue4Life Im not a hater just a Boston fan,NoSup,NoSup
@HalleDiez a glass of milk and you have a yourself a bomb ass breakfast,NoSup,NoSup
@HallePinz I have no clue apparently they found something that could have been linked to some kind of bomb threat after the concert,NoSup,NoSup
@hollywoy: please help Alex #ForAlex - 7 years old needs life saving treatment in Boston. 140k Raised 115k to go! https://t.co/plXVAJniUi,NoSup,NoSup
@HuffingtonPost: Boston bombing: The medias week of getting it wrong http://t.co/mTCjI8noOM ? again,NoSup,NoSup
@HuffingtonPost: Patton Oswalts response to the Boston tragedy http://t.co/E7twmXulSH ? everyone should read this its amazing and true.,NoSup,NoSup
@HuffingtonPost: Prayers pour in for Dzhokhar Tsarnaev after arrest http://t.co/cPm8xY8vFN ?. Well that is the Christian thing to do!,NoSup,NoSup
@IPL carabian item bomb blast against pune . Tusi great ho,NoSup,NoSup
@IrishPat91 LMFAOO #irishprobz and ohh yee right on the corner. Yuhh daaa bomb boo boo,NoSup,NoSup
@ItsDomUnique more than a shooting explosives were used the 2 guys are the Boston Marathon Bombers,NoSup,NoSup
@ItsTheMelMan: So Boston is on lockdown. Cant nobody get on the train or bus until the mayor says so..... ? Pissed.,NoSup,NoSup
@ItsThingsInLife: So far this Week: - #prayforboston - #prayfortexas - two 14 year olds killed a homeless man as a dare - bomb threats ?,NoSup,NoSup
@J_Clarks24 I am leaving Boston this weekend. Going to my aunt &amp uncles house in Jamestown RI this weekend with my parents.,NoSup,NoSup
@Jaanneellee_ @_swaveygeo you a bomb bitch too. ?,NoSup,NoSup
@JackieMurphster theyre looking for the other guy that bombed Boston.. Thats why its trending lol,NoSup,NoSup
@JennCMTravel If you decide to visit anywhere between Boston and DC let me know. Great places for families and I have lots of tips!,NoSup,NoSup
@JermichaelF88: Ill b donating $500 4 every dropped pass this season 2 One Fund Boston. @bueller_24,YesSup,YesSup
@JJouttaboundz especially with all these bombs randomly throughout the city they are finding! It all seems set up!,NoSup,NoSup
@JordiePS alright bud game at home against Boston this Sunday,NoSup,NoSup
@Justin_D_Martin: CNNs errors more errors still more errors and retractions in Boston suspect coverage http://t.co/r29OOq7viL,NoSup,NoSup
@K_Bomb_24 YESSS!,NoSup,NoSup
@Kathryn011 GET OUT!!! They are the bomb. Ima bring you some to training ),NoSup,NoSup
@kaygeese your last batch was way better in my opinion BUT they are not bad theyre still bomb.,NoSup,NoSup
@KendraLust In Boston....come visit. Its safe now!,NoSup,NoSup
@KhaoticKendall Yeah theyre fine. Theyre in Boston at work because theyre paramedics,NoSup,NoSup
@kiera_nelson delano is pretty bomb,NoSup,NoSup
@KnicksTape: Needed to #protecthomecourt and be up 2-0. See you Friday up in Boston! #knickstape #NYKALLDAY #playoffs ?,NoSup,NoSup
@Know: This world is a crazy and sick twisted place. Prayers go out to affected in Boston #prayforboston http://t.co/yy8T89pTwK sad.,YesSup,YesSup
@Koreanfan_KC @Fan_of_KCRoyals @ksplowboy Yep yep.,NoSup,NoSup
@krispenny95 Hahahah thanks mate mate I am buzzing got a right bomb of cash!,NoSup,NoSup
@m10kuras youda bomb ?,NoSup,NoSup
@M24Miles ThankU4 ur RT THESE Agents Did Boston Marathon Bombing Event! SEE 17 Unanswered Questions @USVICTORY http://t.co/GOLfO4L5sx,NoSup,NoSup
@Mac_Parsons hm no but I have matches and a spider fumigating bomb!,NoSup,NoSup
@mandzBaby_ I like the video and its a http://t.co/ah25EwKDq9 song,NoSup,NoSup
@mariaxo18 were watching it asap its the bomb,NoSup,NoSup
@marisaroffman Ratings were so-so. Wonder if Boston tragedy could have influenced them? Some people could not watch the show.,NoSup,NoSup
@mashable: CISPA Cybersecurity Bill Passes the House http://t.co/zMJQTZ9KKW that whole Boston Obama deal with a great distraction.,NoSup,NoSup
@mattmikalatos Suspect #2. Police just held press conference saying they don't know where he is lifted bans on Boston,NoSup,NoSup
@May_Bombs What is Brit pop?,NoSup,NoSup
@meetthepress @DorisKGoodwin ya commie-bitch knows shit about his-story of America maybe @Boston like did it burn witches back-in-her-day???,NoSup,NoSup
@meg_matheny17: The Boston bombers parents are ignorant as hell. Stop denying that your kids are pieces of shit. ?,NoSup,NoSup
@Miss_Angelo I will when u come to Kc.. A friend gives bomb ass professional massages! #Connections,NoSup,NoSup
@Molly95xx just put fake tan on it .. Its da bomb,NoSup,NoSup
@MonmouthTownFC 2-1 to reserves at moment with a Tom Pass goal of the season unbelievable van persie like bomb last the YM keeper #tekkers,NoSup,NoSup
@Morning_Joe However Twin Towers Ft Hood Boston Marathon others all Muslim not Christians or Jews or Mormons or Catholics,NoSup,NoSup
@mssackstein wasnt able to bring kids either. Probably wont make it to Boston,NoSup,NoSup
@Myvy_Nguyen Just heard the news. So terribly sad. thoughts with everyone in Boston .x HOLY OMFG HARRYS THINKING ABOUT YOU AHHHHHHHH!! :D,YesSup,YesSup
@Nando_Garcia1 yea he can write. But shit they found him wit guns and bombs and he robbed a guy for his car. He killed his bro on accident.,NoSup,NoSup
@NBCNews: Security at sporting events boosted after Boston attacks http://t.co/mrLQcHxhKw indy 500 its going to be pack with security @IMS,NoSup,NoSup
@NeilDiamond so neat to see you in Boston,NoSup,NoSup
@NfldAnchor because Boston's louder. Also #TERRORISM makes a better story than #oops.,NoSup,NoSup
@NHL: Heres a photo from Saturday nights @VanCanucks pre-game tribute to Boston. #BostonStrong http://t.co/szzSeeXhYd ? inspirational,YesSup,YesSup
@Nicki_Doyle Neither does staying in Boston for a week after the attack.,NoSup,NoSup
@NicoleDollkptv looking for some beauty at UP campus to offset Boston bombing news http://t.co/s5ADOrz1eK,NoSup,NoSup
@obrienmedia Boston Mayor estimated loss to area businesses for today at $330 millions alone. #bostonbombing,NoSup,NoSup
@Odalis_Bonilla heck no Boston about to turnup .,NoSup,NoSup
@Patriotsgirl_12 It was a tough day but were Boston. Well get through it. Thanks for thinking of us!,NoSup,NoSup
@pattonoswalt THANK YOU PATTON!!! Your words on the tragedy of Boston of inspiration was uplifting and inspiring!!,YesSup,YesSup
@payjaytar why?? Another bomb threat?,NoSup,NoSup
@pbsgwen is offended by the use of dark-skinned to describe the suspect in Boston. Bigger fish to fry here than her sensitivities. #shutit,NoSup,NoSup
@PepatahGombal somebody to boston justin bieber #replacesongtitlewithboston,NoSup,NoSup
@pjcorallo are you gonna be in Boston or jersey for your 21st?,NoSup,NoSup
@plipof7 thanks for your great work covering the boston bombing phil hope your and the family are well and thank you for all you do,YesSup,YesSup
@PoliticalTicker Just because two men who were in America for 10 years caused the Boston Tragedy is no reason to change immigration act.,NoSup,NoSup
@politichickAM I saw CNN video of their sad excuse 4 Mom yesterday. Disgusting. No wonder the POS Boston Bombers turned out the way they did,NoSup,NoSup
@PsychichealerC just watched vids u put on re Boston bombing very interesting,NoSup,NoSup
@ramieshalabi it gets more interesting... http://t.co/ojBfL8prpW,NoSup,NoSup
@RayBarry07 because snapchat is the http://t.co/EOefeInmK9 hellllooooooo,NoSup,NoSup
@realDonaldTrump not only gun register needed how about registering all bombs &amp all bombers! Lets not forget to register bomb making equip!,NoSup,NoSup
@redconz dropped the H bomb. The club will have agreed. There fucking insane,NoSup,NoSup
@Reuters: Iran moves to speed up nuclear program despite sanctions http://t.co/b8M4OMiCaM ? lol prepare for bombs,NoSup,NoSup
@rkourass he asked billy Boston if hed won CCUP!!!!!! #WIGANWARRIORSRL,NoSup,NoSup
@RodneyWoodland fuck Boston and all that shit lmao,NoSup,NoSup
@RyanSanders7 come on bruh I be needing to drop bombs!,NoSup,NoSup
@ScottieY12 and I made up our own sloppy joe #recipe. It was bomb. #getinmybelly,NoSup,NoSup
@sessionsfan: Brown Student Falsely Linked To Boston Bombing Found Dead http://t.co/1dco4H49Fw via @businessinsider,NoSup,NoSup
@SkateandSurf I cant go to #SkateAndSurf cause its too far but Im gonna see you May 20th in Boston.. Can I smoke you up before the show? ?,NoSup,NoSup
@SkyNews: http://t.co/e8T0ThIh4j ? this woman is deluded &amp a disgrace! The USA protected them but the USA wasnt protected from them!!,NoSup,NoSup
@slcitygirl what is it lately with that? Ive seen tons of people trolling around with their conspiracy theories on Boston,NoSup,NoSup
@snooki: Watched the news all day with @JLaValle ...unreal. ? My prayers for Boston ? <3,YesSup,YesSup
@SportOnKE: BREAKING:Kenyas Rita Jeptoo wins the 2013 Boston Marathon womens race #BostonMarathon ?,NoSup,NoSup
@SportsCenter: BREAKING: Suspect #1 in Boston Marathon bombing shot and killed by police. Suspect #2 on the run massive manhunt underway. ?,NoSup,NoSup
@SportsNation: Unreal moment last night. Boston fans sing the National Anthem before the Bruins game - http://t.co/J3MiN7WXLS,NoSup,NoSup
@stephanSTFU: getting sick of all these bombs... bomb my school already and get it over with. ?,NoSup,NoSup
@stevie2gunz now they are saying they evacuated bc of a bomb threat #mayhem,NoSup,NoSup
@sydney_denton the boston marathon bombing,NoSup,NoSup
@tachozilla oh well I dont think hed bomb me,NoSup,NoSup
@tereshkova2001 And yet that seems to be what the boston bomber was charged with. according to what I read at the time anyway.,NoSup,NoSup
@thalia_catalina I know! I was talkin to Joe and was like Thalia will go Im gonna call her! And then I was like FUCK shes in Boston! Haha,NoSup,NoSup
@TheHeLLonHeeLs your allstar pic is the http://t.co/HDgowxkgGu hunty,NoSup,NoSup
@thelede: Update: F.B.I. Interviewed One Suspect Two Years Ago http://t.co/gLZDMOeiFR #Boston ? #ignorance,NoSup,NoSup
@TheNotoriousMMA what date is your fight in Boston,NoSup,NoSup
@TheRealCrakkar sorry buddy Ill send you something from Boston :),NoSup,NoSup
@tigernelo28 @zoehcafc @connorhcafc UTT j ger bombs at the ready someone gunna be doing face paints on train lol haaaaa,NoSup,NoSup
@tjksports you got a player that is probably out with a concussion if a Boston Bruin like Lucic did that hit probably be 5 gamer! ),NoSup,NoSup
@tsweden Bombs post 9/11 terrorism. Thats all. If you recall this was widely labelled terrorism before the suspects were IDed as Muslim,NoSup,NoSup
@tyronhatch @MensHealthZA cheers Ty k-bombs also from @D_GerstnerEVO @Fluxmotion great article from @arthurjonesSA,NoSup,NoSup
@UberFacts: Boston University has a People Watching Club -- Once a week members meet at different locations and just stare at strangers. ?,NoSup,NoSup
@ucant_haterome buy Boston points RL Denver RL Miami,NoSup,NoSup
@umbanth316 so true #bornandraisedhere #boston<3,IDKSup,IDKSup
@vadimsoloviev: Cant wait for Whiskey Soup to be released many supports so far! - http://t.co/hdEGEGiwhW (via @Twitmusic) ? bomb track,NoSup,NoSup
@VoiceofRussia: Muslims the world over fear retaliation for #Boston blasts http://t.co/ah3PCDnFtB #news,NoSup,NoSup
@WaltonNJohnson How is it possible 2let a known terrorist open a masque in Boston?Might as well let the KKK open a White center next door!,NoSup,NoSup
@WCVB: Mama I love you dead Boston bomber says to mother during rampage http://t.co/GCNd4eMcBS,NoSup,NoSup
@wingoz: Boston/Watertown... this ones for you. http://t.co/LurDnvXHQN ? that looks delicious,NoSup,NoSup
@yourgirlchuck are you coming to Boston any time soon?,NoSup,NoSup
#beaconhill #boston #beantown #bostonstrong #igerslondon #streetphotography #instadaily @ Beacon Hill http://t.co/Y4swtk4G3y,NoSup,NoSup
#boston @ Seaport District http://t.co/IPpeTaNBVx,NoSup,NoSup
#boston #marathon prayers go out to all those affected by todays mindless crime. Im sickened by what Ive seen &amp heard. #peace,YesSup,YesSup
#boston #seaport #view #bridge #city @ Summer Street Bridge http://t.co/78juiiRZwC,NoSup,NoSup
#boston Cover page Boston magazine http://t.co/JjrkoJUg73,NoSup,NoSup
#Boston MA #internship #Job: Event Planning &amp Marketing Internship at RACE-Run Against Cancer Events http://t.co/dwjRW1o8sd,NoSup,NoSup
#Boston MA #Marketing #Job: Art Director at Mullen http://t.co/VUMA2f54TE #advertising #Jobs #TweetMyJobs,NoSup,NoSup
#bostonmarathon my heart goes out to all effected in the bomb blasts especially the family of the 8 year old boy killed,YesSup,YesSup
#bostonstrong I love this place! @igersboston @redsox #boston #redsox #oneboston @ Fenway Park http://t.co/k1NpMVZnBK,NoSup,NoSup
#bravepeople thanks for all u have done and will do for the great city of Boston. Always in my thoughts. #foreverpeace,YesSup,YesSup
#CNN #Boston What did I say?,NoSup,NoSup
#EB2013 Posters and Exhibits @expbio @ Boston Convention &amp Exhibition Center http://t.co/90uJHYMlhb,NoSup,NoSup
#Marketing #Job in #Boston MA: Copywriter (2) at Mullen http://t.co/QOFAuYqj9m #advertising #Jobs #TweetMyJobs,NoSup,NoSup
#pray 4 boston,YesSup,YesSup
#prayforboston,YesSup,YesSup
#prayforboston,YesSup,YesSup
#prayforboston,YesSup,YesSup
#prayforboston,NoSup,NoSup
#prayforboston,YesSup,YesSup
#prayforboston,YesSup,YesSup
#prayforboston,YesSup,YesSup
#prayforboston,YesSup,YesSup
#prayforboston,YesSup,YesSup
#prayforboston,YesSup,YesSup
#prayforBoston,YesSup,YesSup
#prayforBoston,YesSup,YesSup
#prayforboston,YesSup,YesSup
#prayforboston ?,YesSup,YesSup
#prayforboston ?,YesSup,YesSup
#prayforboston ....,YesSup,YesSup
#prayforboston #prayfortexas #prayforthecubs so we can win today.,NoSup,NoSup
#prayforboston #prayforwaco #prayforMIT ? ? ?,YesSup,YesSup
#prayforboston happy birthday to me... Sorry guys ): ?,YesSup,YesSup
#prayforboston poor girl didnt deserved to die http://t.co/ckPW4AiOLu,YesSup,YesSup
#PrayForBoston RT @TH2NSTATSGUY: Great salute at end of Sabres / Bruins game. #BostonStrong http://t.co/aPUUuRv0hb,YesSup,YesSup
#PrayForBoston this is sooo sad -.-,YesSup,YesSup
#PrayForIran and #PrayforBoston. And #PrayforVenezuela for good measure. #PeopleHavingAWorseDayThanYou,YesSup,YesSup
#PrayForTexas #PrayForBoston,YesSup,YesSup
#RAW #prayforboston,YesSup,YesSup
#TridentNews so strong itll clean your mouth after an explosion! #Boston,NoSup,NoSup
#Tsarnev case #BostonMarathonBombing - http://t.co/SuHxuMfEEl - Werent they looking for someone named Mee-sha #p2 #OWS,NoSup,NoSup
#yesplease RT @TMZ: Earlier: Mark Wahlberg - Id Reunite w/ the Funky Bunch... FOR BOSTON! http://t.co/7lQPeBO6D6 LETS DO THIS MARKY MARK!!,NoSup,NoSup
$240 million slots parlor proposed for Worcester: Developers of a proposed slots parlor in Worcester have... http://t.co/5T2huKFISh,NoSup,NoSup
2 people dead in Boston marathon explosion. Thoughts and prayers are with those familys. #tragic #prayforboston,YesSup,YesSup
2 times RT @IlUvmYbLKsisTrS: Oh shit they got a arrest for the Boston marathon bombing .. I hope they kill that bitch!!!,NoSup,NoSup
20 of the Bostons Trending Topics for Saturday 20 were hashtags: http://t.co/YuZ7vcmLoH,NoSup,NoSup
3 PEOPLE WERE KILLED INCLUDING AN 8 YEAR OLD GIRL AND MANY MORE WERE BADLY HURT #PrayForBoston http://t.co/JNYusIGKbc,YesSup,YesSup
5 Things You Didn't Know About Mass. Roadways: The thousands and thousands of commuters who travel along... http://t.co/8PA0G0kXZa,NoSup,NoSup
A day in the life of a spoiled Boston Terrier! #bostonterrier http://t.co/EqvtNZSNVm,NoSup,NoSup
A man arrest in Boston bombing,NoSup,NoSup
A nice cleansing morning rain for Boston,NoSup,NoSup
A religious lunatic?? No way! RT @HuffingtonPost: Officials tell AP evidence suggests Boston suspects worked alone motivated by religion ?,NoSup,NoSup
After you guys bomb Mount &amp YV come bomb DVC and then make ya way to BOMB North Korea. Lol,NoSup,NoSup
AHHH I need to get to a tv ASAP trying to follow the updates on the case in Boston from my phone is too inconvenient.,NoSup,NoSup
All about GREEEN nigga call it BOSTON,NoSup,NoSup
All my thoughts and prayers go out to the people at the Boston marathon #PrayForBoston,YesSup,YesSup
All this Boston marathon conspiracy shit is so stupid #peopleareidiots,NoSup,NoSup
All this khaos in Boston and my baby niece is being flown back to Bostons childrens hospital today. Pray for Jordyn guys,NoSup,NoSup
Almost done with all my sociology assignments for the rest of the year. Bomb af. One more test to take and im donezoooooooo,NoSup,NoSup
Amazing. Tune in! @wburLive Boston After The Bombings. Streaming live @ 7 on http://t.co/rn7zFgKHU5 http://t.co/RvjzrG0VAZ ?,NoSup,NoSup
Amber DOES look bomb. I missed the performance though. Howd she do?,NoSup,NoSup
AMERICA ? @ Boston Logan International Airport (BOS) http://t.co/GnBFjIcaaD,NoSup,NoSup
An idiotic claim. So? RT @MarthaRaddatz: Sources tell @ABC that Boston bombers learned how to make bombs from the internet.,NoSup,NoSup
And by the way PD-nim..next time you cast Joonie orient him first. Lol. Pataka la pagsugod naactivate lugod an bomb.,NoSup,NoSup
Another great win for the @nyknicks last night! 1 win in Boston and we are laughing all the way to the eastern conference semi finals! #NYK,NoSup,NoSup
Anxious workers return to Copley Square: Hundreds of residents and workers returned to their homes and shops in... http://t.co/8CkYQONQVA,NoSup,NoSup
Anyone got a link to a working Boston Police scanner??,NoSup,NoSup
Anyone missing a Boston terrier?! Found on danne road http://t.co/xtETDQPoCe,NoSup,NoSup
Anyone wonder how our brilliant FBI caught suspects is Boston bombings Could it be the clowns let him go in 2011 After Russia warned them,NoSup,NoSup
Apparently there is a bomb threat in the Olmsted building and yet I got no email or text from the school about this ?,NoSup,NoSup
Apple to dole out $100B to shareholders: NEW YORK ? Apple is opening the doors to its bank vault saying it will... http://t.co/yfMsOgyKZO,NoSup,NoSup
Are his ARMS BROKEN? @cnnbrk: Official: Boston bombing suspect has throat injury may not be able to talk. http://t.co/wAPRCelgB6,NoSup,NoSup
As a #Canadian I proudly look at my #American neighbors. You are a #heroic people and you are loved. #CAPTURED #Watertown #manhunt #Boston,YesSup,YesSup
As awful as the whole situation in Boston has been #CNNs coverage has much much worse.,NoSup,NoSup
Assistant Account Executive - Mullen: ( #Boston MA) http://t.co/tWX7xmKdse #Marketing #advertising #Job #Jobs #TweetMyJobs,NoSup,NoSup
at Boston Market and Im dateless @shelby_bonetti wahh,NoSup,NoSup
Autonomie Project Inc. #internship #Job: Marketing Internship ( #Boston MA) http://t.co/DxyM4M6QcT #Jobs #TweetMyJobs,NoSup,NoSup
Back to Boston !,NoSup,NoSup
Bard is back in Boston. Need him in that pen,NoSup,NoSup
Between missing my family and the explosions in Boston I feel so down and depressed. I need a giant pick me up ASAP.,NoSup,NoSup
Big Papis Speach in Boston Today ?,NoSup,NoSup
Bit of good news. #ma RT @BostonDotCom: Arlington rejects proposed water bottle ban http://t.co/3LRzqllnQU,NoSup,NoSup
Black men asking Tsarlaev We get shot dead by crazy dudes over hoodies and loud music. How you help bomb a city and live?! #kanyeshrug,NoSup,NoSup
Blow up Boston in the name of Allah and you bring your religion down not the people who are prosecuting terrorism.,NoSup,NoSup
Bomb ass 420 last night,NoSup,NoSup
Bomb kills 7 family members in Afghanistan http://t.co/zTuIMii8md,NoSup,NoSup
bomb threats arnt funny guys.,NoSup,NoSup
bomb threats reported today in Hollywood Cal State Domingez &amp Cal State LA.. coincident? I think not!,NoSup,NoSup
Bombing in boston plant blows up in Texas now a plane over flew its runway in columbus.,NoSup,NoSup
Bombings explosions gunfire all hell has broken loose in Boston tonight.,NoSup,NoSup
Bombs be spitin lik all da bitchz,NoSup,NoSup
Boston 3-11 in the 4th! Lmao helloooooooo thats not gonna cut it,NoSup,NoSup
Boston accents are hilarious IDC what anyone says.,NoSup,NoSup
Boston and then nearly Canada thankfully police were there in time to stop anything happening #whatisgoingonwiththeworld,NoSup,NoSup
Boston be strong.,YesSup,YesSup
Boston Blast/Explosion! http://t.co/Ga5Y5vUFcO,NoSup,NoSup
Boston bombing suspect under heavy guard at hospital - Tru. Entertainment Magazine. http://t.co/pBLa3Zhu2j,NoSup,NoSup
Boston bombing suspects had weapons stockpile for more attacks,NoSup,NoSup
Boston Bombing suspects:- http://t.co/5zfZQG9qcn,NoSup,NoSup
Boston bombingdont trust the media.. #ConspiracyTheory,NoSup,NoSup
Boston Celtics-New York,NoSup,NoSup
Boston doctor was just finishing the marathon when she heard the bombs and sprinted to help http://t.co/r4dZ0JtjR1,NoSup,NoSup
Boston down 0-2.... 0-4 coming soon,NoSup,NoSup
Boston friends please check in I hope you your families and friends are all safe and sound.,YesSup,YesSup
Boston got it tied tomorrow though. WATCH.,NoSup,NoSup
Boston I love you,YesSup,YesSup
Boston is our fucking city and nobody will dictate our freedom - @BostonRedSoxPR David Big Papi Ortiz,NoSup,NoSup
Boston is the best city in America,NoSup,NoSup
Boston is too dangerous for a small town latina such as yourself. -@Heroin_Heroines,NoSup,NoSup
Boston is tough and we can handle this! #BostonStrong #MITShooting #CatchThoseFuckers,YesSup,YesSup
Boston Knicks replay #nw,NoSup,NoSup
Boston Marathon Explosions (Video). Whatever motif USA should look at the causes of it first. http://t.co/lDY2uCWiGU http://t.co/zEvR21gVfj,NoSup,NoSup
Boston on lockdown.. still cant believe,NoSup,NoSup
Boston PD confirming two individuals are dead with 22 injured. Im sure those numbers will only increase. :(,NoSup,NoSup
Boston play the Knicks 2morrow... #CantWait,NoSup,NoSup
Boston should blame the NBA for this they should of never gave 6th man to JR this early #Swish,NoSup,NoSup
Boston should keep winning while Montreal should keep losing. Its good for the Leafs in the first round.,NoSup,NoSup
Boston taking game 1,NoSup,NoSup
Boston Tea Party...what ever comes down people are saying this is like guilty by association time!,NoSup,NoSup
Boston Vs. New York,NoSup,NoSup
Bout to bomb @MoneyBrother_CO weak ass..... #practice,NoSup,NoSup
BREAKING NEWS: Ive copied the link for the pics of the 2 #BostonMarathonBombingSuspects #JusticeForBoston http://t.co/eKxNXe592t,NoSup,NoSup
Breathing Easier: BOSTON - Boston Marathon bombing suspect Dzhokhar Tsarnaev lay hospitalized in serious... http://t.co/fqdajzp3Vt,NoSup,NoSup
Brookline Noir -- Brookline MA #filmnoir #boston #brooklinema #photography http://t.co/HRcxtxciaX,NoSup,NoSup
But for real onion rings are bomb AF!,NoSup,NoSup
Butterball bath bomb. Cadbury mini eggs. Lemon aid. Netflixs.,NoSup,NoSup
Cant believe Morgantons WalMart got a bomb threat. #why #whatishappening,NoSup,NoSup
Cant stop thinking about how fucked up that Boston bombing was,NoSup,NoSup
Capriottis is bomb af ?,NoSup,NoSup
Car bombs for lunch #mondayproblems #mondaysareawesomeforme,NoSup,NoSup
Cardinal OMalley preaches love against culture of death ? - Boston Herald http://t.co/gZO6t5ar07,NoSup,NoSup
CAUGHT: The second Boston bombing suspect Dzhokhar Tsarnaev has been arrested,NoSup,NoSup
Chase will be here tonight,NoSup,NoSup
Chechen teens....wait till the men show up. With Obama as presidentyall better be gun &amp bomb proficient.,NoSup,NoSup
Check out this awesome new mobile site for #Boston #Massachusetts here! http://t.co/lRIN9j728s,NoSup,NoSup
Cheers to all the hard work BPD FBI SWAT. Proud of u! @BostonGlobe: BPD Commish Davis: its a proud day to be a Boston police officer.,NoSup,NoSup
Cigarette smoking leads to capture of Boston bomber.,NoSup,NoSup
Coffee is so perfect but sometimes it makes an atomic bomb go off in my stomach.,NoSup,NoSup
Cola chewits are the bomb,NoSup,NoSup
Come join BBL: #Boston for our 1 YEAR ANNIVERSARY show on Friday!! New Songs &amp New Jokes! http://t.co/LNldxCuBrj Its Sketch #Comedy &amp Games!,NoSup,NoSup
comparing boston to 9-11 is a colossal msm contrivance that thought NEVER entered my mind @coasttocoastam,NoSup,NoSup
Completely forgot about Boston! Sorry Licia I cant do the race. Im not trying to get bombed,NoSup,NoSup
Congratulations @Boston_Police: ? ? great work.,NoSup,NoSup
Congratulations to FBI! A very good job well done! A justice for all of the victims in Boston Fun run bombing! #salute,YesSup,YesSup
Conspicuously absent from Boston Globe story about how other hotels helped out the Lenox were the Marriott Westin and Sheraton Hotels.,NoSup,NoSup
Cops are chasing a guy in a black hoody by 17 Willow Park. Surrounding the house http://t.co/pLXiHAeanW,NoSup,NoSup
Damn in Boston now Texas ? WTF,NoSup,NoSup
Dartmouth Friends Of Bomb Suspect In Shock Describe Him As Friendly: NORTH DARTMOUTH Mass. ? With the surviving... http://t.co/GPrvNSqPSt,NoSup,NoSup
Dear Conspiracy Theorists STAHP. The Boston bombings were not an inside job. Nor was 9/11. Now I'm sure I'll be called a sheople but God,NoSup,NoSup
Death penalty hopefully. @cnnbrk: The second suspect is in custody whats next? http://t.co/jhI9RbkwAm ?,NoSup,NoSup
Decided to participate in 2014s Boston marathon! Time to work hard and train hard !,NoSup,NoSup
Did you light a candle for #Boston #PrayersForBoston,YesSup,YesSup
Dinner distraction. @ Bostons http://t.co/RrP6cPfhbl,NoSup,NoSup
Dinner w/The Boston Takaokas @ Tommy Doyles http://t.co/44bvk8dixa,NoSup,NoSup
Dinner was to.bomb couldnhttp://t.co/fnSd1RR74Y plate,NoSup,NoSup
Disassociation-stranglingknifing etc are personal..guns bothdepending on use..bombs separate from victims&amp related to pridelike arson,NoSup,NoSup
Doctors at Boston hospital confident no further lives will be lost http://t.co/KPWaqMGYms,NoSup,NoSup
Doesnt seem too terrorist After bombing suspect worked out in gym attended a party slept in his dorm room. http://t.co/gTxAU7K3GC,NoSup,NoSup
Don cherry about to talk about Boston bombings. Oh god,NoSup,NoSup
Doolings snake ass used to play for Boston ? ? ? ? ? ? ? ? ? ? ? ? ? ? ? ? ? ? ? ?,NoSup,NoSup
Downloaded some bomb ass songs last night. Oooooyeaaaa,NoSup,NoSup
Downsized New York Times Co. sees spike in profit: The embattled New York Times Company is reporting an operating... http://t.co/GMbPAUxRe2,NoSup,NoSup
Drop acid not bombs,NoSup,NoSup
Early in the day at Game On @ajmis11 @MclaughlinKrist #MarathonMonday #Boston #RedSox http://t.co/6O9yhiLpEQ,NoSup,NoSup
Edison High is unreal with this bomb shit,NoSup,NoSup
Er....Yeah listen to this ghetto Lady scream the n bomb,NoSup,NoSup
Every cop in Boston right now http://t.co/sUwxxj2D3e,IDKSup,IDKSup
every time Ive been in Boston I could have been considered legally insane word to @Mdele07,NoSup,NoSup
Everybody come through for the benefit for Boston event tomorrow!,YesSup,YesSup
Everyone loves the constitution until its protections extend to someone they dont like. Get over it and follow the law in Boston.,NoSup,NoSup
Explosion near Boston marathon finish line. Where did my country go?,NoSup,NoSup
EZ to forget that Jeff Bauman dbl amputee from marathon woke up on heavy drugs requested pen and paper and helped ID white hat. #Boston,NoSup,NoSup
Fair enough the applause for Anne Williams but fuck of with the Boston thing aint seeing nothing for a coach crash in alps #rant,NoSup,NoSup
FBI is looking for a 12 man sleeper cell of Jihadists who they think trained terrorists brothers to set off bomb at Boston Marathon.,NoSup,NoSup
FBI: we have 2 suspects? this should be interesting? #boston,NoSup,NoSup
FBI: We need help solving Boston Marathon bombings: A bomber may have been seen amid the Boston Marathon revelers... http://t.co/EQOrTgrzkV,NoSup,NoSup
Featured on http://t.co/K4etTeQHFX FBI Warning Boston Bomb Internet Tax Liberal PC Last Week. #rednationrising #uniteright #tcot #tlot,NoSup,NoSup
Filler for the men and women in FBI agents who were able to apprehend in the terrorism in Boston http://t.co/BGHRYW9Ocx,NoSup,NoSup
Finally Boston is safe!!,NoSup,NoSup
First Boston and now Texas wtf is going on bullxhit,NoSup,NoSup
First Boston now Texas.. how many more people gonna die this week? Come on now thats just sad!! #staystrong,NoSup,NoSup
First leg to Boston (@ Portland Amtrak Station) http://t.co/CDNBFbCvc5,NoSup,NoSup
For all of you pushing gun control why dont you try being in Boston with a terrorist on the lose near your home?,NoSup,NoSup
free jahar boston bombing http://t.co/fO4M9pYm5X Are You Just A Believer Or Do You THINK?,IDKSup,IDKSup
Free Momma Bomb Bitch!!!,NoSup,NoSup
French biotech Hemarina opens Boston office: Hemarina SA a privately-held biotechnology company based in... http://t.co/83YWRH2QRe,NoSup,NoSup
Friday &amp Saturday DJ Shaun Lever 1.30 Drinks &amp Shots 1.30 Bombs 10pm - 3:30am #warringtonsno1party,NoSup,NoSup
Fried Oreos are http://t.co/uKH1adkbqx ... Havent had them inna minute .,NoSup,NoSup
Fuck les terroristes aussi. Prayin for Boston.,YesSup,YesSup
Funds raised for the 4 dead in Boston: 22.5 million. Funds raised for the 14 killed in the Texas explosion: 0. Solid job government.,NoSup,NoSup
Gap Band (1982) You Dropped A Bomb On Me 7 http://t.co/BNkltCIpks #FWV #GapBand #1982 #vinylrecords,NoSup,NoSup
Geez. Sad. RT @NBCNews: CONFIRMED: Brown University student falsely identified as Boston bombing suspect found dead in Providence River,NoSup,NoSup
God doesnt deal cards to people that cant handle them. Boston you will be in my thoughts all day. #BostonFam,YesSup,YesSup
Going to see Duke at Boston college cuse and Pitt next season. #leggooo !!!!!!!!!,NoSup,NoSup
Good luck to Bob McAuley #UKIP candidate for the Staniland South by-election for Boston Borough Council Lincolnshire to be held on 2 May.,NoSup,NoSup
Good luck to everyone running the London Marathon today. #blackribbon #prayforboston #GoodLuck http://t.co/MqSuTUB8iU,NoSup,NoSup
Good morning doe!!,NoSup,NoSup
Good night twitter(: #tired #prayforboston #schooltomorrowugh #lol #bye,YesSup,YesSup
Gotta love a nice simple dinner here from Boston Market. @ Beverly Hills California http://t.co/ZKatVjXqq2,NoSup,NoSup
Grace our Zumba instructor for today and Maria our prez! @ Boston University Case Center http://t.co/cfqgHi72cd,NoSup,NoSup
Great Job Boston PD!! ?Thank You:),NoSup,NoSup
Great work Boston PD!!! ? ?,NoSup,NoSup
H&amp M is having a donation drive for the victims of the boston marathon. whatever we get in donations we match. thats so sweet,YesSup,YesSup
Had a bomb 420 yesterday,NoSup,NoSup
Happy b day to my city Saint Marc miss u @ Boston Medical Center http://t.co/Xm0DB2FB8F,NoSup,NoSup
Happy hour with the beasties. Has nothing of happy as many friends are in Boston right now :( (@ Divots Restaurant) http://t.co/rqqVjfi2pE,NoSup,NoSup
He is alive &amp he is finally in custody #Boston #manhunt,NoSup,NoSup
He will have no fear of bad news his heart is steadfast trusting in the Lord.-Psalm 112:7 #PrayforBoston #Pray #World #Universe #Planet,YesSup,YesSup
Hearts out to Boston #prayforboston http://t.co/tYo1N538Su,YesSup,YesSup
Heat roll and LeBron says they can play better: LeBron James looked at the stat sheet then looked at the... http://t.co/DPMAVJccbW,NoSup,NoSup
Hes having a good fin day. #FishbowlMonday nelbowski @ Weber Shandwick Boston http://t.co/DiAZu7xbRY,NoSup,NoSup
High school senior among injured at marathon: CAMBRIDGE Mass. ? A high school senior from a private day school... http://t.co/NHFj6Tl3OP,NoSup,NoSup
Hit a bitchhh wit a car bomb,NoSup,NoSup
Hmmm RT @HuffPostRelig US officials claim that Boston Marathon bombing suspects were motivated by religion http://t.co/UkxT4s9obr,NoSup,NoSup
Holy shit. I know #tags dont help but.. #prayforboston. Incidents like that make me sick.,YesSup,YesSup
Holy shit. RT @TheMatthewKeys: New video shows runners perspective of first explosion at Boston Marathon - http://t.co/i8JO0Gpezk,NoSup,NoSup
Hope everyone is ok in Boston #bostonmarathon,YesSup,YesSup
horrible scenes in Boston #FuckedUpWorld,NoSup,NoSup
http://t.co/SJ4U9EVQIy @hannityshow @FoxBusiness @foxnewspolitics @foxnewsalert @foxandfriends @foxnewsradio Did 2 bombers work for USA? @,NoSup,NoSup
Hundreds run for Boston in Calgary: Hundreds of runners gathered in Calgarys Edworthy Park Saturday to show... http://t.co/tblwUntpPY,NoSup,NoSup
I always thought Boston was a cool type of city. Unfortunately watching the chants of USA USA USA booming out from the locals suggest not...,NoSup,NoSup
I am in shock. There are.some.conspiracy theory nut jobs posting shit on Facebook saying Boston was.a.set up by the government,NoSup,NoSup
i better see someone in @weGOODkarma today &amp enjoy some bomb yaki house with them,NoSup,NoSup
I came for waffles not drama,NoSup,NoSup
I can tell this season about to be the bomb,NoSup,NoSup
i cant believe this shit going down in boston so close to home.. its pretty scary,NoSup,NoSup
I cant believe what happened in Boston. My prayers go out to everyone who was harmed lord be with them #prayforboston #wearblueforboston,YesSup,YesSup
I could be off here but why are people worried about Boston when the dude is cornered and going to get taken out? #Ineedtopaymoreattention,NoSup,NoSup
I Dont Believe @J_tsar did the Bombing in Boston. Unfollow me if it makes you Feel Better! My View U Cant Change it #freejahar @TroyCrossley,NoSup,NoSup
I dont believe that McDonalds in Boston is closed until Thursday. You utter bastards,NoSup,NoSup
I dont know if its because I just got home from the gym or what but I just ate plain sliced cucumber and it was bomb!,NoSup,NoSup
I feel so bad with everything that is goin on up north #watertown you are in my heart same with #boston where is the peace? #BostonBombings,YesSup,YesSup
I go to The Osaka City Museum of Fine Arts to watch a exhibition of the Japanese Masterpieces from The Museum of Fine Arts Boston.,NoSup,NoSup
I got some bomb ass pussy from a white lady,NoSup,NoSup
I got some bomb ass pussy from a white lady.,NoSup,NoSup
I hate being the only child in this house it kills me!! I miss my sister ?,NoSup,NoSup
I have a chemistry test to take tomorrow. Definitely going to bomb it.,NoSup,NoSup
I hope the asshole who made those bombs knows only a real coward attacks helpless little kids. No real man does that. #TinyPenis #TinyBrain,NoSup,NoSup
I just read in the Boston bombing that the guys who did it had military equipment.... How would they be able to get that..,NoSup,NoSup
I Just Want Some Good Ol Fashion Sex Including Getting Some Seriously Bomb Head ?,NoSup,NoSup
I laugh every time I hear novelty device on the news. Makes the bomb device sound like something youd buy from Anne Summers.,NoSup,NoSup
i love boston i don't want to leave,NoSup,NoSup
I need lush bath bombs I need a nice bath ok,NoSup,NoSup
I need to do homework but #Boston coverage is more interesting!!,NoSup,NoSup
I saw the atom bomb. I was four then. I remember the cicadas chirping. The atom bomb was the last thing that happened in the war and ( ),NoSup,NoSup
I still dont get what happened in Boston #dumbguy,NoSup,NoSup
I sure bet their are many Boston people wish they owned attack weapons w/ 30 shell clips!!!!!,NoSup,NoSup
i think im getting more bothered than i should be that people keep lumping up watertown and all the surrounding towns as boston,NoSup,NoSup
I vined way too hard last night but @mjhart99 and @thathistorykid vines from the Boston block party made me so pumped to be from Boston,NoSup,NoSup
I wish I was seeing @SammyAdams and @AllTimeLows shows next week in #Boston. About to say fuck college. #poorcollegekid,NoSup,NoSup
I wish their was a bomb that would just blow up rachet bitches with bad weave at north crowley.,NoSup,NoSup
I wonder if they caught that person who called in the bomb threat at work/casino awhile ago. This is getting out of hand!,NoSup,NoSup
Id be shocked if the royals play tonight. And rightfully so. Who could even think about baseball in Boston right now?,NoSup,NoSup
If i was Doc im pretty sure they would have to send me back to Boston by now. I would kill a bitch w/ these calls. Granted no one can score.,NoSup,NoSup
If I were in #boston right now I would be running to the nearest bar and getting HAMMERED. #merica,NoSup,NoSup
If its true I find it interesting that suspect #1 had not seen his wife and baby for a year &amp she had quit wearing the garb. #Boston,NoSup,NoSup
If you want to see very up-to-date info on #Watertown situation watch local #Boston affiliate #WHDH stream live: http://t.co/ONsOu2CJp1,NoSup,NoSup
If you're interested this is the fund the mayor of Boston and the governor have set up to help the Boston victims. http://t.co/BvgajpLT79,YesSup,YesSup
Im always in Boston I could have been there today. Thank god Im safe. So sad and scary #PrayersForBoston,YesSup,YesSup
Im at @BostonLogan International Airport (BOS) (Boston MA) w/ 23 others http://t.co/twkd27hWxF,NoSup,NoSup
Im at @BostonLogan International Airport (BOS) (Boston MA) w/ 40 others http://t.co/f3fZ3zk543,NoSup,NoSup
Im at @BostonLogan International Airport (BOS) (Boston MA) w/ 55 others http://t.co/NnApXRiK7z,NoSup,NoSup
Im at Boston Opera House (Boston MA) http://t.co/zygicOIYtL,NoSup,NoSup
Im at Boston Sports Club (Providence RI) http://t.co/IvAiLoZ4q1,NoSup,NoSup
Im at Boston University Goldman School of Dental Medicine - @bu_tweets (Boston MA) http://t.co/7HoZiu6801,NoSup,NoSup
Im at Botha Home in Boston Bellville (Boston) http://t.co/3t4LkiDTKW,NoSup,NoSup
Im at Center for Digital Imaging Arts at Boston University - @cdiabu (Washington DC) http://t.co/sfU04A1Sq1,NoSup,NoSup
Im at Downtown New Boston (New Boston MI) http://t.co/DsBJ2QKIdA,NoSup,NoSup
Im at Fenway Park - @mlb (Boston MA) http://t.co/RJiUAE7CoT,NoSup,NoSup
Im at Fenway Park - @mlb (Boston MA) w/ 273 others http://t.co/sVqgBjiR0N,NoSup,NoSup
Im at Howl at the Moon - @_howlatthemoon (Boston MA) w/ 5 others http://t.co/UuI6al41Q9,NoSup,NoSup
Im at MBTA Bus Line SL2 (Boston MA) http://t.co/EeLTdmxPNm,NoSup,NoSup
Im at MBTA Copley Station - @mbtagm (Boston MA) http://t.co/2wlvwJ2udq,NoSup,NoSup
Im at MBTA Kenmore Station - @mbtagm (Boston MA) w/ 3 others http://t.co/n1dZZraKtU,NoSup,NoSup
Im at Millers Boston Ale House (Watertown MA) w/ 2 others http://t.co/BwB2PBbwkX,NoSup,NoSup
Im at Savin Hill (Boston MA) http://t.co/N70AHvyIyh,NoSup,NoSup
Im at Stats - @sbgsouthie77 (Boston MA) w/ 3 others http://t.co/JOsPFks1BS,NoSup,NoSup
Im at Stephanies On Newbury - @stephaniesonnew (Boston MA) w/ 4 others http://t.co/sIaG0UIkh8,NoSup,NoSup
Im at Turner Fisheries of Boston (Boston MA) http://t.co/O2y52CMaWi,NoSup,NoSup
Im at University of Massachusetts - Boston (Boston MA) w/ 5 others http://t.co/5oY7KBHNdk,NoSup,NoSup
Im not NY enough to cop that 40oz x #Been #Trill hat. I already get stares in Boston for the KIDS one haha. @40oz_VAN,NoSup,NoSup
Im Rosie Ruiz I start where I please A victory with ease Is better for knees! On this day Rosie wins the Boston Marathon 1980.,NoSup,NoSup
Im surprised that none of the principles acknowledged the Boston tragedy. Or at least acknowledged that Mrs. Zim was there #BullShit,YesSup,YesSup
Im talking people stripped to bras/underwear and boxers going fucking nuts. With bomb ass music.,NoSup,NoSup
Im thinking about retiring from telling the Boston Marathon conspiracy theorists that theyre idiots. Ill miss the way they made me laugh!,NoSup,NoSup
Im waiting for that text from miss @KrissaBelle228,NoSup,NoSup
Imma send your ass a birthday cake.. itll be the BOMB. lololol,NoSup,NoSup
In th midst of Boston Delhi&amp NortheastRape news @firstpostin: Visit to MehboobStudio makes BigB nostalgic is BreakingNews? @AapChutiyeHain,NoSup,NoSup
In Watertown the scene seemed reminiscent of the news of a World War II era victory. ? http://t.co/HUYaqd9m7p,NoSup,NoSup
International Trade Suppor... - Fidelity Investments: ( #Boston MA) http://t.co/YQd48bj8Ha #InvestmentBanking @fidelityjobs #Job,NoSup,NoSup
Investigators say that #Dzhokar #Tsarnaev is in fair condition admits role in bombing denies government involvement http://t.co/W3eCUuLcvR,NoSup,NoSup
Ironically this Boston charm is in James Averys Mothers Day edition catalog. http://t.co/RBRFh7Omhq,NoSup,NoSup
Is anyone else wearing purple tomorrow for Boston ?,YesSup,YesSup
is it just me or is there no places in boston that have a breakfast place that delivers,NoSup,NoSup
Isnt it funny how the person whos responsible for the Boston Marathon Bombing became famous for doing a bad thing? http://t.co/gi7mWvz6wu,NoSup,NoSup
It feels like im on a massage chair in a spa from up here with a spectacular view of Boston but im http://t.co/ErbLpf6wS3,NoSup,NoSup
It must be sports season (@ Wells Fargo Center - @sixers for Boston Bruins vs Philadelphia Flyers) http://t.co/opQACOmoFk,NoSup,NoSup
It took only 5 seconds for this cuddle-bomb to explode upon arriving home...lol. I think they like it when Im home http://t.co/ZdGHZhYOdy,NoSup,NoSup
It truly makes me so sick to read the news with bombs on trains and foreigners being held captive why cant we all just love eachotherr,NoSup,NoSup
Itd be a spectacular warm day if not for the wind. Well take a spectacular cool day. #boston #weTherreport,NoSup,NoSup
Its a beautiful day in my city. BOSTON MASS STRONG,YesSup,YesSup
Its both fascinating and disturbing in equal measures that I spent most of today listening to a live stream of Boston Police radio...,NoSup,NoSup
Ive only been to Boston twice and I have 10 shirts that say Boston on them. The same shirts... Different colors.,NoSup,NoSup
Ive said it before and Ill say it again. President Obama is amazing. #Obama #Boston,NoSup,NoSup
Jakes probe 4 suspicious fires in Hyannis: Two homes in Hyannis were destroyed early this morning and two others... http://t.co/CqwZdNoddQ,NoSup,NoSup
Jeff Green is Bostons best/most consistent player right now. Knicks in 5.,NoSup,NoSup
Jeremy Lang is the suspect in the Cullman/Marshall Co bomb threats last night. http://t.co/MWD0kmrWhQ http://t.co/zxGHtAaeuP,NoSup,NoSup
Johnny Boychuk Tyler Seguin and Brad Marchand wearing their Boston Strong shirts before todays game... CS http://t.co/PRlkwSMKoA,YesSup,YesSup
Joint hearing planned on Islamic radicals in Chechnya: U.S. Reps. Joseph P. Kennedy III and U.S. Rep. William... http://t.co/8zZegJ79Ul,NoSup,NoSup
Judging by tweets it seems that the local Boston stations have more info than the larger networks. Anybody know where I can watch them???,NoSup,NoSup
Just awful scenes in Boston right now,NoSup,NoSup
Just going to throw it out there Boston bomber looks a bit like the singer of vampire weekend,NoSup,NoSup
JUST HOW STUPID IS THIS AUNTFATHER AND MOTHER OF THE BOSTON BOMBERS YOU CANT GET MUCH MORE GUILTY THAN THEY ARE !,NoSup,NoSup
Just made some bomb ass baked mac and cheese ),NoSup,NoSup
Just published: #BostonMarathon bombing in 50 tweets 5 videos -- a timeline from Monday to Friday -- http://t.co/ix5wl9ysV1,NoSup,NoSup
just read wayyyyy too much into this Boston bombing... ?,NoSup,NoSup
Just saw 1 BBC brking news abt Boston shootings. Nothing0 frm. Amer. news hesitate 2call media#uniteblue,NoSup,NoSup
Just saw the video of the Boston marathon explosion....prayers go out to everyone affected,YesSup,YesSup
justice. sleep well Boston.,YesSup,YesSup
Knicks held Boston to 25 pts in the 2nd half in Game one bettered that with a 23-pt second half tonight. ? defense wins playoff games! #nba,NoSup,NoSup
Kobe Bryant tearing his Achilles isnt a national tragedy ESPN however what happened in Boston is #espnlogic,NoSup,NoSup
Landing in Boston makes me feel how lucky I am to live here. #bostonstrong,NoSup,NoSup
Last night live shot with John Oliver on the Daily Show in front of Crossroads in Boston!,NoSup,NoSup
Leaving the 717. Visiting Boston and MIT!,NoSup,NoSup
Leaving. On a jet (blue) plane. Dont know when Ill be back again. #faa #boston http://t.co/zIeN0d44tX,NoSup,NoSup
Let that hurt go bro. RT @HeirJordan_: I hope Boston get swept,NoSup,NoSup
Lets go Boston Work Nigga ? ? ? ?,NoSup,NoSup
Lets go to Boston I hear its a blast!,NoSup,NoSup
Library fire NOT connected. It was an electrical fire #PrayForBoston,YesSup,YesSup
Listening to Boston police live feed... Crazy!!!,NoSup,NoSup
Lmao @DWave_Man said he cant wait til he get older cause his wife aint gone have teeth n she gon giv some bomb ass head! Fse!!,NoSup,NoSup
Lockscreen. Jailbroken. hey_x_kid_bombs_away someone who I know makes me smile when Im completely http://t.co/T4cYmDY1GT,NoSup,NoSup
loooooooool bomb threat in Alabama here we go again.,NoSup,NoSup
Lotus flower bomb,NoSup,NoSup
Love my city! #Boston http://t.co/k1wwA8Rkjr,NoSup,NoSup
Love you @BarackObama love you Boston. Love you guys http://t.co/YWhU7IGvrl,NoSup,NoSup
Made Colton some bomb ass coffee,NoSup,NoSup
Man Claims to Have Bombs and Firearms in Gilroy: Gilroy police evacuated an apartment complex on Thursday... http://t.co/XSRnqA6qWj,NoSup,NoSup
Man everyone is going crazy! Bombs explosions and now a school shooting at MIT. This world needs JESUS!,NoSup,NoSup
Man how you gon be from NY liking a Boston team? #comeonson #youknowwhoyouare,NoSup,NoSup
Markets rebound after AP Twitter hack swoon: The Associated Press' official Twitter account was hacked this... http://t.co/epT6texrsA,NoSup,NoSup
Martin Grant Associates: Property/Casualty W/Comp Claims ( #Boston MA) http://t.co/e7mCOGvZaQ #Insurance #NettempsJobs #Job #Jobs,NoSup,NoSup
Massachusetts governor Patrick is worried about the Boston bombers privacy about welfare payments,NoSup,NoSup
Maybe I dont wanna go to med school in the Boston area...,NoSup,NoSup
Me and two beautiful stunning ladies! Goodtimes at venu in boston we rage and love the night life #wolfpack #nitewolf http://t.co/ni1Vf8ubWN,NoSup,NoSup
Melo is basically telling Boston to gk fuck itself ? ?,NoSup,NoSup
MEMSIC board backs $88.5M acquisition: Andover-based MEMSIC Inc. said today it has agreed to be acquired by... http://t.co/YuWXfib6LA,NoSup,NoSup
MICHAEL SAVAGE TONIGHT: THE FBI STEPPED IN AND TOLD THE BOSTON POLICE NO PRESS CONFERENCE OR ELSE THEIR FEDERAL FUNDING IS PULLED.,NoSup,NoSup
Milw. Bomb Squad Commander urges vigilance: MILWAUKEE (WITI) ? After the tragedy at the Boston Marathon on... http://t.co/qYhR9v9vRk,NoSup,NoSup
miss atomic bomb,NoSup,NoSup
More shit going down in Boston? Tell me this ain't real?,NoSup,NoSup
Mr. Wildes just told me there was a bomb threat,NoSup,NoSup
My cuticle oil smells like jager bombs,NoSup,NoSup
My mom says that I dont have to go to school tomorrow because of an apparent bomb threat at West. All absences are excused. #yes,NoSup,NoSup
My only talent is making some bomb ass peanut butter and jelly sandwiches.,NoSup,NoSup
my parents living in cambridge just got a call to stay inside: code red boston is shut down. this is unreal &amp im scared. #BostonBombing,NoSup,NoSup
My post from earlier today on how the Boston Manhunt demonstrates why broadcast news is making itself disposable http://t.co/7vjfRCNBLI,NoSup,NoSup
My prayers go out for all the people in Boston Marathon bombing. #prayforboston,YesSup,YesSup
My taxi car is clean guys! I cleaned the bomb!,NoSup,NoSup
My thoughts and prayers are with all of those affected by the tragic events in Boston today.,YesSup,YesSup
My thoughts are still with Boston .....keep on running Boston,YesSup,YesSup
NBA Playoffs Preview: Eastern Conference First Round Predictions: The Miami Heat may be the biggest sports story... http://t.co/dxxHAmNvwn,NoSup,NoSup
New flag flying at Boston Harbor CC http://t.co/UUVFjWON4p,NoSup,NoSup
Newport chucking a smoke bomb on the pitch clever...,NoSup,NoSup
Newport fans with a smoke bomb at Grimsby Town @FBAwayDays @Awaydays23 http://t.co/R1HAQYsMqj,NoSup,NoSup
News is saying this might not be over could be more widespread #PrayForBoston #PrayForAmerica,YesSup,YesSup
News via Twitter? This just makes me so proud. http://t.co/X1YiSZNL82,NoSup,NoSup
no more hurting people #prayforboston,YesSup,YesSup
No this nigga didnt just drop the L bomb already. #Bates,NoSup,NoSup
No way the bombers stayed that close to Boston. This shits a hoax. Stupid govt.,NoSup,NoSup
North Caucasus rebels deny link to Boston bombings http://t.co/sHv6tC9xxZ,NoSup,NoSup
Not a good week to be in Boston #badtiming,NoSup,NoSup
Notebook: Backup plan goes awry: NEW YORK ? Jason Terry has pinned his year on a playoff renaissance ? at least... http://t.co/YtXLDvSk5Z,NoSup,NoSup
Now more bombs in Boston?! Ugh. :( Im way too freaked out to sleep tonight.,NoSup,NoSup
NY ? BOSTON,NoSup,NoSup
Oakland As visit 11-year-old bomb victim: Josh Reddick and Brandon Moss of the Oakland Athletics visited an... http://t.co/D6NamJGcrR,NoSup,NoSup
Of all the things to bomb why the Boston Marathon?,NoSup,NoSup
Oh hey Boston http://t.co/qnI4WuGVT4,NoSup,NoSup
Oh my God. http://t.co/CNbXnP4QTn,NoSup,NoSup
oh my gosh - whats going on in boston #bbcnews #notuptodate :(,NoSup,NoSup
Oh shit I bet they didnt have the title for that SUV either... http://t.co/64DIhMqUxf,NoSup,NoSup
Ok? Wtf the news put up that newtown principal lady on the news saying she died in the bombs Monday.,NoSup,NoSup
OMG LOL RT @fivethirtyeight: How is Boston supposed to feel normal when the rest of us are pretending that we dont hate their sports teams?,NoSup,NoSup
Omg me too!!!!!!!! RT @AYYSIAN: I like to stop the microwave with 0:01 to go. Makes me feel like Im defusing a bomb and saving lives. ?,NoSup,NoSup
omg picstitch is stupid but ya fav bath bomb ? http://t.co/DIeOwXpwMz,NoSup,NoSup
Omg this is disgusting heart goes out to boston http://t.co/kpvCHL5O48,YesSup,YesSup
On Ch2 at 11 @AmyWSB speaks to local double-amputee who was at mile 25 of Boston Marathon when bombs went off http://t.co/ty6L9qThy9,NoSup,NoSup
On our way to Boston with @efrostmd,NoSup,NoSup
On the way to Boston....,NoSup,NoSup
One lesson @UKenyatta should learn from Boston! Close Garrissa for 2wks police search to start immediately!,NoSup,NoSup
one more picture of Sakura in Boston at the Charles River Esplanade a state-owned park situated in http://t.co/nIqDrWEvL7,NoSup,NoSup
Op-ed: Uncle of suspected bombers says exactly right thing at exactly right moment http://t.co/F42nzjssk1 via @kathgorm cc @mattdizwhitlock,NoSup,NoSup
Opened report via Android at 7 Melnea Cass Blvd Boston http://t.co/x8MpMbSSuF. Trash left out.,NoSup,NoSup
Or i wanna go to iraq and be like im the bomb lmao,NoSup,NoSup
Our world is such a scary place. #boston #ricin #waco,NoSup,NoSup
Payton7 who has been cheering at Gmas finishline for me for 5 yrs heard bout Boston today said shell still come cheer 4 me. #amazingkid,NoSup,NoSup
Peach Faygo is bomb as hell .,NoSup,NoSup
People know about Boston what about Texas today? Hope everyone gets tended to as fast as possible #waco,NoSup,NoSup
Photo bomb pictures are the funniest pictures lmfao,NoSup,NoSup
Play ball!! @joshuarrrrrrr @amandaboudrow @Rob51988 #FenwayPark #Boston #RedSox #BostonStrong http://t.co/7gxzKcSEL7,NoSup,NoSup
Police Release Incredible Thermal Images of Boston Bombing Suspect in His Last Hiding Place http://t.co/SDcR3F0Com e.r.,NoSup,NoSup
Police: Boston suspects planned to attack New York http://t.co/hJBZ0EPnWW,NoSup,NoSup
Possible suspect identified in #Boston investigation. #bostontragedy #bostonmarathon #bostonattack,NoSup,NoSup
Pray for Boston http://t.co/PJUUt7BFKm,YesSup,YesSup
Pray for Boston... My second home,YesSup,YesSup
Prayers for Boston and the victims!! ? ? I stopped watching the local news at the beginning of the http://t.co/ol4fdAwJmT,YesSup,YesSup
Prayers for Boston.,YesSup,YesSup
Prayers for everyone affected by the Boston Marathon explosions. :(,YesSup,YesSup
Prayers going to Boston and West Texas. We are Americans we stick together through hard times like this. We come together in time of need.,YesSup,YesSup
Prayers to all those affected by the Boston Marathon bombing this afternoon.,YesSup,YesSup
Prayers to Boston,YesSup,YesSup
Prayers with everyone in Boston.,YesSup,YesSup
Praying for everyone in the Boston area as this week comes to an end,YesSup,YesSup
Prettttty cute :) @ Boston Medical Center http://t.co/RxdFjtxL6x,NoSup,NoSup
Props to Boston.,NoSup,NoSup
Pru Tower lights up in memory of bombing victims: Boston Properties will light up the Prudential Tower in tribute... http://t.co/eMTOnmq2Ug,YesSup,YesSup
R.I.P to those who suffered the Boston Bombings.,YesSup,YesSup
Rachel Maddow - featuring wackjobs who believe Boston Bombing to be a govt job. Good grief! And how sad! Americas crazy underground.,NoSup,NoSup
Read this: RT @bryanrwalsh: Boston is where civil libertarians concerns have come home to roost: http://t.co/2dIUHDcWkH,NoSup,NoSup
Red Cross runs ads on T to help with Marathon bombing stress: The American Red Cross of Eastern Massachusetts has... http://t.co/CWN8iF4noP,YesSup,YesSup
Red robin does sound bomb right now though,NoSup,NoSup
Red Velvet Cupcakes &amp &amp Cream Cheese Frosting w/ my Bestie #fwm #BOMB @ Capitol Heights Apartments http://t.co/k7v0pM1ZVM,NoSup,NoSup
Reported timeline: MIT shooting car-jacking shootout 1 of 2 suspects apprehended now. NOT confirmed. #watertown #Boston,NoSup,NoSup
Representative: Father of Boston suspects to fly from Russia to U.S.: The mother of the two suspects in the... http://t.co/AbamqgZTyp,NoSup,NoSup
RIP Anne Williams... Respect Boston,YesSup,YesSup
RIP to the people lost today in Boston ?,YesSup,YesSup
Rock the boat! #boston #cnn,NoSup,NoSup
RT @BobKroehler Stupid bombs!! #CandyCrush,NoSup,NoSup
RT @Boston_Police #MediaAlert: WARNING: Do Not Compromise Officer Safety by Broadcasting Tactical Positions of Homes Being Searched.,NoSup,NoSup
RT @finsjesse Huge congrats to @BenVolinPBP headed to the Boston Globe to cover the Pats.,NoSup,NoSup
RT @kasie NBC News: Boston Marathon bombers were planning to come to New York and detonate the balance of their explosives in Times Square,NoSup,NoSup
rt @LAsThePlace Janet Napolitano calls Boston terror question on why Saudi was deported not worthy of an answer http://t.co/RQAU4LPstF,NoSup,NoSup
RT @NHLBruins: Bruins and Sabres salute Boston at center ice... CS #BostonStrong http://t.co/Layi9ll6VC ?,NoSup,NoSup
RT @Suntimes: Live video: Explosions at the Boston Marathon http://t.co/aMRsw7k9Af #BostonMarathon,NoSup,NoSup
RT@Earth_Pics: Lovely Boston Skyline USA http://t.co/P2mBdyQWCv,NoSup,NoSup
Run for #boston @ bostonmarathon @newyorkroadrunners @ nyspacerunners. Support my fellow # runners!!! (@ nycparks) http://t.co/MyiAXpYr2i,NoSup,NoSup
Run For Boston Fun Run (@ A Snails Pace) http://t.co/92OsmzskPI,NoSup,NoSup
Run for Boston! (@ Stanley Park w/ 2 others) [pic]: http://t.co/h5o4mRU6AI,NoSup,NoSup
Running a few for Boston (@ Snap Fitness) http://t.co/uGwzn967ls,NoSup,NoSup
Russians bombed Boston.. Here come the terrorist rumors,NoSup,NoSup
S/O to my boy @DSmien92 in The Batt today. Read what this selfless &amp insightful Ag has to say about Boston &amp Syria http://t.co/XD9GY2uASq,NoSup,NoSup
Sad mood throughout the house tonight. Ordering Chinese and watching a comedy with the boys to try to lighten the mood. #PrayForBoston,YesSup,YesSup
Saying that Reddit was responsible for the death of a misidentified Boston Bomber is fucking moronic. He was missing for a month beforehand.,NoSup,NoSup
Scary: Americans blaming the Czech Republic (and the Slovaks??) for the Boston bombing http://t.co/qiwDoPFL18,NoSup,NoSup
See CNN this is why we cant have nice things. RT @BuzzFeedNews: Officials have canceled today's scheduled 5pm media briefing from Boston.,NoSup,NoSup
Seriously about to bomb this test.,NoSup,NoSup
She be dropping f bombs like a sailor thought I was bad,NoSup,NoSup
She bombed Boston,NoSup,NoSup
Shit up (whatever the kids name was) thats why your family/you were in Boston last week,NoSup,NoSup
Shits going down in Boston #MarathonManhunt,NoSup,NoSup
Shoutout to the Boston police and to all the Feds playing a role in the Suspects capture. Theyre lives are on line every day.,NoSup,NoSup
Sickened by the boston marathon explosions. Our world is messed up and sick utterly disgusted.,NoSup,NoSup
Simply staggering: @Telegraph: Businessman found guilty of selling novelty golf ball finders as bomb-detection kits http://t.co/hEWr6Iucf9,NoSup,NoSup
Skin smells so nice after using bath bombs earlier ?,NoSup,NoSup
Small ball helps Cards beat Nats 4-2 for sweep: Yadier Molina hit a two-run single off Stephen Strasburg during... http://t.co/S5k0paYwT6,NoSup,NoSup
So disgusted. #prayforboston,YesSup,YesSup
So happy they caught the man involved with the Boston bombings. Words cannot express how extremely grateful I am. Praying for safety. Night,YesSup,YesSup
So happy to be with @jstrock2 @ptobinhl #gaynight #boston #southend #family #sohappy @ Zocalo Cocina http://t.co/QCB2CvRJXG,NoSup,NoSup
So many bomb threats smh,NoSup,NoSup
so ready to bomb tomm (,NoSup,NoSup
So sad about the Boston Marathon. Its horrible. And to the people that died or are injured you are in our heart. :) #prayforboston,YesSup,YesSup
So so so bomb!!!! @haley_brownn http://t.co/3MQMnWDsCe,NoSup,NoSup
so the alleged suspects in the Boston bombing arent black or dark skinned...but what the media is telling us is that dark people are BAD,NoSup,NoSup
So what seems like the entire worlds banks being robbed explosions at the world renowned Boston marathon #whatgives,NoSup,NoSup
Solid earnings drive stocks higher on Wall Street: NEW YORK ? Strong earnings from a range of U.S. companies are... http://t.co/w8QDOmjdbG,NoSup,NoSup
Some crazy parties in Boston will be thrown tonight,NoSup,NoSup
Some good news - Doctors: All Boston bombing patients likely to survive http://t.co/S6RezSjedk,YesSup,YesSup
someone buy me a Boston Terrier and ill love you forever ? ?,NoSup,NoSup
Someone go to Tampa vs. Boston baseball game with me May 14th ? ? ? #ticketsarecheap #pleasee lol,NoSup,NoSup
Something about the whole Boston suspects situation just seems off..almost too perfectly played out,NoSup,NoSup
Something is in the air this week. Sending good vibes to #boston and #waco.,YesSup,YesSup
Sour Patch ? are so bomb !,NoSup,NoSup
Spoke with Lisa Turner a runner from Wisconsin. She said she wasnt planning on doing the marathon again but now says she wants to. #boston,NoSup,NoSup
State House Boston MA. http://t.co/VUYqAJxd53,NoSup,NoSup
Stocks mixed as major companies report earnings: NEW YORK ? Stocks are opening little changed on Wall Street as... http://t.co/BjLVkBqVhf,NoSup,NoSup
Stop take a few minutes and #PrayForBoston. ? ?,YesSup,YesSup
Strong people dont put others down they lift them up,NoSup,NoSup
Super classy. RT @BuzzFeed Chicago Tribune sent the Boston Globe pizza today (pic: @GlobeJenPeter) http://t.co/Cvqem14V0o,NoSup,NoSup
Suspect in custody. #boston,NoSup,NoSup
Sweet Caroline appeared on Wednesday 17 at the 13th place in the Top20 of Bostons Trending Topics: http://t.co/HeV34D0dF2,NoSup,NoSup
Talk about a nightmare.. Not the best way to wake up this morning #prayforboston,YesSup,YesSup
Tallys gonna bomb the world lol,NoSup,NoSup
Tell these niggas man RT @ahhh_JAVIer: That Boston shit is so fake. If you believe those 2 niggas did it. Your stupid af,NoSup,NoSup
Terrible scenes in Boston but this is what happens when you get involved in other peoples shit. UK Goverment please take note,NoSup,NoSup
That nap was super bomb,NoSup,NoSup
That place is bomb asf ?,NoSup,NoSup
The @celtics are going to be swept in the first round of the playoffs. This is rock bottom for Boston. #celticstalk,NoSup,NoSup
The arrested the guy that did the bomb in Boston,NoSup,NoSup
The attendance is gonna is astronomical &amp the security presence in Boston next year is gonna be insane.,NoSup,NoSup
The Boston bombers are getting just what they wanted--endless publicity in the media. TV off.,NoSup,NoSup
The Boston Bombing Witch Hunt Bags Another Innocent Kid: http://t.co/Og9u2Zkk2j via @Deadspin,NoSup,NoSup
The Boston Marathon Bomber is in custody! USA Military prevails once again,NoSup,NoSup
The Chinese Consulate in New York says a Chinese national is the third person killed in the Boston marathon blasts.,NoSup,NoSup
THE DICK TOO BOMB DOE,NoSup,NoSup
The fact theres a raid two streets away from the jail and its gonna be on the show Bostons finest,NoSup,NoSup
The FBI is gonna catch the Boston bombers. Theres too many pictures videos and evidence.,NoSup,NoSup
The funny thing is 95 of you wont give a shit about Boston tomorrow. Dont glorify a tragedy to make yourself look good. Thats pathetic.,NoSup,NoSup
The Lumineers always make me nostalgic for NYC and Boston last summer. Just roaming the streets and figuring out life. Miss them days man.,NoSup,NoSup
The network was excellent this week.. RT @HuffingtonPost: NBCs Boston triumph http://t.co/jaKw81Nl5W,NoSup,NoSup
The news coverage Boston is receiving is kinda ridiculous...,NoSup,NoSup
The news said police were chasing him as he was throwing bombs out the window. Grand Theft Auto? Niko gotta chill bruh,NoSup,NoSup
The news unfolding in Boston right now is surreal.,NoSup,NoSup
The NYP is a horrible rag of a paper but this is low even for them and a prime example of racial profiling http://t.co/t3RaZLnhQ3 #p2 ?,NoSup,NoSup
The parents of the Boston bombers are in such denial. If they didnt do anything they wouldnt run from the police throwing bombs etc?!,NoSup,NoSup
the people of Boston right now>> ?,NoSup,NoSup
The police killed one of the boston bombers!,NoSup,NoSup
The weathers bomb right now !!!,NoSup,NoSup
The Yankees bombed the Boston marathon? #rivalry #toosoon? #mybad,NoSup,NoSup
Then there was that time we watched a guy trip n break his nose in Boston and had to wait for our rescue to show up http://t.co/DM0LuywxpK,NoSup,NoSup
There in London not Boston #divvy,NoSup,NoSup
There is a bomb threat at SMC (my school) dont come to campus this shit is insane,NoSup,NoSup
There would be a bomb threat,NoSup,NoSup
These spicy wedges are gonna be the bomb,NoSup,NoSup
These Sriracha chips are hella bomb.,NoSup,NoSup
These tacky ass Boston posters...could u imagine a poster with the wtc being blown up behind pray for ny #imsleepdoe,NoSup,NoSup
They bouta kill that nigga in Boston that did that bomb shit..he dangerous as fuck..,NoSup,NoSup
They should ban pressure cookers bc they can make bombs Guns bc they pull their own triggers and kill ppl And spoons bc they make ppl fat,NoSup,NoSup
They should do a Law Abiding Citizen style punishment for this kid from the Boston bombing well deserved. #ChopHisWillyOff,NoSup,NoSup
They tell us to stay in the building and room right?? well what if the muhfuckas put a bomb in the buildin??,NoSup,NoSup
Theyre going to wind up finding him along with a room full of fcking bombs,NoSup,NoSup
This afternoon @ 2:50 PM Boston time there will be a moment of silence in memory of those who lost their lives as a result of the bombings.,YesSup,YesSup
This back and forth to Boston has literally eaten up the majority of my day.,NoSup,NoSup
This bomb shit is getting pretty serious. Bomb threat at SAC wow,NoSup,NoSup
This bomb threat is either really really serious or they are way over reacting,NoSup,NoSup
This is a chilling photo. Simply chilling. Thoughts and prayers to Boston. http://t.co/eBCsJxvKNI,YesSup,YesSup
This is just nuts. Bomb threat at the TX State House Kaufman DA updates now the plant explosion? Ive never seen so much TX on my feed.,NoSup,NoSup
This is the first the Ive ever been anxious to go into Boston alone for internship,NoSup,NoSup
This legit seems like something from a movie. #citywidelockdown #boston,NoSup,NoSup
This roundtable pizza im eatin is fukin bomb,NoSup,NoSup
This teriyaki is bomb,NoSup,NoSup
This was bomb hope it rains,NoSup,NoSup
This whole situation in Boston is so crazy.,NoSup,NoSup
This. @EricStangel: Dear media I dont think you need to show us how to make a pressure cooker bomb. Thank you. ?,NoSup,NoSup
Thoroughly enjoying the #royals and their win today. Still they have to hit at some point. Now for a night of Kansas storms.,NoSup,NoSup
Those who lost limbs bond in hospital: As the victims of the Boston Marathon bombings continue to recover from... http://t.co/sb33RlIUgj,NoSup,NoSup
Thoughts and prayers for Boston,YesSup,YesSup
Thoughts and prayers go out to all those that have been effected by this horrible event #prayforboston,YesSup,YesSup
Thoughts and prayers go out to the city of Boston,YesSup,YesSup
Thoughts and prayers go out to victims of the Boston Marathon. #PrayForBoston,YesSup,YesSup
thoughts are with those injured at the boston marathon..but it must put londons in doubt now tbh.. #scum #whenwillitend,YesSup,YesSup
thoughts are with you #boston,YesSup,YesSup
Thoughts go out to the people in #Boston. #BostonMarathon,YesSup,YesSup
Three Days Later: Images show aftermath on Boylston: Images from SkyFox show the aftermath of the Boston Marathon... http://t.co/R7DxcGPg1A,NoSup,NoSup
Thursday! Finally a day I can enjoy. #Motivation (@ Boston Sports Club) http://t.co/gWIVdhfYQl,NoSup,NoSup
To all the customers that kept on talking for the moment of silence for everyone affected by the Boston marathonyour rude and inconsiderate,YesSup,YesSup
Today was seriously a bomb ass day !!! :D,NoSup,NoSup
Took until 3:00 am to realize I never put makeup on today. See this as a formal apologize to the city of Boston.,NoSup,NoSup
Tweet 8751 goes to Boston PD and the FBI for all the shit theyve been through this week.,NoSup,NoSup
Two explosions go off at the Boston marathon. #crazy,NoSup,NoSup
U should. Ur the bomb,NoSup,NoSup
Ugh RT @RedSox Are you a Boston area college student in a fraternity or sorority? Join us Greek Life Night @ Fenway! http://t.co/DTifpk4o4l ?,NoSup,NoSup
Under US Code one criteria for WMD charge is offense affect(s) interstate or foreign commerce. ? http://t.co/6SH8FSb08R @jury,NoSup,NoSup
Uuuuggh i could have gone to boston ?,NoSup,NoSup
Vegas bombs for mackdooley 21st! @ Black Market Bar and Grill http://t.co/ure9Vqp3LB,NoSup,NoSup
Very cool to see the folks in Boston cheering on the first responders!,NoSup,NoSup
Waco better not be another Boston Im sick of this shit,NoSup,NoSup
Wait shit whats happening now in Boston?!,NoSup,NoSup
Walter White. #breakingbad #grafitti #stencil #streetart #Boston http://t.co/2aWpAHDAgS,NoSup,NoSup
Watching the news and cops and swat teams fly through the streets of Boston outside. Completely surreal.,NoSup,NoSup
We all literally just had a big ass argument... Lol hella F bombs were dropped!,NoSup,NoSup
We cant figure out who killed tupac on the Vegas strip but we can find the marathon bombers still in Boston 5 days later ? #BULLSHIT,NoSup,NoSup
We say Watertown. Bostonians say Whatta Town. What a town indeed! #Boston #WCVB,NoSup,NoSup
We should refuse to do testing until they give us some bomb breakfast,NoSup,NoSup
We stay on the front lines but yea we still here after the bomb drops,NoSup,NoSup
Websense fights cyber crime post Boston Marathon blasts: The Websense ThreatSeeker Network is blocking email-b... http://t.co/zAOarSShVR,NoSup,NoSup
Well put a boot in your ass its the American way. #TobyKeith ? #america #getoutterrorists #boston,NoSup,NoSup
What an amazing job by the police and FBI grabbing the Boston Marathon bomber alive. Been watching it unfold on Reddit all day.,NoSup,NoSup
What are the odds I run into @whatupcal while out and about in Boston today? #futurehusband #kiddingbutnotreally ?,NoSup,NoSup
What happened in #Boston?,NoSup,NoSup
What happened to Boston...,NoSup,NoSup
What the heck is going on at Boston now?,NoSup,NoSup
Whats killing me about this whole Boston thing is CNN first reported that the suspects were dark skin but ended up being Russian?,NoSup,NoSup
Whats this world coming to?.. Praying for Boston,YesSup,YesSup
When criminals attack us with terror we shouldnt respond with fear mongering towards the race of the criminal. #Chechnya #boston #Dzhokhar,NoSup,NoSup
whn is ur nxt moviegood deeds d bomb,NoSup,NoSup
Who threw that smoke bomb at Derby yesterday !!.....,NoSup,NoSup
Whoever put those bombs there are straight up cowards. #BostonMarathon,NoSup,NoSup
why do I feel like the government had something to do with the bombing in Boston?,NoSup,NoSup
Why do people have to set off bombs and shit damn cant we all just live in peace?,NoSup,NoSup
Why do people think the Boston shooting is illuminati just because there was a person on the roof,NoSup,NoSup
Why does the week leading to 4/20 always gotta be fucked? Columbine Waco OKC VaTech Boston West etc. Can we just get to 4/20 &amp get baked?,NoSup,NoSup
Will John Lackey return to @RedSox rotation on Sunday? Check out the pregame notes for Tuesday! http://t.co/UPAKat4gZn,NoSup,NoSup
Work in Progress ! bostonbakery Express Los Palos Grandes @ Boston Bakery http://t.co/g3SjX7Nb4i,NoSup,NoSup
Working out with @bomb_diggyd. Getting this heart right.,NoSup,NoSup
Wow @JermichaelF88 is donating $500 to fund Boston for every dropped pass this season Boston is about to get paaaaaaaiiiiiiidddd!,YesSup,YesSup
Wow that shit in Boston is crazy right now,NoSup,NoSup
wow. RT @BloombergNews: FLASH: Boston bombing suspects said to consider second attack on Times Square in New York City: official,NoSup,NoSup
Wow. Unbelievable how this all started and ended. RT: Police chief details Fridays Boston manhunt http://t.co/Rlu6f2y2u5,NoSup,NoSup
XD @Bobie_Bobzy: Shit's hitting the fan. The Problem with One-Night Stands in Locked-Down Boston http://t.co/NKCHpwyQ7h via @EsquireMag,NoSup,NoSup
Yeaaasa cheese bacon boobs and butts,NoSup,NoSup
yeaah Biggest RESPECT 4 #Boston mothafuckin #BombTerrorist,NoSup,NoSup
Yeah if youre still posting conspiracy theories about Boston even after this guy admitted what he did youre an idiot &amp Im unfollowing you,NoSup,NoSup
Yes Obama lets talk about gun control after Boston just got bombed #no,NoSup,NoSup
yes! they found the other suspect for the bomb in boston .,NoSup,NoSup
You can bomb this bitch and ill just chill in the kitchen,NoSup,NoSup
You dont fuck with Boston #mycityforever,NoSup,NoSup
You dont know me you dont even care. Oh yea I think Im going to Boston I think Im going to start a new life start over,NoSup,NoSup
You have to know your the bomb,NoSup,NoSup
You told yo mama we wasnt cool nomore .I wonder what you said cause I kno u aint tell her you was being a hoe &amp thats why i dont like u,NoSup,NoSup
You will run again because thats what the people of Boston are made of - Obama #myman,YesSup,YesSup
Youngest Boston bombing victim MIT officer laid to rest: Eight-year-old Martin Richard was laid to rest Tuesday... http://t.co/kmP6oEWhJn,NoSup,NoSup
Your Boston Bombing is their Every Morning,NoSup,NoSup
Youve got to love U.S. They charged the Boston bomber with using a Weapon of Mass Destruction. A fcukin PRESSURE COOKER!! Mammies beware!,NoSup,NoSup
